===================================== regularization parameter = 0.0=====================================
Correct % = 62.96296296296296
FMeasure = 0.4
FMeasure = 0.7536231884057972
FMeasure = 0.42857142857142855
Mean FMeasure = 0.5273982056590752
=== Confusion Matrix ===

  a  b  c   <-- classified as
  5  3  2 |  a = Yellow
  9 26  3 |  b = Green
  1  2  3 |  c = Red

=================================================================================================================
===================================== regularization parameter = 0.1=====================================
Correct % = 64.81481481481481
FMeasure = 0.4
FMeasure = 0.7714285714285714
FMeasure = 0.4615384615384615
Mean FMeasure = 0.5443223443223443
=== Confusion Matrix ===

  a  b  c   <-- classified as
  5  3  2 |  a = Yellow
  9 27  2 |  b = Green
  1  2  3 |  c = Red

=================================================================================================================
===================================== regularization parameter = 0.29=====================================
Correct % = 66.66666666666667
FMeasure = 0.41666666666666663
FMeasure = 0.7887323943661972
FMeasure = 0.4615384615384615
Mean FMeasure = 0.5556458408571084
=== Confusion Matrix ===

  a  b  c   <-- classified as
  5  3  2 |  a = Yellow
  8 28  2 |  b = Green
  1  2  3 |  c = Red

=================================================================================================================
===================================== regularization parameter = 0.84=====================================
Correct % = 68.51851851851852
FMeasure = 0.4347826086956522
FMeasure = 0.7887323943661972
FMeasure = 0.5714285714285715
Mean FMeasure = 0.5983145248301404
=== Confusion Matrix ===

  a  b  c   <-- classified as
  5  3  2 |  a = Yellow
  8 28  2 |  b = Green
  0  2  4 |  c = Red

=================================================================================================================
===================================== regularization parameter = 1.35=====================================
Correct % = 70.37037037037037
FMeasure = 0.45454545454545453
FMeasure = 0.8055555555555555
FMeasure = 0.5714285714285715
Mean FMeasure = 0.6105098605098606
=== Confusion Matrix ===

  a  b  c   <-- classified as
  5  3  2 |  a = Yellow
  7 29  2 |  b = Green
  0  2  4 |  c = Red

=================================================================================================================
===================================== regularization parameter = 1.6300000000000001=====================================
Correct % = 70.37037037037037
FMeasure = 0.47619047619047616
FMeasure = 0.8055555555555555
FMeasure = 0.5333333333333333
Mean FMeasure = 0.6050264550264549
=== Confusion Matrix ===

  a  b  c   <-- classified as
  5  3  2 |  a = Yellow
  6 29  3 |  b = Green
  0  2  4 |  c = Red

=================================================================================================================
===================================== regularization parameter = 1.86=====================================
Correct % = 68.51851851851852
FMeasure = 0.47619047619047616
FMeasure = 0.7887323943661972
FMeasure = 0.5
Mean FMeasure = 0.5883076235188911
=== Confusion Matrix ===

  a  b  c   <-- classified as
  5  3  2 |  a = Yellow
  6 28  4 |  b = Green
  0  2  4 |  c = Red

=================================================================================================================
===================================== regularization parameter = 4.97=====================================
Correct % = 66.66666666666667
FMeasure = 0.45454545454545453
FMeasure = 0.7714285714285714
FMeasure = 0.5
Mean FMeasure = 0.5753246753246753
=== Confusion Matrix ===

  a  b  c   <-- classified as
  5  3  2 |  a = Yellow
  7 27  4 |  b = Green
  0  2  4 |  c = Red

=================================================================================================================
===================================== regularization parameter = 6.16=====================================
Correct % = 66.66666666666667
FMeasure = 0.4347826086956522
FMeasure = 0.7714285714285714
FMeasure = 0.5333333333333333
Mean FMeasure = 0.579848171152519
=== Confusion Matrix ===

  a  b  c   <-- classified as
  5  3  2 |  a = Yellow
  8 27  3 |  b = Green
  0  2  4 |  c = Red

=================================================================================================================
===================================== regularization parameter = 6.62=====================================
Correct % = 64.81481481481481
FMeasure = 0.4347826086956522
FMeasure = 0.7536231884057972
FMeasure = 0.5
Mean FMeasure = 0.5628019323671498
=== Confusion Matrix ===

  a  b  c   <-- classified as
  5  3  2 |  a = Yellow
  8 26  4 |  b = Green
  0  2  4 |  c = Red

=================================================================================================================
===================================== regularization parameter = 9.47=====================================
Correct % = 62.96296296296296
FMeasure = 0.41666666666666663
FMeasure = 0.7352941176470588
FMeasure = 0.5
Mean FMeasure = 0.5506535947712418
=== Confusion Matrix ===

  a  b  c   <-- classified as
  5  3  2 |  a = Yellow
  9 25  4 |  b = Green
  0  2  4 |  c = Red

=================================================================================================================
