NN = 1
   a   b   c   <-- classified as
 145  58   9 |   a = Green
  12  14   6 |   b = Yellow
   3   5  19 |   c = Red

NN = 2
   a   b   c   <-- classified as
 147  55  10 |   a = Green
  14  14   4 |   b = Yellow
   3   7  17 |   c = Red

NN = 3
   a   b   c   <-- classified as
 144  58  10 |   a = Green
  12  16   4 |   b = Yellow
   5   4  18 |   c = Red

NN = 4
   a   b   c   <-- classified as
 149  53  10 |   a = Green
  13  14   5 |   b = Yellow
   5   5  17 |   c = Red

NN = 5
   a   b   c   <-- classified as
 146  54  12 |   a = Green
  14  14   4 |   b = Yellow
   3   5  19 |   c = Red

NN = 6
   a   b   c   <-- classified as
 140  54  18 |   a = Green
  11  16   5 |   b = Yellow
   4   5  18 |   c = Red

NN = 7
   a   b   c   <-- classified as
 146  54  12 |   a = Green
  12  15   5 |   b = Yellow
   3   5  19 |   c = Red

NN = 8
   a   b   c   <-- classified as
 152  45  15 |   a = Green
  14  13   5 |   b = Yellow
   5   4  18 |   c = Red

NN = 9
   a   b   c   <-- classified as
 142  57  13 |   a = Green
  13  13   6 |   b = Yellow
   3   4  20 |   c = Red

NN = 10
   a   b   c   <-- classified as
 147  56   9 |   a = Green
  12  15   5 |   b = Yellow
   2   6  19 |   c = Red

NN = 11
   a   b   c   <-- classified as
 146  55  11 |   a = Green
  11  15   6 |   b = Yellow
   4   3  20 |   c = Red

NN = 12
   a   b   c   <-- classified as
 137  54  21 |   a = Green
  10  14   8 |   b = Yellow
   4   4  19 |   c = Red

NN = 13
   a   b   c   <-- classified as
 141  52  19 |   a = Green
  12  15   5 |   b = Yellow
   3   5  19 |   c = Red

NN = 14
   a   b   c   <-- classified as
 138  58  16 |   a = Green
  12  13   7 |   b = Yellow
   0   6  21 |   c = Red

NN = 15
   a   b   c   <-- classified as
 142  59  11 |   a = Green
  12  14   6 |   b = Yellow
   5   4  18 |   c = Red

NN = 16
   a   b   c   <-- classified as
 138  59  15 |   a = Green
  11  16   5 |   b = Yellow
   4   4  19 |   c = Red

NN = 17
   a   b   c   <-- classified as
 144  54  14 |   a = Green
  16  10   6 |   b = Yellow
   5   3  19 |   c = Red

NN = 18
   a   b   c   <-- classified as
 146  52  14 |   a = Green
  13  16   3 |   b = Yellow
   3   4  20 |   c = Red

NN = 19
   a   b   c   <-- classified as
 146  55  11 |   a = Green
  12  15   5 |   b = Yellow
   4   3  20 |   c = Red

NN = 20
   a   b   c   <-- classified as
 146  57   9 |   a = Green
  14  14   4 |   b = Yellow
   3   4  20 |   c = Red

NN = 21
   a   b   c   <-- classified as
 145  56  11 |   a = Green
  12  15   5 |   b = Yellow
   4   4  19 |   c = Red

NN = 22
   a   b   c   <-- classified as
 148  54  10 |   a = Green
  12  13   7 |   b = Yellow
   4   5  18 |   c = Red

NN = 23
   a   b   c   <-- classified as
 148  56   8 |   a = Green
  13  15   4 |   b = Yellow
   5   3  19 |   c = Red

