NN,Accuracy(%),FGreen,FYellow,FRed,FMean,ScoreS
1,65.64814814814814,0.7776203439361334,0.2568919968919969,0.63,0.5548374469427102,3.0931686170896695
2,65.7010582010582,0.7769757707915602,0.262542735042735,0.5673809523809524,0.5356331527384158,3.004974715145768
3,65.68783068783068,0.7710151989186195,0.2785780885780885,0.6121428571428571,0.5539120482131884,3.0885007107052713
4,66.44179894179894,0.7804597001655826,0.27209235209235205,0.5532539682539682,0.5352686735039677,3.009794511235688
5,66.08465608465607,0.7755654774192869,0.25097402597402596,0.6597619047619048,0.5621004693850725,3.132382878021291
6,64.21957671957671,0.7572103178521663,0.29202020202020207,0.5374025974025974,0.5288777057583219,2.9586087066311717
7,66.44179894179894,0.7785337552946856,0.2628554452083864,0.6134920634920634,0.5516270879983785,3.0863520975725534
8,67.56613756613754,0.7917379727906043,0.26136363636363635,0.555952380952381,0.5363513300355406,3.025959673196515
9,64.56349206349205,0.7632181719125766,0.23241869241869245,0.6047619047619048,0.5334662563643912,2.988257688350228
10,66.73280423280423,0.7830035495979768,0.2815151515151515,0.6257142857142858,0.563410995609138,3.140999201291771
11,66.7989417989418,0.7798806071832387,0.2722477522477523,0.6126190476190476,0.5549158023500129,3.104200153936996
12,62.75132275132275,0.7516700623937467,0.2654467754467754,0.5377777777777778,0.5182982052060999,2.897557604189183
13,64.55026455026454,0.7608882623821648,0.244018204018204,0.5213492063492065,0.5087518909165251,2.873732135390672
14,63.51851851851852,0.759495226136093,0.23701298701298704,0.586111111111111,0.527539774753397,2.949786323640813
15,64.25925925925927,0.7591137493924816,0.24966533466533467,0.5607142857142857,0.5231644565907008,2.9366190688240454
16,63.80952380952382,0.7546524222994812,0.2834770784770784,0.5407142857142857,0.5262812621636153,2.9435203755497876
17,63.80952380952381,0.7618875453342719,0.19230158730158733,0.5816666666666667,0.511951933100842,2.8852759863716217
18,67.15608465608464,0.7779616282055306,0.3037179487179487,0.6047619047619046,0.5621471605617947,3.1386297492882855
19,66.73280423280423,0.7757738377630962,0.28449938949938947,0.6395238095238095,0.5665990122620983,3.1568115964639407
20,66.50793650793649,0.7726531347583978,0.24489101541733121,0.6730952380952381,0.563546462756989,3.1448813017760386
21,66.04497354497354,0.7734160479603356,0.28300993124522533,0.603116883116883,0.5531809541074814,3.0881428951725334
22,66.04497354497354,0.7843563103232626,0.24991064491064488,0.5054761904761904,0.5132477152366993,2.905571872527809
23,67.15608465608464,0.782148401910918,0.27409090909090905,0.6466666666666667,0.5676353258894979,3.166000659017347
