Week,Accuracy(%),FGreen,FYellow,FRed,FMean
3,47.5609756097561,0.5630252100840336,0.3870967741935484,0.4,0.4500406614258607
4,51.6260162601626,0.6339622641509434,0.3148148148148148,0.43697478991596644,0.4619172896272415
5,56.50406504065041,0.6865671641791046,0.38399999999999995,0.4646464646464646,0.5117378762751897
6,57.31707317073171,0.7157894736842104,0.24444444444444444,0.47863247863247865,0.47962213225371114
7,63.82113821138211,0.7799442896935934,0.23376623376623373,0.2857142857142857,0.43314160305803756
8,63.82113821138211,0.7777777777777779,0.23684210526315785,0.2857142857142857,0.4334447229184071
9,63.82113821138211,0.7771739130434783,0.1739130434782609,0.2909090909090909,0.4139986824769433
10,62.60162601626016,0.771513353115727,0.3061224489795918,0.31578947368421056,0.46447509192650976
11,68.69918699186992,0.8179271708683473,0.25,0.44444444444444436,0.5041238717709305
12,65.44715447154472,0.7797619047619048,0.26666666666666666,0.5454545454545455,0.5306277056277057
13,67.47967479674797,0.7988668555240793,0.21621621621621623,0.523076923076923,0.5127199982724062
14,66.26016260162602,0.7906976744186046,0.27906976744186046,0.48387096774193544,0.5178794698674668
15,65.44715447154472,0.7922077922077922,0.3539823008849557,0.5352112676056338,0.5604671202327939
16,70.32520325203252,0.8075709779179809,0.4423076923076923,0.6197183098591549,0.6231989933616093
17,67.07317073170732,0.7934426229508198,0.4067796610169491,0.5797101449275363,0.5933108096317684
18,69.51219512195122,0.8087774294670848,0.4077669902912621,0.6000000000000001,0.6055148065861157