sum_count_assignment_upload,sum_count_forum_add_post,sum_count_forum_view_discussion,sum_count_quiz_review,sum_count_scele_resource_view,snr_count_assignment_view,snr_count_course_view,snr_count_forum_view_discussion,snr_count_quiz_view,snr_diff_scele_resource_view,asgn_mean_diff_time_due_first_submit,signal
-3.660874,-0.673866,-1.19467,-1.880233,-2.830029,-3.433986,-5.073171,-3.823083,-3.274496,0.907323,-0.684942,Red
0.729105,-0.46719,-0.706687,0.437082,0.843932,-2.101149,1.128997,1.708236,0.219604,-0.817691,-0.015417,Red
0.143775,-0.673866,-0.544026,-0.887098,0.21411,-0.291473,1.163294,0.521806,0.989182,-0.868964,-0.701174,Red
-4.246204,-0.673866,-1.19467,-2.163985,-2.934999,-4.003849,-5.361277,-3.823083,-3.668852,0.330904,-0.512037,Red
-0.587888,0.772869,-0.251236,-0.508761,1.158843,-1.050242,-1.414435,1.336952,0.254212,-1.092506,-0.642079,Red
0.582773,0.15284,0.627133,-0.839806,1.494748,-1.436512,-2.502428,0.442828,-1.058599,-1.395885,-0.704353,Red
-0.002558,-0.260513,-0.251236,1.099171,-1.486409,-0.303717,-0.851525,-0.626473,0.428516,1.362009,-0.527535,Yellow
-0.734221,0.15284,1.147648,2.423351,1.34779,-0.005747,0.467133,0.653727,1.244109,-0.747995,-0.362639,Yellow
0.290107,-0.673866,-0.771751,0.957295,0.592004,-0.282724,-0.628381,-0.216049,0.869405,-1.16586,-0.112016,Yellow
0.143775,0.979546,2.416403,-1.265435,1.494748,0.054276,0.326207,2.205197,0.242875,-0.27786,-0.365567,Yellow
-0.14889,-0.673866,-0.934412,-0.603345,0.445045,-0.265441,-0.636238,-1.05294,-0.207875,0.644641,-0.557741,Yellow
0.290107,0.359516,-0.186172,-0.083132,1.305802,-2.073472,-1.420332,0.495212,0.395609,-1.333654,-0.693715,Yellow
0.729105,0.15284,-0.413897,-0.319592,0.151128,0.759557,-0.260992,-0.383572,0.222897,1.108429,-0.23677,Yellow
-0.002558,0.979546,2.058549,1.5248,2.082582,1.122058,-0.103535,0.368122,0.316013,-0.399962,-0.312807,Yellow
-0.002558,-0.673866,-0.771751,0.531666,1.515742,0.561,0.939711,0.298969,0.329492,-1.003444,-0.593339,Yellow
-0.002558,-0.46719,-0.381365,0.720834,1.263814,1.80864,-0.419039,0.250082,-0.306243,-0.334496,-0.696415,Yellow
0.43644,1.392899,1.407905,-0.650637,0.592004,0.946707,0.733366,0.177521,1.185968,0.081964,-0.142339,Green
0.43644,1.186223,0.659665,0.058745,0.654986,1.369842,1.882184,0.24811,1.900633,0.229982,0.553607,Green
0.43644,-0.673866,-0.316301,0.058745,0.298087,1.943725,0.908285,0.826074,0.894098,-1.266686,-0.056626,Green
0.729105,-0.46719,-0.739219,-1.028974,-0.646646,-1.290551,-0.20761,-0.596096,0.550301,1.130579,0.665135,Green
-1.026886,1.392899,1.245244,0.011452,-0.814599,0.82078,0.550408,0.766608,0.231244,2.482122,1.881327,Green
0.729105,-0.46719,-0.706687,-0.083132,-0.142789,0.213105,1.111845,-0.970001,0.089673,-0.493296,0.368439,Green
0.143775,-0.46719,-0.413897,-0.839806,1.179837,0.728931,3.077535,0.263665,0.040764,-0.34959,-0.671414,Green
4.680087,1.392899,3.132111,-0.887098,0.172122,-1.623129,1.329369,-0.233147,-0.918697,-0.407495,0.094944,Green
-1.465884,5.113077,7.914343,1.004587,4.580875,1.103081,0.117475,1.80832,1.535116,-0.883867,0.041505,Green
1.753434,-0.46719,-0.023511,2.659811,4.496899,2.513365,2.26787,0.277087,1.243526,-0.78764,-0.28506,Green
-0.587888,-0.260513,-0.413897,-1.407311,-1.360444,-0.43937,-1.173512,-0.486266,0.113137,0.586258,-0.405116,Green
-0.295223,2.219605,3.424901,-0.130424,-0.604658,0.106174,-0.644028,0.134979,0.431442,0.897797,0.72636,Green
-0.14889,-0.260513,-0.674155,0.106037,0.235104,0.129566,-0.159938,0.162389,0.708195,-1.268679,0.567609,Green
0.290107,0.15284,0.074085,2.18689,0.172122,0.416993,-0.570421,-0.430099,1.429585,0.050903,0.203824,Green
0.729105,-0.260513,0.822326,-0.93439,0.445045,-0.581312,-0.340386,0.278886,-0.744582,0.004106,-0.219389,Green
-0.587888,-0.673866,-0.348833,-0.083132,-0.499688,0.499901,1.064811,2.793605,0.213857,-1.122448,-0.637734,Green
0.143775,-0.053837,-0.576558,-1.218143,-1.717343,-0.693548,-0.40795,-2.104316,-0.363627,0.984731,0.65495,Green
-0.734221,1.392899,3.847819,0.862711,-0.121795,0.681949,1.166165,1.617624,0.667345,0.870803,-0.243521,Green
-0.295223,0.359516,1.603098,-0.887098,1.578725,1.204941,2.972783,0.976237,0.158986,0.926075,1.510527,Green
-0.14889,-0.673866,-0.804284,-0.2723,-1.066527,0.144165,-0.835949,0.148526,-1.072069,1.54824,-0.550136,Green
-0.734221,-0.053837,-0.739219,-0.603345,-0.940563,2.334774,0.302698,-0.679685,-0.027953,0.413333,2.50602,Green
-0.002558,-0.053837,-0.674155,-1.170851,-1.864302,-1.864254,-0.446484,-1.20744,0.39066,0.699107,0.555962,Green
-0.880554,1.599576,0.919922,2.045014,-1.465415,-0.23278,0.62861,0.507109,1.321879,1.703942,0.083364,Green
0.290107,-0.260513,-0.804284,-0.366885,0.550015,-0.137295,1.145413,-0.383572,-0.892,0.139173,-0.506434,Green
-1.173219,0.979546,0.854858,0.058745,0.738962,0.021237,1.9193,2.835616,0.157927,-0.641341,-0.411698,Green
-0.734221,-0.673866,-0.381365,-0.745222,-0.100801,0.170766,-0.009772,-0.417904,-0.0863,-0.414019,0.128579,Green
-0.587888,0.566193,1.050051,-1.123559,-0.583664,0.658488,-0.686369,-0.546733,0.035852,0.87876,-0.070596,Green
-0.295223,-0.673866,-0.836816,-1.123559,-0.730622,-0.317555,-2.467303,-0.393008,-1.339255,-0.83546,-0.563185,Green
-0.587888,0.15284,2.351339,2.376059,3.36322,1.949599,0.244706,2.819287,1.02645,-1.234301,0.148711,Green
0.43644,-0.46719,0.43194,1.713969,-0.100801,0.438301,-0.232893,-0.254683,-0.221689,0.181152,-0.129924,Green
-0.587888,-0.260513,-0.088575,0.910003,-0.919569,1.517658,0.080342,0.539183,1.840543,0.633136,-0.21728,Green
-0.441556,0.772869,0.984987,-0.697929,-1.087521,2.214042,-0.5453,1.097161,-1.880548,-0.161367,-0.123299,Green
0.143775,-0.673866,0.041553,0.342497,1.578725,-0.08617,1.924548,-1.441042,-0.86728,-0.968712,-0.585833,Green
0.290107,0.772869,0.789794,-1.028974,-0.751616,0.738132,0.53082,1.0396,-0.541347,0.475319,0.277952,Green
0.143775,-0.46719,-0.511494,-1.265435,-0.016824,0.243731,-0.607882,-0.151435,0.503778,-0.405244,1.832105,Green
-0.441556,-0.673866,-0.511494,-1.360019,0.508027,-1.289091,0.488607,-1.403296,0.968071,-0.874641,-0.500964,Green
0.290107,-0.053837,-0.609091,-0.366885,-0.793605,0.824651,0.631228,0.07696,1.07502,0.204967,-0.043053,Green
-0.880554,-0.260513,-0.44643,-0.981682,-1.066527,0.15281,-0.534025,-0.291113,-0.004485,0.271224,-0.200908,Green
