===================================== regularization parameter = 0.0=====================================
Correct % = 53.7037037037037
FMeasure = 0.2727272727272727
FMeasure = 0.38461538461538464
FMeasure = 0.7000000000000001
Mean FMeasure = 0.4524475524475524
=== Confusion Matrix ===

  a  b  c   <-- classified as
  3  3  0 |  a = Red
  4  5  1 |  b = Yellow
  9  8 21 |  c = Green

=================================================================================================================
===================================== regularization parameter = 0.77=====================================
Correct % = 51.851851851851855
FMeasure = 0.2727272727272727
FMeasure = 0.37037037037037035
FMeasure = 0.6779661016949152
Mean FMeasure = 0.44035458159751945
=== Confusion Matrix ===

  a  b  c   <-- classified as
  3  3  0 |  a = Red
  4  5  1 |  b = Yellow
  9  9 20 |  c = Green

=================================================================================================================
===================================== regularization parameter = 2.99=====================================
Correct % = 53.7037037037037
FMeasure = 0.28571428571428575
FMeasure = 0.42857142857142855
FMeasure = 0.6779661016949152
Mean FMeasure = 0.46408393866020986
=== Confusion Matrix ===

  a  b  c   <-- classified as
  3  3  0 |  a = Red
  3  6  1 |  b = Yellow
  9  9 20 |  c = Green

=================================================================================================================
===================================== regularization parameter = 3.67=====================================
Correct % = 55.55555555555556
FMeasure = 0.36363636363636365
FMeasure = 0.4444444444444445
FMeasure = 0.6779661016949152
Mean FMeasure = 0.49534896992524113
=== Confusion Matrix ===

  a  b  c   <-- classified as
  4  2  0 |  a = Red
  3  6  1 |  b = Yellow
  9  9 20 |  c = Green

=================================================================================================================
===================================== regularization parameter = 5.14=====================================
Correct % = 57.407407407407405
FMeasure = 0.36363636363636365
FMeasure = 0.4615384615384615
FMeasure = 0.7000000000000001
Mean FMeasure = 0.5083916083916084
=== Confusion Matrix ===

  a  b  c   <-- classified as
  4  2  0 |  a = Red
  3  6  1 |  b = Yellow
  9  8 21 |  c = Green

=================================================================================================================
===================================== regularization parameter = 5.8500000000000005=====================================
Correct % = 55.55555555555556
FMeasure = 0.3478260869565218
FMeasure = 0.4615384615384615
FMeasure = 0.6779661016949152
Mean FMeasure = 0.4957768833966328
=== Confusion Matrix ===

  a  b  c   <-- classified as
  4  2  0 |  a = Red
  3  6  1 |  b = Yellow
 10  8 20 |  c = Green

=================================================================================================================
===================================== regularization parameter = 14.700000000000001=====================================
Correct % = 53.7037037037037
FMeasure = 0.3333333333333333
FMeasure = 0.4615384615384615
FMeasure = 0.6551724137931034
Mean FMeasure = 0.4833480695549661
=== Confusion Matrix ===

  a  b  c   <-- classified as
  4  2  0 |  a = Red
  3  6  1 |  b = Yellow
 11  8 19 |  c = Green

=================================================================================================================
