NN,Accuracy(%),FGreen,FYellow,FRed,FMean,ScoreS
1,56.42857142857142,0.701099574570063,0.1468997668997669,0.4927922077922079,0.44693051642067916,2.521684769645421
2,55.37037037037037,0.6841127895412903,0.13141636141636143,0.49350649350649356,0.4363452148213818,2.466297868202536
3,52.38095238095237,0.6669234966246351,0.10836144247908955,0.4658730158730159,0.4137193183255802,2.335078496915309
4,51.28306878306878,0.6459935639838017,0.11727716727716728,0.4833333333333333,0.4155346881981007,2.334646892800543
5,50.48941798941799,0.6324817397506224,0.12225382460676579,0.473968253968254,0.40956793944188075,2.300674388905448
6,52.77777777777777,0.6595933610523395,0.13085581085581083,0.46269841269841266,0.417715861535521,2.3570442653229033
7,54.642857142857146,0.6819998533969123,0.10523809523809524,0.49612554112554114,0.4277878299201829,2.421971666001078
8,52.791005291005284,0.6631504708005257,0.11422161172161172,0.4749206349206349,0.41743090581425746,2.356830969614376
9,52.777777777777786,0.6539216352581273,0.11246753246753247,0.5438888888888889,0.4367593522048496,2.447617495399485
10,51.25661375661375,0.6392525952076037,0.10323676323676323,0.5121645021645022,0.41821795353628965,2.349451142224487
11,52.03703703703703,0.6553644286500323,0.11433907595672303,0.5095238095238095,0.4264091047101882,2.3913824957485947
12,52.03703703703703,0.6621955585143441,0.09921281333046039,0.4957142857142857,0.41904088585303007,2.3576350892954308
13,50.91269841269842,0.6556419893919894,0.07076923076923078,0.45690476190476187,0.3944386606886607,2.236252200752201
14,52.06349206349206,0.6541085953340022,0.1191941391941392,0.493015873015873,0.42210620251467146,2.3716458112796874
15,51.32275132275133,0.6457945163857477,0.14012392835922247,0.5022222222222221,0.42938022232239736,2.396527991120221
16,53.87566137566138,0.67675558201874,0.0918997668997669,0.5425541125541126,0.43706982049087306,2.458612356296567
17,54.603174603174594,0.67458682041025,0.13661965485494898,0.5304329004329006,0.44721312523269985,2.509235967137795
18,51.29629629629629,0.6476108950412356,0.1368131868131868,0.4834920634920635,0.42263871511549533,2.365193851100972
19,52.354497354497354,0.657316958497299,0.12598631760396467,0.5338095238095237,0.43903759997026254,2.4514104073028222
20,56.85185185185185,0.7000546080648775,0.10333333333333332,0.5904761904761905,0.46462137729146713,2.61228445096481
21,52.791005291005284,0.6534718928532317,0.14000146911911618,0.501825396825397,0.43176625293258153,2.4221312962083754
22,52.31481481481482,0.661560205917791,0.0953968253968254,0.47150793650793643,0.40948832260751766,2.317257523234303
23,53.1084656084656,0.6622912763199486,0.1398621553884712,0.4951587301587302,0.43243738728905,2.4269606324199144
