NN,Accuracy(%),FGreen,FYellow,FRed,FMean,Score
1,60.85714285714287,0.7626480604325432,0.2566017316017316,0.3304761904761905,0.44990866083682174,2.746478799191443
2,61.333333333333336,0.7630350880725693,0.2827777777777778,0.3296825396825397,0.45849846851096226,2.7913906994406745
3,64.69047619047619,0.7923243933588762,0.34634920634920635,0.32992063492063495,0.48953141154290575,2.9686415191874964
4,58.833333333333336,0.7548169380357319,0.24047619047619045,0.2654761904761905,0.4202564396627043,2.5678590919841504
5,56.0,0.7162912087912087,0.2754040404040404,0.2783333333333334,0.42334286084286077,2.559618918118918
6,59.404761904761905,0.7471408090117767,0.2755627705627706,0.3626190476190476,0.4617742090645316,2.7963760570373473
7,59.833333333333336,0.748063899063899,0.3028227328227328,0.3016666666666667,0.45085109951776614,2.7328022779689447
8,58.92857142857142,0.7432014697680897,0.2666883116883117,0.31333333333333335,0.44107437159657825,2.681444672533499
9,60.92857142857142,0.7688323237648576,0.25256132756132754,0.3307142857142857,0.4507026456801569,2.7498228482328932
10,59.333333333333336,0.7383112888000444,0.272063492063492,0.37317460317460316,0.4611831280127133,2.797732512050853
11,56.47619047619048,0.7357159277504105,0.20188034188034187,0.2777777777777778,0.40512468246951006,2.477477972857283
12,63.21428571428572,0.7684467575846886,0.3232034632034632,0.40619047619047616,0.4992802323262094,3.023428288612197
13,60.88095238095239,0.7587568035412864,0.2705050505050505,0.29857142857142854,0.4426110942059219,2.70440252978184
14,60.357142857142854,0.7519644927231133,0.3109090909090909,0.38999999999999996,0.4842911945440681,2.918632310643805
15,56.78571428571429,0.7292164591474937,0.28747474747474744,0.26666666666666666,0.4277859577629692,2.5834006853087312
16,60.80952380952381,0.7695167660173222,0.26375901875901875,0.3416666666666667,0.4583141504810026,2.786556024723433
17,60.5,0.7538689599034426,0.2694444444444445,0.3923809523809524,0.4718981189096131,2.8636718407178177
