Lambda,Accuracy(%),FGreen,FYellow,FRed,FMean,Score
0.0,77.66617063492063,0.0,0.6938958420262337,0.0,0.2312986140087446,1.9959676720592725
0.01,77.20486111111111,0.0,0.6934547711311778,0.0,0.23115159037705926,1.9897556490678059
0.02,76.09871031746032,0.0,0.6690624290670563,0.0,0.22302080968901877,1.93908024837901
0.03,78.31349206349206,0.0,0.7136358451129573,0.0,0.23787861503765245,2.034003533935106
0.04,77.18501984126985,0.0,0.7000644563839711,0.0,0.23335481879465703,1.9996524045506605
0.05,76.56498015873015,0.0,0.6872926230576171,0.0,0.22909754101920562,1.9726284505931078
0.06,76.89484126984128,0.0,0.7006564356082015,0.0,0.23355214520273382,1.9970779631706708
0.07,77.1875,0.0,0.7050220658426716,0.0,0.2350073552808905,2.0072838342920964
0.08,76.88492063492063,0.0,0.6882474383640529,0.0,0.22941581278801762,1.9779317864439285
0.09,75.94742063492063,0.0,0.674143735137524,0.0,0.2247145783791747,1.9450561081632511
0.1,76.40128968253967,0.0,0.692400475228553,0.0,0.23080015840951768,1.9784962048742571
0.11,77.67609126984125,0.0,0.7113477173233271,0.0,0.23711590577444236,2.0228462618005296
0.12,76.58730158730158,0.0,0.7023034778309877,0.0,0.23410115927699593,1.9959129517218002
0.13,77.03869047619048,0.0,0.7101960737137849,0.0,0.2367320245712617,2.0134315987420894
0.14,76.56746031746032,0.0,0.6936413666751138,0.0,0.23121378889170466,1.9823929527113648
0.15,76.26984126984128,0.0,0.683924489568833,0.0,0.22797482985627765,1.9639223125769725
0.16,76.8874007936508,0.0,0.7011694503136956,0.0,0.2337231501045652,1.9977753000048093
0.17,77.2123015873016,0.0,0.7056367227024982,0.0,0.23521224090083268,2.0085239271914497
0.18,76.24503968253967,0.0,0.6972019689217841,0.0,0.23240065630726137,1.9839834952038784
0.19,76.87003968253967,0.0,0.700452361514019,0.0,0.23348412050467302,1.9964674305119716
0.2,76.72371031746032,0.0,0.7008173481840527,0.0,0.23360578272801752,1.9952711243584045
0.21,77.18998015873015,0.0,0.7035345335377394,0.0,0.23451151117924648,2.0050327133292956
0.22,75.63740079365078,0.0,0.6851364239334298,0.0,0.22837880797780996,1.958191326221735
0.23,76.8998015873016,0.0,0.7021353929429279,0.0,0.23404513098097599,1.9994052215601086
0.24,77.18005952380952,0.0,0.7077668183945806,0.0,0.2359222727981935,2.011403169157404
0.25,76.43353174603175,0.0,0.695684324303718,0.0,0.23189477476790596,1.9839183448847484
0.26,76.41121031746032,0.0,0.6998779905014443,0.0,0.23329266350048136,1.9900807759117383
0.27,77.20982142857142,0.0,0.7118628388537634,0.0,0.23728761295125445,2.0180408767186275
0.28,75.15376984126983,0.0,0.6797838572838574,0.0,0.2265946190946191,1.9441804859304859
0.29,75.9672619047619,0.0,0.6952383265517212,0.0,0.23174610885057376,1.9776392435697818
0.3,75.93005952380953,0.0,0.6900775107638862,0.0,0.23002583692129544,1.9692795641236733
0.31,76.56498015873015,0.0,0.6965460186938554,0.0,0.23218200623128515,1.9868169905686734
0.32,76.0813492063492,0.0,0.6862159593866912,0.0,0.22873865312889702,1.965173994869117
0.33,75.80357142857143,0.0,0.6914023231294927,0.0,0.23046744104316427,1.9697930859414123
0.34,75.32242063492063,0.0,0.6831861897230957,0.0,0.22772872990769857,1.951421205194461
0.35000000000000003,75.9375,0.0,0.6801177479742375,0.0,0.2267059159914125,1.9540972135604975
0.36,76.41369047619047,0.0,0.6991812695171205,0.0,0.2330604231723735,1.9890422323072035
0.37,75.48115079365078,0.0,0.6807753152489995,0.0,0.22692510508299982,1.9496292929056087
0.38,76.89732142857142,0.0,0.7061348660859065,0.0,0.23537828869530214,2.005507985141247
0.39,75.46626984126985,0.0,0.6925401103598737,0.0,0.23084670345329128,1.967490073980378
0.4,77.35367063492063,0.0,0.708684757538719,0.0,0.23622825251290633,2.0148940091784167
0.41000000000000003,75.7514880952381,0.0,0.6900612541797952,0.0,0.23002041805993176,1.9671117802185432
0.42,76.57738095238095,0.0,0.6906452140480142,0.0,0.230215071349338,1.9779178996355264
0.43,75.45882936507937,0.0,0.684185836637075,0.0,0.22806194554569165,1.954590901891134
0.44,77.04613095238095,0.0,0.7044434816656728,0.0,0.2348144938885576,2.0047002433159364
0.45,77.19742063492063,0.0,0.7088987239602544,0.0,0.23629957465341817,2.013347091024771
0.46,76.09871031746032,0.0,0.6901406031319897,0.0,0.2300468677106632,1.9714001152785745
0.47000000000000003,75.7688492063492,0.0,0.6971429826713551,0.0,0.23238099422378503,1.9781787639056017
0.48,76.07886904761905,0.0,0.6938164748530603,0.0,0.2312721582843534,1.976798356679454
0.49,75.77876984126983,0.0,0.6927183965504882,0.0,0.23090613218349604,1.9715134461393198
0.5,76.87748015873015,0.0,0.7039588341105024,0.0,0.23465294470350084,2.0019333075408654
0.51,75.95238095238095,0.0,0.6915188039281241,0.0,0.2305062679760414,1.9717574041183616
0.52,75.60763888888889,0.0,0.6882346801117751,0.0,0.22941156003725846,1.9625848428380552
0.53,76.08878968253968,0.0,0.6962627735022247,0.0,0.2320875911674082,1.9806683955605542
0.54,76.88492063492063,0.0,0.7017173014111823,0.0,0.2339057671370607,1.9985855764495268
0.55,76.24999999999999,0.0,0.6976266299713694,0.0,0.23254220999045647,1.9846941659560995
0.56,75.61755952380952,0.0,0.701785662342951,0.0,0.23392855411431707,1.9834820632115724
0.5700000000000001,74.51140873015873,0.0,0.6742782471329442,0.0,0.22475941571098143,1.928030217032419
0.58,75.14880952380952,0.0,0.682319208046714,0.0,0.22743973601557133,1.9480084999573422
0.59,76.72123015873015,0.0,0.7117893804776341,0.0,0.23726312682587808,2.0120651453038008
0.6,75.47371031746032,0.0,0.6832731305949031,0.0,0.22775771019830104,1.9533699907217086
0.61,76.56994047619047,0.0,0.6978068008754339,0.0,0.23260226695847797,1.9888097137232843
0.62,74.20138888888889,0.0,0.6628374099539824,0.0,0.22094580331799415,1.9067673619294396
0.63,75.47123015873015,0.0,0.6913716149752147,0.0,0.23045720499173825,1.9657579048667575
0.64,74.85367063492063,0.0,0.6778702322652953,0.0,0.2259567440884318,1.9376450704258337
0.65,74.99255952380952,0.0,0.6868694478450575,0.0,0.22895648261501922,1.9531105343148025
0.66,74.2361111111111,0.0,0.6739932027563886,0.0,0.2246644009187962,1.9242895775597957
0.67,75.31001984126985,0.0,0.6827423677741169,0.0,0.22758078925803898,1.9505918686822175
0.68,74.50396825396825,0.0,0.6753544764414329,0.0,0.22511815881381098,1.9295911495911493
0.6900000000000001,76.2375992063492,0.0,0.6916907490163304,0.0,0.23056358300544347,1.9754436723012305
0.7000000000000001,75.78869047619045,0.0,0.6906552683467033,0.0,0.23021842278223445,1.9684690305125638
0.71,76.56746031746032,0.0,0.7045972773681226,0.0,0.23486575912270752,1.9991920157739784
0.72,75.32738095238096,0.0,0.6862931906437295,0.0,0.22876439688124312,1.95624479708229
0.73,74.67757936507937,0.0,0.6804219186912468,0.0,0.22680730623041553,1.9394445610408642
0.74,75.94494047619047,0.0,0.6996323894118051,0.0,0.2332107964706017,1.9841089494790531
0.75,75.94246031746032,0.0,0.7038776915957612,0.0,0.234625897198587,1.9905886509230242
0.76,75.31001984126983,0.0,0.6785569225336309,0.0,0.22618564084454357,1.9441741859801385
0.77,74.69494047619048,0.0,0.6859670547687514,0.0,0.22865568492291716,1.9481554363597045
0.78,75.46626984126985,0.0,0.6891196748642943,0.0,0.22970655828809808,1.9622454062204895
0.79,75.63492063492063,0.0,0.6945042838115978,0.0,0.23150142793719927,1.972525616130164
0.8,75.14136904761907,0.0,0.6892594132246264,0.0,0.2297531377415421,1.9585608621825223
0.81,75.14880952380952,0.0,0.6713876330894486,0.0,0.22379587769648285,1.9312467516895353
0.8200000000000001,75.49603174603173,0.0,0.6929426208375504,0.0,0.23098087361251682,1.968464399569958
0.8300000000000001,76.25,0.0,0.6994985480473385,0.0,0.23316618268244613,1.987564440339252
0.84,75.13888888888889,0.0,0.6900346426750283,0.0,0.23001154755834277,1.9597197854350434
0.85,76.25496031746033,0.0,0.7058107909109587,0.0,0.2352702636369862,1.9973027365396605
0.86,75.1438492063492,0.0,0.6843999026977751,0.0,0.22813330089925837,1.9511393746127788
0.87,75.96230158730158,0.0,0.6994377531091266,0.0,0.23314591770304222,1.984018840481613
0.88,75.95238095238095,0.0,0.6917447148160669,0.0,0.23058157160535572,1.9721038008132072
0.89,74.98015873015873,0.0,0.6783992188153755,0.0,0.22613307293845852,1.9399740402788137
0.9,75.64236111111111,0.0,0.6916014166976939,0.0,0.230533805565898,1.9681638389364642
0.91,75.13392857142858,0.0,0.680561605931863,0.0,0.22685386864395435,1.9451349386193328
0.92,75.61507936507937,0.0,0.6934201220767277,0.0,0.23114004069224253,1.970625139565268
0.93,75.00992063492063,0.0,0.6868457183831825,0.0,0.22894857279439412,1.9532824824732606
0.9400000000000001,76.10367063492063,0.0,0.6940059804384189,0.0,0.2313353268128063,1.9773865509579562
0.9500000000000001,74.37996031746033,0.0,0.6664376673549136,0.0,0.22214588911830452,1.9144306137537246
0.96,75.45386904761905,0.0,0.6952039372057073,0.0,0.23173464573523578,1.971425798953513
0.97,76.70386904761904,0.0,0.703899991399908,0.0,0.234633330466636,1.999759748717954
0.98,73.90128968253967,0.0,0.668297432837226,0.0,0.22276581094574194,1.9115382065408892
0.99,75.80357142857142,0.0,0.7017881607898623,0.0,0.23392938692995413,1.985718037020646
1.0,76.5625,0.0,0.7010790635074835,0.0,0.23369302116916116,1.9937378973781414
1.01,75.61507936507937,0.0,0.6903598840184205,0.0,0.23011996133947354,1.9659327745425306
1.02,75.16617063492063,0.0,0.6806376834046477,0.0,0.22687922780154918,1.9456384955061738
1.03,74.65525793650794,0.0,0.6819979249478643,0.0,0.2273326416492881,1.9415932468248203
1.04,75.62996031746032,0.0,0.6837862015088334,0.0,0.2279287338362778,1.9560316994564015
1.05,74.69494047619047,0.0,0.6734763511627941,0.0,0.22449211705426478,1.9290030241639033
1.06,75.46626984126985,0.0,0.6905196907639567,0.0,0.2301732302546522,1.9643920972666382
1.07,75.44642857142857,0.0,0.6845521745521745,0.0,0.22818405818405813,1.9550038105038103
1.08,74.9950396825397,0.0,0.6878411584833136,0.0,0.22928038616110458,1.9546302525315573
1.09,74.82142857142858,0.0,0.6741866076260201,0.0,0.22472886920867338,1.9316099412170404
1.1,74.68501984126983,0.0,0.6725805349095625,0.0,0.2241935116365208,1.927510391623234
1.11,75.15873015873017,0.0,0.6878215310650792,0.0,0.22927384368835968,1.9565644428712168
1.12,75.29513888888889,0.0,0.698086296622882,0.0,0.23269543220762728,1.9739406548217524
1.1300000000000001,74.6750992063492,0.0,0.6781503185161722,0.0,0.2260501061720574,1.9359316788676544
1.1400000000000001,74.67757936507935,0.0,0.6669044147773586,0.0,0.22230147159245287,1.9187177217062354
1.1500000000000001,74.52876984126985,0.0,0.6709471800128599,0.0,0.2236490600042867,1.9231309141149566
1.16,75.80109126984128,0.0,0.6896939688467288,0.0,0.22989798961557625,1.967143847469746
1.17,74.67013888888889,0.0,0.6800642092441357,0.0,0.22668806974804526,1.9388067875076747
1.18,75.77380952380953,0.0,0.6930157668604394,0.0,0.2310052556201465,1.971909890138388
1.19,74.51388888888889,0.0,0.6751257659937637,0.0,0.22504192199792125,1.9293595078571042
1.2,73.8764880952381,0.0,0.6743895828811609,0.0,0.22479652762705365,1.920581884227304
1.21,73.92113095238095,0.0,0.6677784227438468,0.0,0.22259280758128228,1.9109804863024697
1.22,74.67013888888889,0.0,0.6820734550499902,0.0,0.22735781834999674,1.9418876310766513
1.23,74.18650793650794,0.0,0.6680136473968756,0.0,0.2226712157989586,1.9145256879133046
1.24,75.13888888888889,0.0,0.6769385954908659,0.0,0.22564619849695533,1.939639179752661
1.25,75.33234126984127,0.0,0.6868234085193812,0.0,0.2289411361731271,1.9571173216344795
1.26,75.32986111111111,0.0,0.6825746596478303,0.0,0.2275248865492768,1.9505728114600063
1.27,75.61011904761904,0.0,0.6919594915136532,0.0,0.23065316383788437,1.9683259822256964
1.28,75.14880952380953,0.0,0.6873728567438452,0.0,0.22912428558128176,1.9557574279596106
1.29,74.98759920634919,0.0,0.6756244187884334,0.0,0.2252081395961445,1.9358086326184547
1.3,74.6999007936508,0.0,0.676346601952529,0.0,0.22544886731750968,1.933463599184354
1.31,76.28224206349208,0.0,0.7002003031293648,0.0,0.23340010104312164,1.9890273695602643
1.32,74.52132936507937,0.0,0.6641702287920157,0.0,0.2213900762640053,1.9126503031953765
1.33,74.70982142857142,0.0,0.6710469293547207,0.0,0.2236823097849069,1.9254564821534288
1.34,74.53869047619047,0.0,0.6641125150662105,0.0,0.22137083835540347,1.9127701421491417
1.35,73.57638888888889,0.0,0.6651630908773766,0.0,0.22172103029245882,1.9028334060119774
1.36,75.1686507936508,0.0,0.678077555022356,0.0,0.2260258516741187,1.9417427272247554
1.37,74.83878968253968,0.0,0.6858589683627747,0.0,0.2286196561209249,1.9497158943467308
1.3800000000000001,74.68750000000001,0.0,0.6703740375796408,0.0,0.22345801252654685,1.924156857622116
1.3900000000000001,75.3249007936508,0.0,0.6891799070909659,0.0,0.22972663569698862,1.9606413337299573
1.4000000000000001,74.68501984126985,0.0,0.676543356924001,0.0,0.22551445230800032,1.9335867187120397
1.41,75.1388888888889,0.0,0.6798463761399995,0.0,0.22661545871333316,1.9440977767479992
1.42,74.67509920634922,0.0,0.6819343265473954,0.0,0.22731144218246507,1.9417338245155302
1.43,74.83382936507937,0.0,0.6807805433892391,0.0,0.22692684779641298,1.9418694522444524
1.44,74.37003968253968,0.0,0.6721891917942311,0.0,0.22406306393141037,1.9231305702749637
1.45,74.37748015873017,0.0,0.6745615889121278,0.0,0.22485386297070925,1.9268575315700247
1.46,73.72767857142857,0.0,0.6658679058362588,0.0,0.22195596861208627,1.9057295984727396
1.47,75.46130952380952,0.0,0.6897119566418439,0.0,0.2299039855472813,1.963094047803208
1.48,75.32986111111111,0.0,0.6882784047418193,0.0,0.22942613491393976,1.9593185539374565
1.49,74.52132936507937,0.0,0.6675816838116186,0.0,0.22252722793720628,1.9178812008921011
1.5,75.4563492063492,0.0,0.6901972839664274,0.0,0.2300657613221425,1.9637786925580456
1.51,75.78373015873017,0.0,0.6982008961539964,0.0,0.23273363205133216,1.9799794693408899
1.52,74.82886904761904,0.0,0.6810387980238037,0.0,0.22701293267460126,1.9422059188745942
1.53,74.98759920634919,0.0,0.6677579495872178,0.0,0.2225859831957393,1.9237467131765909
1.54,74.6875,0.0,0.6729451572956962,0.0,0.2243150524318987,1.928099241186734
1.55,73.41517857142856,0.0,0.6599931592399311,0.0,0.2199977197466437,1.8929716536917034
1.56,75.80357142857142,0.0,0.6992188071764922,0.0,0.23307293572549734,1.981778361480145
1.57,74.66765873015872,0.0,0.6804257278580351,0.0,0.22680857595267842,1.9393313541442252
1.58,74.99007936507937,0.0,0.6742953312270028,0.0,0.22476511040900093,1.9338004602623566
1.59,75.45882936507935,0.0,0.6884331733138344,0.0,0.22947772443794476,1.961103484795498
1.6,74.8611111111111,0.0,0.6698546618620059,0.0,0.22328488728733528,1.9254438148550754
1.61,74.52628968253968,0.0,0.668828820546064,0.0,0.22294294018202127,1.9198530010277741
1.62,75.32242063492063,0.0,0.6859168266262088,0.0,0.22863894220873632,1.9556081817792343
1.6300000000000001,74.2063492063492,0.0,0.6722669487147164,0.0,0.22408898290490545,1.9212855118387555
1.6400000000000001,76.1135912698413,0.0,0.6983506704272873,0.0,0.23278355680909582,1.984167456559936
1.6500000000000001,74.99503968253967,0.0,0.6750305323207375,0.0,0.22501017744024585,1.9349872924156069
1.6600000000000001,74.39484126984127,0.0,0.6801054164098402,0.0,0.22670180546994673,1.93556640039985
1.67,75.14136904761904,0.0,0.6899188520080689,0.0,0.22997295066935633,1.9595720016504676
1.68,73.10267857142857,0.0,0.6526299252202271,0.0,0.21754330840674235,1.8779313615281579
1.69,74.2063492063492,0.0,0.6741525987272622,0.0,0.22471753290908741,1.9241768418579923
1.7,74.05257936507937,0.0,0.6692488304502813,0.0,0.2230829434834271,1.914812492404717
1.71,75.32738095238095,0.0,0.6806103340481839,0.0,0.22687011134939467,1.9475310836357869
1.72,74.99255952380952,0.0,0.6755434247111114,0.0,0.22518114157037045,1.9357439655094184
1.73,73.6061507936508,0.0,0.6648285120963271,0.0,0.22160950403210905,1.9026775280715111
1.74,74.50892857142858,0.0,0.6697157871642998,0.0,0.22323859572143326,1.921004683175736
1.75,74.38492063492063,0.0,0.676978184094216,0.0,0.22565939469807192,1.9306522632301786
1.76,74.53124999999999,0.0,0.6788782103228147,0.0,0.22629273677427159,1.935321589161649
1.77,74.69742063492063,0.0,0.6761009586117899,0.0,0.22536698620392998,1.9330571841571256
1.78,74.51636904761904,0.0,0.672606375225117,0.0,0.2242021250750391,1.925526203916608
1.79,74.20138888888889,0.0,0.6616089915183118,0.0,0.22053633050610394,1.9048837869947446
1.8,74.53373015873015,0.0,0.6720791617838286,0.0,0.22402638726127622,1.9249261433066325
1.81,74.38244047619048,0.0,0.669052183592831,0.0,0.22301739453094366,1.9184693005566267
1.82,73.90873015873017,0.0,0.6650980184641927,0.0,0.22169933948806425,1.9067217235498573
1.83,74.06001984126985,0.0,0.6636111957292959,0.0,0.22120373190976528,1.9062574048801586
1.84,73.71775793650792,0.0,0.658225997818979,0.0,0.21940866593965963,1.8938929585605295
1.85,74.04761904761905,0.0,0.6718699922467684,0.0,0.22395666408225612,1.9187720833498068
1.86,74.06994047619048,0.0,0.6722511194198536,0.0,0.22408370647328452,1.9196243354913944
1.87,73.59623015873015,0.0,0.6570353201337318,0.0,0.2190117733779106,1.8906089194431503
1.8800000000000001,73.73263888888889,0.0,0.6739919389735791,0.0,0.2246639796578597,1.9182459730928212
1.8900000000000001,74.6875,0.0,0.6734817738947776,0.0,0.2244939246315925,1.9289220533053255
1.9000000000000001,73.26636904761905,0.0,0.6563900496787722,0.0,0.21879668322625742,1.8856611714122125
1.9100000000000001,74.35515873015873,0.0,0.6720212765957446,0.0,0.2240070921985816,1.9226945288753798
1.92,75.00992063492063,0.0,0.6865096439446381,0.0,0.22883654798154604,1.9527671683341592
1.93,75.8060515873016,0.0,0.6873195089412006,0.0,0.2291065029804002,1.96356253275746
1.94,74.36507936507937,0.0,0.6655107935542719,0.0,0.22183693118475728,1.912830835830836
1.95,74.51388888888889,0.0,0.6742755889097353,0.0,0.22475852963657839,1.9280559029949274
1.96,73.90624999999999,0.0,0.6681085119009197,0.0,0.2227028373003066,1.91130805158141
1.97,75.0,0.0,0.6927195435562181,0.0,0.23090651451873936,1.962169966786201
1.98,74.68501984126985,0.0,0.6757467038366596,0.0,0.22524890127888653,1.9323651839781162
1.99,74.99503968253968,0.0,0.676501710913142,0.0,0.22550057030438064,1.9372430995906273
2.0,73.86904761904762,0.0,0.6776481842286242,0.0,0.22588272807620807,1.9254891205791287
2.0100000000000002,74.05753968253968,0.0,0.6720346258959418,0.0,0.22401154196531392,1.9191435692309202
2.02,74.53869047619048,0.0,0.6784925716198666,0.0,0.22616419053995554,1.9348195621980815
2.0300000000000002,73.91617063492063,0.0,0.6679332362555974,0.0,0.22264441208519914,1.9111583432109636
2.04,75.0124007936508,0.0,0.6747082894416984,0.0,0.22490276314723276,1.9347015200010804
2.05,74.22123015873015,0.0,0.6668864754364947,0.0,0.22229549181216496,1.9132140242407203
2.06,74.83630952380952,0.0,0.6672320953899902,0.0,0.22241069846333,1.9211249272170325
2.07,74.05009920634922,0.0,0.6690849860418728,0.0,0.22302832868062433,1.9145315024070624
2.08,74.70238095238095,0.0,0.6838851730924901,0.0,0.2279617243641634,1.945052503503723
2.09,75.47867063492065,0.0,0.6838041300085319,0.0,0.227934710002844,1.9542437136321298
2.1,74.37996031746032,0.0,0.6738818457824418,0.0,0.22462728192748055,1.9258450206759345
2.11,74.06746031746033,0.0,0.6621330422585012,0.0,0.22071101408616706,1.9040801886058922
2.12,75.45386904761905,0.0,0.6964932985791935,0.0,0.23216443285973115,1.973402819726192
2.13,74.38988095238095,0.0,0.6780412665945423,0.0,0.22601375553151418,1.9323418468735363
2.14,73.42013888888889,0.0,0.65802148682735,0.0,0.21934049560911673,1.8900079464686033
2.15,73.90625,0.0,0.6647373097839135,0.0,0.2215791032613045,1.9061388750020007
2.16,73.26140873015872,0.0,0.6535139555690649,0.0,0.21783798518968833,1.8811916366344708
2.17,74.8139880952381,0.0,0.671584310809368,0.0,0.22386143693645594,1.9275304670505549
2.18,73.25396825396824,0.0,0.6496120592669632,0.0,0.21653735308898775,1.8751194432569624
2.19,73.74751984126985,0.0,0.6645626368919423,0.0,0.22152087896398073,1.9039662813295495
2.2,74.04513888888889,0.0,0.658094072715382,0.0,0.21936469090512736,1.8976192448302522
2.21,74.04761904761905,0.0,0.667398966702519,0.0,0.22246632223417295,1.9119165108486242
2.22,74.53373015873015,0.0,0.6714893457414322,0.0,0.22382978191381078,1.9240217587082913
2.23,72.63392857142857,0.0,0.6416910885952676,0.0,0.21389702953175588,1.85553347870322
2.24,74.36755952380952,0.0,0.6703695980623895,0.0,0.22345653268746318,1.9203107646480446
2.25,73.92113095238095,0.0,0.6661483853132846,0.0,0.22204946177109486,1.9084810955756077
2.2600000000000002,73.74007936507937,0.0,0.6711403430540551,0.0,0.22371344768468507,1.9139628117305036
2.27,74.68005952380952,0.0,0.6759718731450558,0.0,0.22532395771501862,1.9326509197747999
2.2800000000000002,74.35515873015872,0.0,0.6582316029965969,0.0,0.21941053433219895,1.9015503626900199
2.29,73.58878968253967,0.0,0.6586977163951934,0.0,0.2195659054650645,1.8930686413297726
2.3000000000000003,73.92857142857142,0.0,0.6653710517125152,0.0,0.22179035057083837,1.9073784697687135
2.31,74.35763888888889,0.0,0.673563536654112,0.0,0.224521178884704,1.9250890895363049
2.32,74.84126984126983,0.0,0.6930792672142643,0.0,0.23102642240475482,1.96081678115711
2.33,74.5014880952381,0.0,0.6815685713993155,0.0,0.22718952379977186,1.9390896666218076
2.34,75.16369047619048,0.0,0.6901029415781279,0.0,0.23003431385937598,1.9601221294674152
2.35,74.05505952380952,0.0,0.6716946376754291,0.0,0.22389821255847636,1.9185924920547055
2.36,74.0625,0.0,0.6772800315065229,0.0,0.22576001050217429,1.9272460483100018
2.37,73.59375,0.0,0.6666766374718319,0.0,0.22222554582394402,1.9053625107901422
2.38,73.73511904761904,0.0,0.6606850098091956,0.0,0.22022833660306523,1.8978717769455284
2.39,74.54117063492063,0.0,0.6795071869362234,0.0,0.2265023956454078,1.9364050675879232
2.4,74.6875,0.0,0.6707565988430397,0.0,0.22358553294767985,1.9247434515593274
2.41,74.85119047619047,0.0,0.6748577389778094,0.0,0.2249525796592698,1.9329961521469265
2.42,72.94146825396825,0.0,0.6462855704239585,0.0,0.21542852347465283,1.8662688270310221
2.43,73.4126984126984,0.0,0.6548113197803834,0.0,0.2182704399267945,1.8849964046156353
2.44,74.69742063492063,0.0,0.6860048461606747,0.0,0.22866828205355821,1.9482431450654154
2.45,72.97619047619048,0.0,0.6469191472504249,0.0,0.21563971575014165,1.8676569781649373
2.46,73.90376984126985,0.0,0.673873962508882,0.0,0.22462465416962737,1.9201186472755238
2.47,73.58630952380953,0.0,0.6671056150312288,0.0,0.22236853834374298,1.905930990666932
2.48,73.4250992063492,0.0,0.6592256225920434,0.0,0.21974187419734786,1.8919138117839904
2.49,73.10515873015875,0.0,0.6567003468544195,0.0,0.21890011561813977,1.884202436605348
2.5,72.4875992063492,0.0,0.6495245448403616,0.0,0.21650818161345384,1.8657888258980782
2.5100000000000002,73.25396825396825,0.0,0.6522911542287816,0.0,0.21743038474292722,1.8792273888650841
2.52,73.75,0.0,0.6692497680692828,0.0,0.22308325602309428,1.9111829777062335
2.5300000000000002,74.2485119047619,0.0,0.670942584729491,0.0,0.22364752824316367,1.9197607727756956
2.54,74.06498015873015,0.0,0.6624164552664639,0.0,0.2208054850888213,1.9044849933133396
2.5500000000000003,73.2688492063492,0.0,0.6614176024128275,0.0,0.2204725341376092,1.8933998475091927
2.56,74.69494047619048,0.0,0.679424985199094,0.0,0.22647499506636462,1.9381242630195634
2.57,73.74503968253968,0.0,0.6624216669881207,0.0,0.2208072223293736,1.9006536989055944
2.58,73.29861111111111,0.0,0.6588506832054015,0.0,0.2196168944018005,1.8898210475816155
2.59,74.84623015873015,0.0,0.6779708222216934,0.0,0.22599027407389777,1.9377100226446915
2.6,72.94146825396824,0.0,0.6596606197973613,0.0,0.21988687326578712,1.8867772360702395
2.61,74.21875,0.0,0.6683687044662654,0.0,0.2227895681554218,1.91545701351494
2.62,74.23859126984128,0.0,0.6816770534709583,0.0,0.22722568449031946,1.936101243893565
2.63,73.28373015873017,0.0,0.6614913915531879,0.0,0.22049713051772937,1.8936915622863169
2.64,73.90376984126985,0.0,0.6641548190903832,0.0,0.2213849396967944,1.9052159607004924
2.65,73.08283730158729,0.0,0.658491266970086,0.0,0.21949708899002865,1.8866806569731793
2.66,72.95882936507937,0.0,0.658233488759368,0.0,0.21941116291978932,1.8847973018119832
2.67,73.25148809523809,0.0,0.6581265466838897,0.0,0.21937551556129656,1.8881452287248215
2.68,75.1810515873016,0.0,0.6860897918920417,0.0,0.22869659729734723,1.9541769666154163
2.69,74.08482142857143,0.0,0.6703121032871457,0.0,0.22343736776238193,1.916829748849814
2.7,73.60367063492063,0.0,0.6596740643082107,0.0,0.21989135476940352,1.894744279558304
2.71,72.63640873015873,0.0,0.6467639699617278,0.0,0.2155879899872426,1.8633416587032205
2.72,73.72767857142858,0.0,0.6735375792840916,0.0,0.2245125264280306,1.9174897644260833
2.73,73.89632936507937,0.0,0.6699604663629055,0.0,0.22332015545430178,1.9140286674707407
2.74,73.91369047619048,0.0,0.6748980854474563,0.0,0.22496602848248548,1.9218080167337188
2.75,73.28373015873015,0.0,0.6530597533055899,0.0,0.21768658443519656,1.8807630503066661
2.7600000000000002,73.57638888888889,0.0,0.6555632156716583,0.0,0.21852107189055273,1.8881135973632095
2.77,74.04265873015872,0.0,0.6693299174860956,0.0,0.2231099724953652,1.9148177782405844
2.7800000000000002,74.05753968253967,0.0,0.6779215438560307,0.0,0.2259738479520102,1.928170176769723
2.79,74.0749007936508,0.0,0.6765076906381253,0.0,0.22550256354604184,1.926210601835602
2.8000000000000003,73.10763888888889,0.0,0.6601973132432576,0.0,0.22006577108108588,1.8895942136396615
2.81,73.42757936507937,0.0,0.6631771206671944,0.0,0.2210590402223981,1.898002537403984
2.82,74.68005952380952,0.0,0.6793371992039037,0.0,0.2264457330679679,1.9378110863983664
2.83,72.78521825396825,0.0,0.653571330273458,0.0,0.21785711009115266,1.8755653254669213
2.84,74.25099206349208,0.0,0.6740311951389092,0.0,0.22467706504630308,1.9245264039748988
2.85,73.74503968253968,0.0,0.6662348178137651,0.0,0.22207827260458837,1.9065005301715827
2.86,73.26140873015873,0.0,0.6643331979487586,0.0,0.22144439931625284,1.8977811416166679
2.87,73.41765873015873,0.0,0.6765969128873269,0.0,0.22553230429577562,1.9184605045224725
2.88,72.79017857142858,0.0,0.6548310534831716,0.0,0.21827701782772388,1.8775564248646726
2.89,73.10515873015872,0.0,0.6720607235142119,0.0,0.22402024117140398,1.907755014150363
2.9,73.74503968253968,0.0,0.66588925960407,0.0,0.22196308653468994,1.9059706742500502
2.91,73.57390873015873,0.0,0.6675313871588163,0.0,0.22251046238627215,1.9064350317387566
2.92,73.42013888888889,0.0,0.6613374912805232,0.0,0.22044583042684107,1.8950924866301355
2.93,73.90128968253968,0.0,0.6627228218845187,0.0,0.22090760729483955,1.9029904697467381
2.94,74.19890873015873,0.0,0.6797241389101855,0.0,0.2265747129700618,1.932630584424189
2.95,72.3313492063492,0.0,0.6444595070674045,0.0,0.2148198356891348,1.8561474346462108
2.96,72.78025793650794,0.0,0.6482561210378367,0.0,0.21608537367927888,1.8673558141627782
2.97,72.79513888888889,0.0,0.657390504690482,0.0,0.21913016823016068,1.8815404405254057
2.98,72.97619047619047,0.0,0.6469221035429475,0.0,0.21564070118098252,1.8676615111468051
2.99,73.41517857142858,0.0,0.6690027364192538,0.0,0.22300091213975132,1.9067863386999988
3.0,73.5813492063492,0.0,0.6601497418763144,0.0,0.2200499139587715,1.895205794686539
3.0100000000000002,73.125,0.0,0.6604863174261926,0.0,0.2201621058087309,1.8902456867201618
3.02,73.74503968253967,0.0,0.6570374288678563,0.0,0.2190124762892854,1.8923978671211887
3.0300000000000002,72.3065476190476,0.0,0.6459501654306175,0.0,0.21531672181020584,1.858135491755518
3.04,73.27876984126983,0.0,0.662055302421156,0.0,0.22068510080705206,1.894496701807677
3.0500000000000003,73.26636904761905,0.0,0.6628675594771065,0.0,0.22095585315903551,1.8955933531029918
3.06,73.42013888888889,0.0,0.6741990538576801,0.0,0.22473301795256,1.9148135492484426
3.0700000000000003,72.96130952380953,0.0,0.648907988643312,0.0,0.21630266288110406,1.8705279635387928
3.08,73.73263888888889,0.0,0.6785327786388231,0.0,0.22617759287960776,1.925208593912862
3.09,73.59623015873015,0.0,0.6659147089804572,0.0,0.22197156966015244,1.904223982341463
3.1,73.56894841269842,0.0,0.6628438808536202,0.0,0.2209479602845401,1.8991879982612654
3.11,72.97371031746033,0.0,0.6560085410085411,0.0,0.21866951366951368,1.8815642866892868
3.12,72.33630952380953,0.0,0.6540512148666668,0.0,0.21801707162222234,1.8709142437479367
3.13,73.26636904761907,0.0,0.6631253575831269,0.0,0.22104178586104234,1.8959886435322233
3.14,74.39484126984127,0.0,0.6766342399481935,0.0,0.22554474664939778,1.930243929825325
3.15,72.33878968253967,0.0,0.6513477946078579,0.0,0.21711593153595263,1.866798761255858
3.16,74.53125,0.0,0.6761386996440881,0.0,0.22537956654802938,1.9311210061209352
3.17,73.42757936507937,0.0,0.6757731407923708,0.0,0.22525771359745694,1.9173164349292542
3.18,74.20882936507937,0.0,0.6803353592827277,0.0,0.22677845309424255,1.9336868366144682
3.19,73.26636904761904,0.0,0.6553113292994739,0.0,0.21843710976649136,1.8840071334972885
3.2,73.57886904761907,0.0,0.665020543666438,0.0,0.22167351455547935,1.9026445955266338
3.21,73.27132936507937,0.0,0.6723255700872353,0.0,0.22410852336241177,1.9101551598480464
3.22,73.57390873015873,0.0,0.6788959268267865,0.0,0.22629864227559543,1.9238606592296439
3.23,74.82638888888889,0.0,0.6773571626794823,0.0,0.22578572089316076,1.9365309827752062
3.24,72.50496031746032,0.0,0.6548613743185743,0.0,0.21828712477285808,1.874180297764671
3.25,73.75248015873015,0.0,0.6668997625775844,0.0,0.22229992085919478,1.9076093978570579
3.2600000000000002,71.8501984126984,0.0,0.6434733661660167,0.0,0.21449112205533888,1.8488615424069397
3.27,73.4375,0.0,0.6755458292970931,0.0,0.22518194309903108,1.9170869382555427
3.2800000000000002,74.6750992063492,0.0,0.6839000889810325,0.0,0.2279666963270109,1.9447479935804404
3.29,72.79513888888889,0.0,0.6586603852794981,0.0,0.21955346175983265,1.883487590761897
3.3000000000000003,73.43005952380952,0.0,0.6642946078311931,0.0,0.22143153594373105,1.899745779626877
3.31,72.64632936507937,0.0,0.6469842915606716,0.0,0.21566143052022385,1.863798532773982
3.3200000000000003,73.5689484126984,0.0,0.6630921350963769,0.0,0.22103071169879226,1.8995686547668253
3.33,72.9489087301587,0.0,0.653268589373324,0.0,0.21775619645777464,1.8770654084676677
3.34,72.6438492063492,0.0,0.6574471383015367,0.0,0.21914904610051225,1.8798118025385466
3.35,73.75992063492063,0.0,0.6659325299685691,0.0,0.22197750998952306,1.9062155935708536
3.36,74.55109126984127,0.0,0.6722990714643369,0.0,0.22409969048811237,1.9254716714834117
3.37,73.5689484126984,0.0,0.6618124928994494,0.0,0.2206041642998165,1.8976065367315367
3.38,73.24652777777779,0.0,0.6697785487419633,0.0,0.22325951624732113,1.9059521080710107
3.39,72.80753968253968,0.0,0.6560280826468247,0.0,0.21867602754894153,1.8796002029156071
3.4,72.94890873015872,0.0,0.6667914471459564,0.0,0.2222638157153188,1.897800457052371
3.41,74.39484126984128,0.0,0.671700977406221,0.0,0.2239003258020737,1.9226795939276342
3.42,74.04265873015872,0.0,0.6708392649562103,0.0,0.22361308831873675,1.9171321110280937
3.43,72.96626984126985,0.0,0.6609317020113833,0.0,0.22031056733712778,1.889023847846026
3.44,73.26636904761905,0.0,0.6595622173883042,0.0,0.21985407246276814,1.8905251619001617
3.45,73.43501984126985,0.0,0.6738456117525885,0.0,0.22461520391752948,1.9144501761158739
3.46,74.05257936507937,0.0,0.6786449151083298,0.0,0.2262149717027766,1.9292198222137247
3.47,73.29117063492063,0.0,0.6751690850099922,0.0,0.22505636166999737,1.9147533113010358
3.48,73.41517857142858,0.0,0.6593220799388516,0.0,0.21977402664628384,1.8919426654300489
3.49,72.48511904761907,0.0,0.6405558369177998,0.0,0.2135186123059333,1.8520070451787218
3.5,72.30654761904762,0.0,0.6565159904694788,0.0,0.21883866348982628,1.8743364234817723
3.5100000000000002,72.15277777777779,0.0,0.6580978635701381,0.0,0.2193659545233794,1.8749167241408786
3.52,73.75744047619047,0.0,0.6719026233891681,0.0,0.22396754112972267,1.9153399749110098
3.5300000000000002,73.42509920634919,0.0,0.6657863865898406,0.0,0.22192879552994688,1.9019736499139457
3.54,73.59375,0.0,0.6638296601454496,0.0,0.22127655338181657,1.9009971455563563
3.5500000000000003,72.79513888888889,0.0,0.6526820926243262,0.0,0.21756069754144208,1.8743208753573002
3.56,71.85515873015872,0.0,0.6332881859475539,0.0,0.211096061982518,1.833303789881487
3.5700000000000003,73.41765873015872,0.0,0.6615666660201778,0.0,0.220522222006726,1.8954141259928439
3.58,73.75,0.0,0.6708514729849411,0.0,0.22361715766164708,1.9136389252435764
3.59,72.47271825396825,0.0,0.6521568354623554,0.0,0.21738561182078514,1.8696464334232303
3.6,73.55902777777777,0.0,0.6666717140313282,0.0,0.22222390467710945,1.9049382948480367
3.61,73.89136904761905,0.0,0.6710700146264525,0.0,0.22369000487548413,1.915670450998656
3.62,72.49007936507937,0.0,0.6487725968505721,0.0,0.21625753228352407,1.864665600885163
3.63,72.02380952380952,0.0,0.6345354356811352,0.0,0.21151181189371174,1.8372400489967882
3.64,73.73511904761905,0.0,0.6682883918930431,0.0,0.22276279729768103,1.9095302961407614
3.65,71.84027777777777,0.0,0.6452608102478778,0.0,0.2150869367492927,1.8514832423800793
3.66,72.79513888888889,0.0,0.6536161459450711,0.0,0.21787204864835705,1.8757530904491089
3.67,72.80505952380953,0.0,0.6545218507431542,0.0,0.21817395024771807,1.8772608854252173
3.68,72.49007936507937,0.0,0.6561071439677116,0.0,0.21870238132257053,1.8759119064647767
3.69,72.81001984126985,0.0,0.6463282019339034,0.0,0.21544273397796782,1.8647568143938902
3.7,73.42757936507937,0.0,0.6633879182435023,0.0,0.22112930608116743,1.8983257603543224
3.71,73.89880952380953,0.0,0.6746459532084158,0.0,0.2248819844028053,1.9212428425386188
3.72,72.46775793650792,0.0,0.6453900408314237,0.0,0.2151300136104745,1.859211157846278
3.73,73.27876984126985,0.0,0.6636093985271525,0.0,0.2212031328423841,1.8968796491702051
3.74,72.48511904761904,0.0,0.6538786843830834,0.0,0.21795956146102777,1.8724354112921562
3.75,73.4375,0.0,0.6677101446549456,0.0,0.2225700482183152,1.90507222180425
3.7600000000000002,71.70138888888889,0.0,0.6373140680457754,0.0,0.21243802268192513,1.837631571003522
3.77,72.9811507936508,0.0,0.6666763582418715,0.0,0.22222545274729053,1.8980108921613459
3.7800000000000002,74.19642857142857,0.0,0.6852191300239634,0.0,0.2284063766746544,1.9410264755605533
3.79,73.11755952380953,0.0,0.6728814823326402,0.0,0.22429382744421344,1.909162320529096
3.8000000000000003,72.1626984126984,0.0,0.645361470144598,0.0,0.21512049004819933,1.8555066351740976
3.81,74.21130952380953,0.0,0.6757185148847088,0.0,0.22523950496156958,1.9266374371089345
3.8200000000000003,72.93650793650792,0.0,0.6599069742887099,0.0,0.21996899142957,1.8870954558141169
3.83,71.70138888888889,0.0,0.6421454967796432,0.0,0.2140484989265477,1.8450397617287861
3.84,72.65376984126985,0.0,0.6574120377089625,0.0,0.2191373459029875,1.8798770292489806
3.85,73.90128968253968,0.0,0.6761280135608829,0.0,0.22537600452029438,1.92354509698383
3.86,71.8501984126984,0.0,0.6493038156093187,0.0,0.21643460520310623,1.8578015648866697
3.87,73.42757936507937,0.0,0.6535824449777679,0.0,0.21786081499258927,1.8832907013468632
3.88,72.7876984126984,0.0,0.6526842545094926,0.0,0.21756141816983082,1.8742349045336029
3.89,73.29861111111111,0.0,0.677813695467944,0.0,0.22593789848931464,1.9188976663841806
3.9,73.41517857142858,0.0,0.6637353412658598,0.0,0.2212451137552866,1.8987096661314613
3.91,73.11755952380952,0.0,0.6660349706691171,0.0,0.2220116568897057,1.8986643359783604
3.92,72.78769841269842,0.0,0.6608514299239262,0.0,0.2202838099746421,1.8867579068357345
3.93,72.8125,0.0,0.6501965496763538,0.0,0.21673218322545132,1.870718042837076
3.94,72.32142857142857,0.0,0.654254884594271,0.0,0.21808496153142368,1.8710479659016916
3.95,73.10763888888889,0.0,0.6531347456107961,0.0,0.2177115818702653,1.8787649432698872
3.96,72.45535714285714,0.0,0.6622695059356367,0.0,0.22075650197854557,1.8849441948155952
3.97,72.80505952380953,0.0,0.6413967681986767,0.0,0.21379892273289225,1.8571357588570188
3.98,72.33630952380953,0.0,0.6477738487510432,0.0,0.21592461625034773,1.861288949037314
3.99,72.60664682539684,0.0,0.661789741312641,0.0,0.22059658043754699,1.8860240319174781
4.0,72.78769841269842,0.0,0.6558398917326583,0.0,0.21861329724421946,1.8790735482757903
4.01,73.7375992063492,0.0,0.6807534284097793,0.0,0.22691780946992637,1.928673114037852
4.0200000000000005,72.6438492063492,0.0,0.6600644545854991,0.0,0.22002148486183307,1.8838250208406224
4.03,70.90029761904762,0.0,0.6357242624125876,0.0,0.21190808747086254,1.825580773794539
4.04,73.10515873015872,0.0,0.6767910060699032,0.0,0.22559700202330113,1.9150081140690896
4.05,73.42261904761905,0.0,0.6664372779247015,0.0,0.22214575930823383,1.9029419213893042
4.0600000000000005,72.17261904761904,0.0,0.6449349059752978,0.0,0.21497830199176593,1.8549716177335516
4.07,72.81001984126985,0.0,0.6606135180964182,0.0,0.22020450603213942,1.8866609658430793
4.08,72.80009920634919,0.0,0.653877149593849,0.0,0.21795904986461637,1.8762128198534254
4.09,71.85515873015872,0.0,0.6392278225931985,0.0,0.21307594086439954,1.8424112327381423
4.1,72.6438492063492,0.0,0.6530236513209936,0.0,0.21767455044033118,1.873029122501714
4.11,71.98660714285714,0.0,0.6522600085635581,0.0,0.21742000285451937,1.863971298845075
4.12,71.2375992063492,0.0,0.6271862213221839,0.0,0.20906207377406133,1.8165367298368724
4.13,71.84771825396825,0.0,0.6412956348120438,0.0,0.2137652116040146,1.8454925924260859
4.14,72.62896825396827,0.0,0.6534934676799192,0.0,0.21783115589330646,1.8735709361568287
4.15,73.75000000000001,0.0,0.6736694821871236,0.0,0.22455649406237455,1.9179598726869231
4.16,72.29662698412697,0.0,0.6482404144849083,0.0,0.21608013816163613,1.8615281593530497
4.17,72.63392857142858,0.0,0.6526982244452466,0.0,0.2175660748150822,1.8724110870065211
4.18,73.12003968253968,0.0,0.6589605030886871,0.0,0.21965350102956244,1.887846580926463
4.19,73.24900793650794,0.0,0.6762573862716348,0.0,0.22541912875721165,1.9159160875212686
4.2,72.32638888888889,0.0,0.6518820600654707,0.0,0.21729402002182358,1.8674691587670549
4.21,72.01388888888889,0.0,0.6465290658796048,0.0,0.21550968862653494,1.8555112343487272
4.22,73.10763888888889,0.0,0.6622144552234073,0.0,0.22073815174113576,1.892687164675891
4.23,72.64880952380952,0.0,0.6594204176110018,0.0,0.2198068058703339,1.8828970212892504
4.24,72.34375,0.0,0.6560914155137614,0.0,0.21869713850458714,1.8741318371211007
4.25,73.42013888888889,0.0,0.6649489772860652,0.0,0.22164965909535508,1.9006300985053
4.26,73.1200396825397,0.0,0.6683179346248824,0.0,0.22277264487496082,1.902194642615296
4.2700000000000005,73.11507936507937,0.0,0.6603410517131447,0.0,0.22011368390438157,1.8899038983411076
4.28,72.63640873015873,0.0,0.6585033259423503,0.0,0.2195011086474501,1.8813420045401752
4.29,72.66617063492063,0.0,0.6607541862937844,0.0,0.22025139543126143,1.8851504666028502
4.3,73.09771825396825,0.0,0.6600526363254666,0.0,0.22001754544182223,1.8892533280800015
4.3100000000000005,73.24404761904762,0.0,0.669226859357319,0.0,0.22307561978577292,1.9050764224431271
4.32,71.6889880952381,0.0,0.6450044791918821,0.0,0.2150014930639607,1.8492747252370765
4.33,73.0952380952381,0.0,0.6589827147721885,0.0,0.21966090492406282,1.8875830197935461
4.34,72.96875,0.0,0.6535083734115333,0.0,0.2178361244705111,1.8776711725643511
4.3500000000000005,71.22767857142857,0.0,0.6344356970515368,0.0,0.21147856568384554,1.8275335450028325
4.36,73.09027777777779,0.0,0.6614653269559062,0.0,0.22048844231863543,1.8913301679990564
4.37,72.8000992063492,0.0,0.6677461430609474,0.0,0.22258204768698248,1.8974786098363094
4.38,72.67113095238095,0.0,0.6638773007801673,0.0,0.2212924335933891,1.889998765958161
4.39,73.42757936507937,0.0,0.6675946851704834,0.0,0.22253156172349448,1.9047761363090268
4.4,73.11011904761904,0.0,0.6605102330407517,0.0,0.22017007768025051,1.890103785900581
4.41,72.66121031746032,0.0,0.6536720083510842,0.0,0.21789066945036137,1.874231603281186
4.42,72.30406746031746,0.0,0.6497250169002864,0.0,0.2165750056334287,1.8638938354375818
4.43,72.95386904761905,0.0,0.6598670189708193,0.0,0.21995567299027313,1.887242524326685
4.44,73.4375,0.0,0.6688383190051995,0.0,0.22294610633506656,1.906802089141306
4.45,72.96378968253968,0.0,0.6599915130673627,0.0,0.21999717102245425,1.8875524628937657
4.46,72.94642857142857,0.0,0.6555372091064839,0.0,0.21851240303549466,1.8805141968204182
4.47,71.68650793650794,0.0,0.6422081489691063,0.0,0.21406938298970207,1.8449572569907247
4.48,73.26636904761904,0.0,0.6682544050536707,0.0,0.22275146835122356,1.9038531829870566
4.49,71.84027777777779,0.0,0.6494342882511019,0.0,0.21647809608370064,1.8578825753183563
4.5,73.27628968253968,0.0,0.6716275700363827,0.0,0.22387585667879423,1.9091444169129297
4.51,71.99652777777779,0.0,0.6443246970454147,0.0,0.21477489901513827,1.8519228688029694
4.5200000000000005,73.88144841269842,0.0,0.6790247325725847,0.0,0.2263415775241949,1.9277486375636772
4.53,72.46279761904762,0.0,0.6594960395853092,0.0,0.21983201319510304,1.8807808321260455
4.54,72.48263888888889,0.0,0.6596246388867767,0.0,0.21987487962892555,1.8812161129597242
4.55,72.20238095238093,0.0,0.6550674626379723,0.0,0.2183558208793241,1.870865347473462
4.5600000000000005,73.25396825396824,0.0,0.6663560929350404,0.0,0.22211869764501344,1.9007936282146807
4.57,72.79761904761904,0.0,0.6543308389701746,0.0,0.21811027965672491,1.876878714992363
4.58,72.62896825396825,0.0,0.6546558833000481,0.0,0.21821862776668272,1.8753533067743595
4.59,72.16517857142857,0.0,0.6465348978506873,0.0,0.21551163261689577,1.8573356528948632
4.6000000000000005,72.61160714285714,0.0,0.6663049867648523,0.0,0.22210166225495076,1.8930069320870593
4.61,71.71130952380952,0.0,0.6353602241760137,0.0,0.21178674139200454,1.834754724688935
4.62,73.10763888888889,0.0,0.6721513431035114,0.0,0.2240504477011705,1.9079237260920507
4.63,73.26140873015873,0.0,0.6612912450353816,0.0,0.2204304150117939,1.8931168138161567
4.64,73.09027777777779,0.0,0.6663461673104327,0.0,0.22211538910347758,1.89881412320933
4.65,71.98660714285714,0.0,0.6359895204279776,0.0,0.21199650680932586,1.8390232170371847
4.66,74.23859126984128,0.0,0.6735275982784289,0.0,0.224509199426143,1.923605412598353
4.67,72.16021825396825,0.0,0.6468316899214929,0.0,0.21561056330716433,1.8577312102605748
4.68,72.63392857142858,0.0,0.6601844094978767,0.0,0.22006146983262553,1.8838899040872206
4.69,72.30654761904762,0.0,0.6489739057075943,0.0,0.21632463523586482,1.8627718935135493
4.7,73.41517857142857,0.0,0.6679875728194363,0.0,0.22266252427314548,1.9052297545136119
4.71,72.02380952380952,0.0,0.6464504876910893,0.0,0.21548349589702975,1.8555097954120512
4.72,72.4875992063492,0.0,0.6616818336987336,0.0,0.22056061123291118,1.884430002147582
4.73,72.9389880952381,0.0,0.6704892802852062,0.0,0.22349642676173537,1.90335142024684
4.74,71.86011904761905,0.0,0.6422169864852791,0.0,0.2140723288284264,1.8470541411821897
4.75,72.1626984126984,0.0,0.6448485560866917,0.0,0.2149495186955639,1.8547201669519746
4.76,72.17757936507937,0.0,0.643454838474691,0.0,0.21448494615823033,1.8527617047088119
4.7700000000000005,73.27628968253968,0.0,0.6747445889471586,0.0,0.22491486298238622,1.913923845909453
4.78,72.34375,0.0,0.647195578799006,0.0,0.21573185959966867,1.8604915541584757
4.79,71.38144841269842,0.0,0.6343157358713805,0.0,0.21143857862379348,1.8291948426218312
4.8,71.6765873015873,0.0,0.6324193051655379,0.0,0.21080643505517926,1.8298286488728723
4.8100000000000005,73.25396825396825,0.0,0.6778527025378982,0.0,0.22595090084596609,1.918421762939063
4.82,73.10515873015872,0.0,0.6606162680551797,0.0,0.22020542268505983,1.8902068491131803
4.83,71.2251984126984,0.0,0.6407099872793378,0.0,0.2135699957597792,1.8371243614473656
4.84,73.12499999999999,0.0,0.6685698841399351,0.0,0.22285662804664502,1.902640489014567
4.8500000000000005,73.28869047619048,0.0,0.660547100539209,0.0,0.22018236684640297,1.8923031732077393
4.86,73.1125992063492,0.0,0.674515414285851,0.0,0.22483847142861704,1.9116081590478289
4.87,73.75496031746032,0.0,0.6835564951844021,0.0,0.22785216506146738,1.9331794830922735
4.88,71.67906746031746,0.0,0.637848336718753,0.0,0.21261611223958438,1.8381829258258975
4.89,72.34375,0.0,0.6580811751430016,0.0,0.2193603917143339,1.8771828018859358
4.9,72.16021825396825,0.0,0.6539814533292794,0.0,0.21799381777642646,1.8686941808191806
4.91,72.95386904761905,0.0,0.6559745275027667,0.0,0.21865817583425556,1.8812740374090042
4.92,71.5376984126984,0.0,0.6559267340212146,0.0,0.21864224467373816,1.8642067064515766
4.93,72.1626984126984,0.0,0.646156482790629,0.0,0.215385494263543,1.8567256545646784
4.94,72.18501984126983,0.0,0.6493133347986816,0.0,0.21643777826622718,1.8618340181198831
4.95,72.8000992063492,0.0,0.666637965832446,0.0,0.222212655277482,1.8957794047526073
4.96,71.3640873015873,0.0,0.6431587856007952,0.0,0.2143862618669318,1.8425458522069338
4.97,72.01388888888889,0.0,0.6602105055262752,0.0,0.22007016850875843,1.8764894418069555
4.98,72.79265873015873,0.0,0.6585032086776272,0.0,0.2195010695592091,1.8832168247342664
4.99,72.50992063492063,0.0,0.6549999962558343,0.0,0.2183333320852781,1.8744523752113267
5.0,73.27132936507937,0.0,0.6659872491791898,0.0,0.22199574972639655,1.9004364011223764
5.01,71.66666666666666,0.0,0.6332721778128823,0.0,0.21109072593762748,1.831017339313086
5.0200000000000005,72.65873015873015,0.0,0.6671074867416332,0.0,0.22236916224721104,1.8948029082419329
5.03,72.7579365079365,0.0,0.6617814325641891,0.0,0.22059381085472976,1.8878267680269947
5.04,71.22519841269842,0.0,0.6487758120736844,0.0,0.21625860402456146,1.8494919594653638
5.05,71.85267857142856,0.0,0.653159672949724,0.0,0.21771989098324132,1.8637436413800528
5.0600000000000005,72.65376984126985,0.0,0.6580707067625299,0.0,0.21935690225417667,1.8808869884644506
5.07,71.85267857142858,0.0,0.6368078088021315,0.0,0.21226926960071052,1.8386707830204112
5.08,72.76785714285714,0.0,0.6570089393685699,0.0,0.2190029797895233,1.8806279927460927
5.09,72.95138888888889,0.0,0.6690029497346571,0.0,0.22300098324488568,1.9012211895931408
5.1000000000000005,72.96626984126983,0.0,0.6661906119984455,0.0,0.22206353733281517,1.897087509826188
5.11,72.50248015873015,0.0,0.6642176040505555,0.0,0.22140586801685186,1.8884967547822802
5.12,72.9389880952381,0.0,0.671156884908149,0.0,0.22371896163604962,1.9043750806686854
5.13,72.60912698412699,0.0,0.6530125895634399,0.0,0.2176708631878133,1.8725954944734648
5.14,72.49503968253967,0.0,0.658866478814214,0.0,0.219622159604738,1.880202410372271
5.15,71.66666666666667,0.0,0.6405003741963681,0.0,0.2135001247321227,1.8421005737677643
5.16,72.64136904761905,0.0,0.65752041872871,0.0,0.21917347290956996,1.8798944039554506
5.17,73.43005952380953,0.0,0.6670905641071012,0.0,0.22236352136903373,1.9040329125832698
5.18,72.14781746031747,0.0,0.6357879471348454,0.0,0.21192931571161516,1.840648661797239
5.19,73.40525793650794,0.0,0.6716835793985287,0.0,0.2238945264661762,1.910777916982506
5.2,72.64880952380953,0.0,0.663961007931731,0.0,0.22132033597724368,1.8898592597810353
5.21,72.45535714285714,0.0,0.6569990028422825,0.0,0.21899966761409417,1.8768627567391187
5.22,72.46031746031744,0.0,0.6622424158371408,0.0,0.2207474719457136,1.884962180474092
5.23,72.30902777777777,0.0,0.6660982285623552,0.0,0.2220327428541184,1.889058950462278
5.24,73.4077380952381,0.0,0.6870176683595829,0.0,0.22900588945319433,1.934319948627551
5.25,72.33630952380955,0.0,0.6458104225468402,0.0,0.21527014084894674,1.8582783621908696
5.26,71.84027777777777,0.0,0.6386528644356211,0.0,0.21288428814520702,1.8413510588012856
5.2700000000000005,72.48263888888889,0.0,0.6591705516705517,0.0,0.21972351722351718,1.880519845894846
5.28,72.9811507936508,0.0,0.6650501444384573,0.0,0.2216833814794858,1.8955173643294443
5.29,72.62152777777779,0.0,0.6691291548394809,0.0,0.22304305161316035,1.8974563707538705
5.3,72.4751984126984,0.0,0.6553906613400001,0.0,0.21846355378,1.8746347283403808
5.3100000000000005,74.04265873015872,0.0,0.6786700599448805,0.0,0.2262233533149601,1.9291393300107211
5.32,72.78521825396827,0.0,0.6705625788989719,0.0,0.22352085963299065,1.901618573359376
5.33,71.8625992063492,0.0,0.6568230294074464,0.0,0.21894100980248216,1.8694798355676083
5.34,72.79513888888889,0.0,0.661818633979723,0.0,0.22060621132657438,1.8883302387689085
5.3500000000000005,72.46527777777779,0.0,0.6565853891582054,0.0,0.21886179638606848,1.8763475967092482
5.36,71.67410714285715,0.0,0.6396454375205269,0.0,0.21321514584017565,1.840878956579094
5.37,72.33878968253967,0.0,0.6548328330134909,0.0,0.218277611004497,1.872142486811162
5.38,73.44494047619047,0.0,0.6747310312426591,0.0,0.22491034374755303,1.9159268669530296
5.39,71.99652777777777,0.0,0.6463985904703837,0.0,0.21546619682346124,1.855102838721255
5.4,71.99652777777779,0.0,0.6557681207681207,0.0,0.21858937358937358,1.869469451844452
5.41,72.64880952380952,0.0,0.6610232450049384,0.0,0.22034108166831282,1.8853546899599531
5.42,71.68650793650792,0.0,0.6445766588422387,0.0,0.21485888628074626,1.8485889721295279
5.43,73.12251984126983,0.0,0.6726330409740079,0.0,0.22421101365800272,1.9088409009220502
5.44,73.12748015873015,0.0,0.664393800872593,0.0,0.22146460029086437,1.8962669232427378
5.45,72.97867063492063,0.0,0.657401599029506,0.0,0.21913386634316864,1.8837598327976233
5.46,71.08878968253968,0.0,0.6384841670555956,0.0,0.21282805568519855,1.8320745323423895
5.47,71.84027777777777,0.0,0.6467941218265809,0.0,0.21559804060886037,1.8538343201340908
5.48,71.52777777777779,0.0,0.639368476228249,0.0,0.21312282540941635,1.8386983302166486
5.49,72.01388888888889,0.0,0.6514042867701404,0.0,0.21713476225671352,1.8629865730475486
5.5,72.48759920634919,0.0,0.6511447418764492,0.0,0.21704824729214972,1.868273128020079
5.51,72.17261904761904,0.0,0.6521343896293217,0.0,0.2173781298764405,1.8660108260030548
5.5200000000000005,71.07886904761907,0.0,0.6440443777790057,0.0,0.21468145925966856,1.8404811411659043
5.53,71.19791666666666,0.0,0.6437665234380499,0.0,0.21458884114601667,1.8414836692716763
5.54,72.62400793650794,0.0,0.6486535028594019,0.0,0.2162178342864673,1.8660901329558448
5.55,72.80753968253967,0.0,0.656750199709131,0.0,0.21891673323637698,1.8807074490778102
5.5600000000000005,72.0188492063492,0.0,0.6480835310479691,0.0,0.21602784368265643,1.8579542714164097
5.57,71.86011904761905,0.0,0.6559220154264425,0.0,0.21864067180881416,1.8680685188919735
5.58,72.1577380952381,0.0,0.6484790016185367,0.0,0.21615966720617888,1.86022732629128
5.59,73.41021825396825,0.0,0.6673146350225932,0.0,0.22243821167419772,1.9041383927489286
5.6000000000000005,72.80257936507937,0.0,0.6663666186155465,0.0,0.2221222062051822,1.8953931009247904
5.61,72.0064484126984,0.0,0.6596839637931119,0.0,0.21989465459770394,1.875592792101819
5.62,72.31150793650794,0.0,0.6611905703991822,0.0,0.22039685679972737,1.881563636516841
5.63,73.58382936507937,0.0,0.6710420024161553,0.0,0.2236806674720518,1.9119370227523904
5.64,72.79513888888889,0.0,0.6560045442915662,0.0,0.21866818143052202,1.8794153012470682
5.65,71.23015873015872,0.0,0.6380517443768497,0.0,0.2126839147922833,1.8331079128064076
5.66,72.8125,0.0,0.6579449368606932,0.0,0.2193149789535644,1.8825989031863963
5.67,71.68402777777777,0.0,0.6485032344916066,0.0,0.21616774483053555,1.8545799595537966
5.68,72.80505952380952,0.0,0.6669023404070508,0.0,0.2223007801356836,1.8962443029098586
5.69,72.94146825396825,0.0,0.666616529360262,0.0,0.22220550978675396,1.8974429640666872
5.7,71.53025793650794,0.0,0.6484647762443516,0.0,0.21615492541478387,1.852675752146101
5.71,72.63640873015872,0.0,0.6680137996001784,0.0,0.2226712665333928,1.8959247308155114
5.72,72.02380952380953,0.0,0.6559564896044218,0.0,0.2186521632014739,1.8700856650124946
5.73,72.16517857142857,0.0,0.6554698905301881,0.0,0.21848996351006264,1.871035975003431
5.74,71.6889880952381,0.0,0.6428394916010319,0.0,0.21427983053367736,1.8459550775977727
5.75,71.05654761904762,0.0,0.6391240566523079,0.0,0.21304135221743598,1.8326687916287767
5.76,72.50248015873015,0.0,0.6598614609387156,0.0,0.21995382031290517,1.8818173353441257
5.7700000000000005,72.33382936507937,0.0,0.6588068169702347,0.0,0.21960227232341153,1.8781764050686456
5.78,72.17757936507937,0.0,0.6569759513120567,0.0,0.21899198377068557,1.8734940777261058
5.79,72.46031746031746,0.0,0.6645251051551941,0.0,0.2215083683850647,1.8884623040951072
5.8,71.20535714285714,0.0,0.6398282882570234,0.0,0.2132760960856745,1.8355343277083884
5.8100000000000005,73.12003968253968,0.0,0.6665403221592475,0.0,0.22218010738641586,1.899468970167989
5.82,71.07142857142858,0.0,0.6446935547143122,0.0,0.21489785157143748,1.8413872600857553
5.83,72.33878968253967,0.0,0.650999929086922,0.0,0.2169999763623073,1.8662653674570897
5.84,71.99404761904762,0.0,0.6520761347545965,0.0,0.2173587115848655,1.8637786447189526
5.8500000000000005,71.6889880952381,0.0,0.6442138029928726,0.0,0.21473793433095759,1.848062355065262
5.86,71.83779761904762,0.0,0.6608052939015951,0.0,0.2202684313005317,1.8752883554110173
5.87,73.43998015873015,0.0,0.6699151343404122,0.0,0.22330504478013738,1.908482967893394
5.88,71.23015873015872,0.0,0.6371711652280808,0.0,0.21239038840936025,1.8317576914449618
5.89,72.01140873015872,0.0,0.6544331209078182,0.0,0.21814437363593936,1.8676010234872258
5.9,72.77529761904762,0.0,0.6636752122117975,0.0,0.22122507073726588,1.890938896819994
5.91,72.62152777777777,0.0,0.6615604912099056,0.0,0.22052016373663513,1.885851086521855
5.92,71.875,0.0,0.6573096535405101,0.0,0.21910321784683667,1.8703748020954487
5.93,72.49751984126985,0.0,0.6472726763667395,0.0,0.21575755878891312,1.8624550085242386
5.94,72.81001984126985,0.0,0.6589347566638831,0.0,0.219644918887961,1.8840868649798588
5.95,72.15525793650795,0.0,0.6489745641417646,0.0,0.21632485471392152,1.8609574269221345
5.96,70.72668650793652,0.0,0.6306084624284827,0.0,0.21020282080949423,1.8156532138189114
5.97,72.9563492063492,0.0,0.6628429444357963,0.0,0.2209476481452654,1.8918353719444114
5.98,72.35119047619048,0.0,0.6544964505020271,0.0,0.21816548350067566,1.8717755098173938
5.99,71.37152777777779,0.0,0.6422087060226596,0.0,0.21406956867421986,1.8411783492347447
6.0,71.83531746031746,0.0,0.6576717809063988,0.0,0.2192239269687996,1.8704538735802878
6.01,71.38392857142857,0.0,0.637450055854311,0.0,0.21248335195143703,1.8340305618337531
6.0200000000000005,71.202876984127,0.0,0.6429896975179121,0.0,0.21432989917263737,1.840352060003656
6.03,72.14781746031747,0.0,0.659174051462381,0.0,0.21972468382079366,1.8765073550994602
6.04,72.0014880952381,0.0,0.6550494098749912,0.0,0.21834980329166376,1.8684269522845103
6.05,72.67609126984127,0.0,0.6601378139901077,0.0,0.22004593799670263,1.884324410022927
6.0600000000000005,71.84275793650794,0.0,0.645909420498291,0.0,0.21530314016609697,1.8525075400021414
6.07,72.4751984126984,0.0,0.6616419407225698,0.0,0.2205473135741899,1.8842200233936546
6.08,71.69642857142857,0.0,0.6427396482697476,0.0,0.21424654942324922,1.8458912702040893
6.09,72.64384920634922,0.0,0.6601794927440907,0.0,0.2200598309146969,1.8840014126837963
6.1000000000000005,72.95882936507937,0.0,0.6748678758126768,0.0,0.22495595860422563,1.9103033619603902
6.11,71.52777777777777,0.0,0.63968510325496,0.0,0.21322836775165332,1.8391838249909385
6.12,72.30158730158729,0.0,0.6565389415607086,0.0,0.21884631385356954,1.8743120913454672
6.13,71.85267857142858,0.0,0.6485261239220944,0.0,0.2161753746406981,1.8566388662043543
6.140000000000001,72.34126984126983,0.0,0.6589160407470105,0.0,0.21963868024900352,1.878433167240654
6.15,72.34623015873015,0.0,0.6467426103938914,0.0,0.21558087013129706,1.8598267645087285
6.16,71.85019841269842,0.0,0.6412073889672596,0.0,0.21373579632241993,1.8453870440355125
6.17,71.24007936507937,0.0,0.6440767358541175,0.0,0.21469224528470585,1.842465280690599
6.18,71.99900793650794,0.0,0.6561047062974849,0.0,0.2187015687658283,1.8700153115609053
6.19,72.4751984126984,0.0,0.650583467158454,0.0,0.21686115571948475,1.8672636972620105
6.2,72.0064484126984,0.0,0.6507086489653714,0.0,0.21690288298845717,1.8618306426992837
6.21,72.66121031746032,0.0,0.6601665026186625,0.0,0.2200555008728875,1.8841898278248062
6.22,72.18005952380952,0.0,0.6453915030669404,0.0,0.21513050102231346,1.8557610189883562
6.23,71.85763888888889,0.0,0.6500842568143371,0.0,0.2166947522714457,1.8590875271153169
6.24,72.1626984126984,0.0,0.6559431798996632,0.0,0.21864772663322105,1.8717319234651977
6.25,72.18501984126985,0.0,0.6588778204669212,0.0,0.21962594015564035,1.876499562811184
6.26,71.06646825396825,0.0,0.635998852943654,0.0,0.21199961764788466,1.8279958602278883
6.2700000000000005,72.15029761904762,0.0,0.6560906275362793,0.0,0.21869687584542646,1.871809200317533
6.28,70.60515873015872,0.0,0.6312159279027727,0.0,0.21040530930092424,1.815126327546156
6.29,71.99404761904762,0.0,0.6479951668355647,0.0,0.21599838894518825,1.857521160576437
6.3,71.06894841269842,0.0,0.6366324076746699,0.0,0.2122108025582233,1.828997072720208
6.3100000000000005,71.69642857142857,0.0,0.6473624158212868,0.0,0.21578747194042897,1.8529795137831158
6.32,72.15277777777779,0.0,0.6521936984135003,0.0,0.21739789947116667,1.8658636709007006
6.33,72.78025793650794,0.0,0.6574588463948705,0.0,0.21915294879829017,1.88146665971023
6.34,71.22271825396825,0.0,0.6520952702230096,0.0,0.21736509007433655,1.854552033389567
6.3500000000000005,71.52777777777777,0.0,0.641434621573197,0.0,0.21381154052439905,1.8418664197455685
6.36,72.32886904761905,0.0,0.6543830896570582,0.0,0.21812769655235273,1.871333832712251
6.37,72.03621031746032,0.0,0.6578875281850112,0.0,0.219295842728337,1.873195400359874
6.38,70.75892857142857,0.0,0.6362730502043455,0.0,0.21209101673478187,1.8247258198371392
6.390000000000001,72.02132936507937,0.0,0.6553015765565716,0.0,0.21843385885219052,1.869051703101029
6.4,71.0639880952381,0.0,0.6461752596636736,0.0,0.21539175322122456,1.8435699219604902
6.41,71.23015873015872,0.0,0.6416776859386645,0.0,0.21389256197955486,1.8386676898678567
6.42,71.88244047619048,0.0,0.6440991435349139,0.0,0.21469971451163797,1.8502079724678204
6.43,71.3764880952381,0.0,0.640730617160993,0.0,0.21357687238699766,1.8389714701230464
6.44,72.18005952380952,0.0,0.6622274043537143,0.0,0.2207424681179047,1.881576067628076
6.45,71.99900793650794,0.0,0.6466347702326303,0.0,0.21554492341087675,1.8554947429281283
6.46,73.28125,0.0,0.6710228602904605,0.0,0.22367428676348688,1.9082767191120393
6.47,71.69890873015873,0.0,0.6468916796432359,0.0,0.21563055988107865,1.8522874802148663
6.48,73.12500000000001,0.0,0.6726475648940601,0.0,0.2242158549646867,1.908892932837559
6.49,71.83531746031746,0.0,0.6563422628307543,0.0,0.2187807542769181,1.8684152791976327
6.5,71.36656746031746,0.0,0.6392692955020666,0.0,0.2130897651673555,1.8366117292936448
6.51,71.3938492063492,0.0,0.650947592908677,0.0,0.216982530969559,1.8548458329361617
6.5200000000000005,72.6438492063492,0.0,0.6510327759943126,0.0,0.21701092533143748,1.869976447000803
6.53,72.97619047619048,0.0,0.6716105824249091,0.0,0.22387019414163634,1.905517178765813
6.54,72.64136904761905,0.0,0.650297954538593,0.0,0.21676598484619772,1.868819958863938
6.55,71.19791666666667,0.0,0.6465931959664051,0.0,0.21553106532213503,1.8458179004818211
6.5600000000000005,71.38392857142858,0.0,0.6508472735820946,0.0,0.21694909119403155,1.854572962349688
6.57,71.5625,0.0,0.6448538664402582,0.0,0.21495128881341935,1.8475259285417291
6.58,71.54265873015872,0.0,0.644600708504113,0.0,0.21486690283470433,1.8468996578015446
6.59,71.6939484126984,0.0,0.6512218412001181,0.0,0.21707394706670602,1.8588675374592285
6.6000000000000005,71.22271825396825,0.0,0.6481621777938713,0.0,0.2160540592646238,1.8485212916648883
6.61,72.17013888888889,0.0,0.6537491431953558,0.0,0.21791638106511863,1.8684570195662122
6.62,71.67906746031746,0.0,0.6558837262936131,0.0,0.21862790876453775,1.865837189840683
6.63,71.37152777777779,0.0,0.6375011370014987,0.0,0.21250037900049956,1.8339600767356314
6.640000000000001,71.38640873015873,0.0,0.6586312067497,0.0,0.2195437355832333,1.866538088444778
6.65,72.04365079365081,0.0,0.6546898744780111,0.0,0.21822995815933705,1.86838161705676
6.66,72.0188492063492,0.0,0.6563520213577421,0.0,0.21878400711924742,1.8706326232247283
6.67,71.35912698412697,0.0,0.6431591260494833,0.0,0.2143863753498278,1.8424868504187315
6.68,72.00148809523809,0.0,0.6578677757370205,0.0,0.21928925857900677,1.8727484466062883
6.69,72.32886904761907,0.0,0.6501692303843669,0.0,0.21672307679478897,1.864872581827458
6.7,72.03373015873017,0.0,0.6516075063230358,0.0,0.21720250210767858,1.8635362716000836
6.71,72.33878968253967,0.0,0.6507779210866055,0.0,0.21692597369553518,1.8659249551899377
6.72,71.36160714285714,0.0,0.6455888445869021,0.0,0.21519628152896741,1.8462421807475355
6.73,72.65128968253967,0.0,0.6627058407289472,0.0,0.2209019469096491,1.8879644319748616
6.74,72.03869047619047,0.0,0.6705309740363626,0.0,0.2235103246787875,1.892611779236708
6.75,70.78373015873015,0.0,0.6306949146525954,0.0,0.21023163821753185,1.816470297705408
6.76,71.38640873015872,0.0,0.6487355597896192,0.0,0.21624518659653974,1.8513647631059875
6.7700000000000005,72.31646825396825,0.0,0.6575228491569954,0.0,0.21917428305233183,1.8759993210883452
6.78,70.30257936507937,0.0,0.6350545758186629,0.0,0.21168485860622094,1.8173813019695688
6.79,72.31150793650794,0.0,0.6568852675555612,0.0,0.21896175585185373,1.8749621721566223
6.8,72.02876984126985,0.0,0.6548808438163045,0.0,0.2182936146054349,1.8684958652802384
6.8100000000000005,72.48015873015873,0.0,0.6619581846067331,0.0,0.22065272820224435,1.8847644544922288
6.82,71.56001984126985,0.0,0.6535924781716751,0.0,0.21786415939055842,1.8608953712918066
6.83,70.1140873015873,0.0,0.6163274216249045,0.0,0.20544247387496814,1.786404427443901
6.84,72.48015873015873,0.0,0.6586834716283312,0.0,0.21956115720944372,1.879743227925346
6.8500000000000005,72.64632936507937,0.0,0.6619225477365013,0.0,0.22064084924550045,1.8867038589102543
6.86,71.85763888888889,0.0,0.6610725675545399,0.0,0.22035752251818003,1.8759362702502944
6.87,71.39136904761905,0.0,0.6443567035687914,0.0,0.2147855678562638,1.844710040710242
6.88,70.73660714285715,0.0,0.6262467239020115,0.0,0.20874890796733717,1.8090842623640369
6.890000000000001,72.17013888888889,0.0,0.6598241021864033,0.0,0.21994136739546777,1.8777719566858184
6.9,71.24751984126985,0.0,0.6500917043516939,0.0,0.21669723478389796,1.8517775181011689
6.91,72.49751984126983,0.0,0.6567857921699708,0.0,0.21892859738999024,1.877041786089193
6.92,70.90029761904762,0.0,0.6388503300778074,0.0,0.2129501100259358,1.8303740775478763
6.93,71.68650793650794,0.0,0.6519551045160801,0.0,0.2173183681720267,1.859902588829418
6.94,73.10515873015872,0.0,0.6630589116044658,0.0,0.22101963720148862,1.8939522358887522
6.95,71.22767857142857,0.0,0.6401111319532371,0.0,0.21337037731774572,1.8362358785187731
6.96,72.65376984126985,0.0,0.6660219486519311,0.0,0.22200731621731035,1.8930788926948658
6.97,71.54017857142858,0.0,0.6471282448375125,0.0,0.21570941494583748,1.8507454516079955
6.98,71.21279761904762,0.0,0.6496317332228141,0.0,0.21654391107427134,1.8506555623702194
6.99,71.23511904761904,0.0,0.6450251140759056,0.0,0.21500837135863518,1.8438599368211503
7.0,72.14037698412699,0.0,0.6560203770118089,0.0,0.21867345900393637,1.8715824352276307
7.01,72.03125000000001,0.0,0.6551329127828517,0.0,0.2183776375942838,1.868912132933706
7.0200000000000005,71.22271825396827,0.0,0.6447682108438231,0.0,0.214922736947941,1.8433172090081478
7.03,71.99652777777777,0.0,0.6502376205068984,0.0,0.21674587350229943,1.8609893514439106
7.04,71.6765873015873,0.0,0.6476098822780615,0.0,0.21586996075935386,1.8531208671120751
7.05,72.02628968253968,0.0,0.6463283502528353,0.0,0.21544278341761175,1.85535227991149
7.0600000000000005,72.1750992063492,0.0,0.6605645856441189,0.0,0.22018819521470637,1.8789668884638395
7.07,70.74652777777779,0.0,0.6288830789872674,0.0,0.20962769299575582,1.8132457211138102
7.08,71.22271825396825,0.0,0.6416334617230474,0.0,0.21387782057434915,1.838510593689625
7.09,71.07142857142858,0.0,0.6419626677829784,0.0,0.2139875559276594,1.8371999001243764
7.1000000000000005,71.09126984126983,0.0,0.6271221770634536,0.0,0.20904072568781787,1.8146825762592003
7.11,71.37400793650794,0.0,0.6455693053450491,0.0,0.2151897684483497,1.8463610301005038
7.12,71.24007936507937,0.0,0.6447029198365325,0.0,0.2149009732788441,1.8434254294636354
7.13,71.07886904761905,0.0,0.6438459331817984,0.0,0.21461531106059945,1.8401768594501862
7.140000000000001,71.3938492063492,0.0,0.6511773014482791,0.0,0.21705910048275973,1.8551980526968852
7.15,71.2251984126984,0.0,0.6279139731153345,0.0,0.2093046577051115,1.8175038063958937
7.16,72.18501984126985,0.0,0.6535484019617525,0.0,0.21784946732058413,1.8683277877699251
7.17,72.48263888888889,0.0,0.6589462521308591,0.0,0.2196487507102864,1.880175919933984
7.18,71.85763888888889,0.0,0.6583834277239786,0.0,0.2194611425746596,1.8718129225101006
7.19,71.36904761904762,0.0,0.6460500631523345,0.0,0.2153500210507781,1.847038668262151
7.2,71.23511904761904,0.0,0.6416275910594467,0.0,0.2138758636864822,1.8386504015292466
7.21,71.08878968253968,0.0,0.6384035926259501,0.0,0.21280119754198337,1.8319509848836
7.22,71.21527777777779,0.0,0.6433133554063787,0.0,0.21443778513545958,1.8409971449564473
7.23,71.70634920634922,0.0,0.6452265294948221,0.0,0.21507550983160736,1.8498235357015842
7.24,71.39880952380952,0.0,0.6533124266161128,0.0,0.21777080887203754,1.858531435097087
7.25,71.23759920634922,0.0,0.6418232263884438,0.0,0.2139410754628146,1.8389801376051376
7.26,72.18253968253967,0.0,0.6500341925487593,0.0,0.21667806418291974,1.8629095714319068
7.2700000000000005,71.2375992063492,0.0,0.6389898410658479,0.0,0.21299661368861594,1.8346356134438238
7.28,71.52281746031747,0.0,0.6475417218038596,0.0,0.21584724060128657,1.8511711162897275
7.29,71.06150793650795,0.0,0.6411391948127279,0.0,0.21371306493757597,1.8358181939509448
7.3,70.13392857142858,0.0,0.6322123266900063,0.0,0.21073744223000207,1.8109993771151525
7.3100000000000005,71.08630952380952,0.0,0.6394214990125497,0.0,0.21314049967084997,1.8334820127716238
7.32,71.84771825396827,0.0,0.6589005051155074,0.0,0.2196335017051691,1.872486726891397
7.33,72.16517857142858,0.0,0.6610824057286171,0.0,0.22036080190953905,1.8796418316410226
7.34,71.99652777777779,0.0,0.6528732937676228,0.0,0.2176244312558743,1.865030717110355
7.3500000000000005,71.34672619047618,0.0,0.6565620805019023,0.0,0.21885402683396746,1.8628892377219644
7.36,71.40376984126985,0.0,0.6395690854872276,0.0,0.21318969516240918,1.8375178358423205
7.37,71.71378968253967,0.0,0.6602650849620824,0.0,0.22008836165402745,1.8729719397990023
7.38,71.04662698412699,0.0,0.6309467423526564,0.0,0.2103155807842188,1.8200111954169302
7.390000000000001,71.99404761904762,0.0,0.6564250670234788,0.0,0.21880835567449294,1.870447007531239
7.4,71.67410714285714,0.0,0.6481499379173798,0.0,0.2160499793057932,1.8539191905209347
7.41,71.55257936507937,0.0,0.6418111160548134,0.0,0.21393703868493788,1.8427413303316666
7.42,72.65625,0.0,0.6647378462657443,0.0,0.2215792820885814,1.8911396976074746
7.43,71.53025793650792,0.0,0.6419194881657106,0.0,0.21397316272190353,1.8426396437588513
7.44,71.83779761904762,0.0,0.648930080759349,0.0,0.21631002691978302,1.8570796952595734
7.45,72.30654761904762,0.0,0.653777661542773,0.0,0.2179258871809243,1.870137652460823
7.46,71.08878968253968,0.0,0.6487719483483284,0.0,0.21625731611610943,1.8478491303245796
7.47,72.32390873015873,0.0,0.6626201106585122,0.0,0.2208733702195041,1.8839044077716234
7.48,72.20734126984128,0.0,0.6524479367382755,0.0,0.21748264557942515,1.866908264903451
7.49,70.88045634920636,0.0,0.6469905076765934,0.0,0.21566350255886446,1.8426175879612527
7.5,71.3814484126984,0.0,0.6338319004186008,0.0,0.21127730013953366,1.8284529615942353
7.51,70.14136904761905,0.0,0.62798016505856,0.0,0.2093267216861867,1.8045993483278873
7.5200000000000005,73.26388888888889,0.0,0.6696498962252263,0.0,0.2232166320750754,1.9059631742120136
7.53,71.71626984126983,0.0,0.6538972553851499,0.0,0.21796575179505,1.8632376963524677
7.54,72.61656746031744,0.0,0.6650913213522325,0.0,0.2216971071174108,1.891205502263899
7.55,72.34623015873017,0.0,0.6587142784174086,0.0,0.21957142613913622,1.8781833221447883
7.5600000000000005,71.36904761904762,0.0,0.6413835228448607,0.0,0.21379450761495353,1.8398833064573576
7.57,70.60267857142857,0.0,0.6443635339228975,0.0,0.2147878446409658,1.8352562282055858
7.58,71.3814484126984,0.0,0.640558725049588,0.0,0.2135195750165293,1.8387674260284157
7.59,73.28621031746032,0.0,0.6754361286049898,0.0,0.22514537620166325,1.9151032543371749
7.6000000000000005,71.37152777777779,0.0,0.6484502414253479,0.0,0.21615008047511597,1.8507487035188668
7.61,71.06646825396824,0.0,0.6346665071776488,0.0,0.21155550239254964,1.825952930053347
7.62,72.16021825396825,0.0,0.6530890945135495,0.0,0.21769636483784988,1.8673258973017282
7.63,71.67906746031747,0.0,0.6543941350309485,0.0,0.2181313783436495,1.8635531499045974
7.640000000000001,72.18005952380952,0.0,0.654147646780264,0.0,0.21804921559342136,1.8691871060154523
7.65,71.8625992063492,0.0,0.6541368335702791,0.0,0.21804561119009302,1.8653610019506182
7.66,70.92261904761907,0.0,0.6307387214335534,0.0,0.21024624047785107,1.8182041347695437
7.67,71.54265873015872,0.0,0.6411514052913282,0.0,0.21371713509710938,1.8416107262086079
7.68,70.43402777777777,0.0,0.6197297911552859,0.0,0.20657659705176196,1.795460679771438
7.69,72.31150793650794,0.0,0.6585950411431448,0.0,0.2195316803810483,1.8775838249909174
7.7,72.46527777777777,0.0,0.6690293604419019,0.0,0.22300978681396727,1.8954283526775828
7.71,70.92261904761904,0.0,0.6430774907500387,0.0,0.21435916358334625,1.837123581054821
7.72,70.9077380952381,0.0,0.6465259357490101,0.0,0.21550864524967,1.8422326252913392
7.73,72.47767857142858,0.0,0.6663798936062124,0.0,0.22212663120207074,1.8915146463866683
7.74,71.56001984126985,0.0,0.6513350747168476,0.0,0.21711169157228252,1.8574340193277379
7.75,69.98263888888889,0.0,0.6123272992745952,0.0,0.2041090997581984,1.7786935255543792
7.76,71.53521825396827,0.0,0.6488298431226156,0.0,0.2162766143742052,1.8532950451689632
7.7700000000000005,70.88789682539684,0.0,0.6449026035412876,0.0,0.21496753451376255,1.8395054206680694
7.78,72.16269841269842,0.0,0.6621382790172189,0.0,0.22071275967240633,1.88123107544545
7.79,71.38888888888889,0.0,0.6502035323826082,0.0,0.21673451079420275,1.8536454163199991
7.8,72.02132936507937,0.0,0.6586043191807822,0.0,0.21953477306026076,1.8741159084581518
7.8100000000000005,70.93005952380952,0.0,0.6391955574928068,0.0,0.21306518583093564,1.8312605691080177
7.82,71.21775793650792,0.0,0.6265204404115352,0.0,0.20884014680384508,1.8152777705357823
7.83,71.23511904761905,0.0,0.6538528870448894,0.0,0.21795096234829647,1.8573958553735925
7.84,70.9126984126984,0.0,0.6306491527222456,0.0,0.2102163842407485,1.817947748459824
7.8500000000000005,71.08630952380952,0.0,0.6479429220807552,0.0,0.21598097402691843,1.846548194809539
7.86,71.39136904761905,0.0,0.6488907317751431,0.0,0.21629691059171438,1.8516622172933146
7.87,72.47519841269842,0.0,0.6710173570974964,0.0,0.22367245236583214,1.898595661835209
7.88,70.59027777777777,0.0,0.6306701802225606,0.0,0.21022339340752022,1.814110943007926
7.890000000000001,70.13640873015872,0.0,0.6286237799411311,0.0,0.20954125998037704,1.805526700671639
7.9,72.00892857142857,0.0,0.654712141523647,0.0,0.21823738050788233,1.8679990931934014
7.91,71.40625,0.0,0.6504571515441081,0.0,0.21681905051470268,1.8542426323676326
7.92,71.06150793650792,0.0,0.6545803489488697,0.0,0.21819344964962326,1.8564279636263619
7.930000000000001,72.01140873015872,0.0,0.6516272358132824,0.0,0.2172090786044274,1.863298666342271
7.94,71.515376984127,0.0,0.653743020581022,0.0,0.217914340193674,1.8605904887004243
7.95,70.29265873015873,0.0,0.6223719127826959,0.0,0.20745730426089865,1.7978155043620385
7.96,70.60515873015872,0.0,0.6424993077240975,0.0,0.21416643590803247,1.832427509938854
7.97,72.50744047619047,0.0,0.6733495323675042,0.0,0.2244498441225014,1.902558568677792
7.98,71.0689484126984,0.0,0.6435215631148465,0.0,0.21450718770494878,1.8395604443951454
7.99,72.00148809523809,0.0,0.6495894613211882,0.0,0.2165298204403961,1.860055031168679
8.0,71.52777777777777,0.0,0.644532376600985,0.0,0.21484412553366167,1.8466163107881768
8.01,72.34871031746032,0.0,0.6568438839424302,0.0,0.21894796131414335,1.8753451458545833
8.02,71.67906746031746,0.0,0.6466232837792082,0.0,0.21554109459306942,1.8516378446519286
8.03,70.75892857142858,0.0,0.6374372150378446,0.0,0.21247907167928148,1.826510872581838
8.040000000000001,71.69146825396824,0.0,0.6522475190146755,0.0,0.2174158396715585,1.8604104815367877
8.05,71.86755952380952,0.0,0.6508575421706448,0.0,0.21695251405688162,1.8603922789473697
8.06,71.22767857142858,0.0,0.6443585743996976,0.0,0.21478619146656586,1.8427486236033461
8.07,71.56001984126983,0.0,0.6434844141365882,0.0,0.2144948047121961,1.84539633977134
8.08,71.04414682539682,0.0,0.6506040283702632,0.0,0.21686800945675438,1.850122605405832
8.09,70.43402777777779,0.0,0.6343534942566198,0.0,0.21145116475220666,1.8178836911934837
8.1,70.74156746031746,0.0,0.6292586245509542,0.0,0.20975287485031807,1.8137620338352727
8.11,70.58283730158729,0.0,0.6408829527464128,0.0,0.21362765091547092,1.8296812418302137
8.120000000000001,71.36904761904762,0.0,0.6430831845450715,0.0,0.21436106151502385,1.842489454397681
8.13,71.85515873015873,0.0,0.6565196933383571,0.0,0.2188398977794524,1.8689254345473858
8.14,71.70386904761904,0.0,0.6467626733716265,0.0,0.21558755779054217,1.8521491944079225
8.15,70.89533730158729,0.0,0.646830287315256,0.0,0.21561009577175203,1.8425504881691066
8.16,70.89285714285714,0.0,0.6510033100018007,0.0,0.21700110333393355,1.84891936105038
8.17,72.00892857142857,0.0,0.6494854245490361,0.0,0.21649514151634536,1.8599847938323315
8.18,70.89285714285714,0.0,0.633052969403392,0.0,0.21101765646779733,1.8213955054661533
8.19,71.54761904761905,0.0,0.6542994916082756,0.0,0.21809983053609186,1.8618306490374512
8.2,70.58531746031747,0.0,0.6322237799612639,0.0,0.21074125998708798,1.8164336054644141
8.21,71.0689484126984,0.0,0.6510933434147483,0.0,0.21703111447158277,1.8511705075216618
8.22,70.91021825396825,0.0,0.63204332596106,0.0,0.2106811086536867,1.8200557188545776
8.23,71.5327380952381,0.0,0.6427127246643428,0.0,0.2142375748881143,1.8438857016281829
8.24,69.50396825396825,0.0,0.6160235416757155,0.0,0.20534118055857187,1.7786170496170495
8.25,71.67906746031747,0.0,0.6559442248572682,0.0,0.21864807495242275,1.8659299543049541
8.26,69.62549603174604,0.0,0.6291880928306611,0.0,0.20972936427688707,1.8002610280546327
8.27,72.6438492063492,0.0,0.6632919528054315,0.0,0.22109731760181056,1.8887738514445187
8.28,70.27529761904762,0.0,0.6382133129807549,0.0,0.21273777099358498,1.8218973179990623
8.290000000000001,71.0515873015873,0.0,0.6349914224636166,0.0,0.2116638074878722,1.8262725620632598
8.3,70.9126984126984,0.0,0.638057601290665,0.0,0.2126858670968883,1.829307369598067
8.31,71.98412698412699,0.0,0.656355313583208,0.0,0.21878510452773597,1.8702210046371095
8.32,71.24007936507937,0.0,0.6434177273473055,0.0,0.21447257578243514,1.8414548009801541
8.33,70.43402777777777,0.0,0.6336182226221633,0.0,0.21120607420738774,1.816756274687317
8.34,72.15277777777777,0.0,0.6629541225310998,0.0,0.22098470751036653,1.8823629878810195
8.35,71.38392857142857,0.0,0.6446101814486977,0.0,0.2148700604828993,1.8450094210784793
8.36,70.75644841269842,0.0,0.6325285115919346,0.0,0.2108428371973115,1.8189544320600137
8.370000000000001,70.12152777777777,0.0,0.6369277013130833,0.0,0.21230923377102778,1.8180808086800608
8.38,72.19246031746032,0.0,0.6632460067748005,0.0,0.22108200225826685,1.8832867341975512
8.39,72.01140873015873,0.0,0.658027847593065,0.0,0.21934261586435494,1.8731129377379376
8.4,70.4389880952381,0.0,0.6353279092297511,0.0,0.21177596974325041,1.8194373179618089
8.41,69.98511904761905,0.0,0.6370071258624029,0.0,0.212335708620801,1.8165656882271133
8.42,70.41170634920636,0.0,0.6362916041592184,0.0,0.21209720138640611,1.8205876025679446
8.43,72.29910714285714,0.0,0.6641291791465396,0.0,0.22137639304884651,1.8859206937389796
8.44,69.68253968253968,0.0,0.6295206455936068,0.0,0.20984021519786894,1.8014554661006732
8.45,70.91021825396825,0.0,0.6388050431239314,0.0,0.21293501437464374,1.8304236851709803
8.46,71.23511904761904,0.0,0.6488431468626255,0.0,0.2162810489542085,1.8497142537607874
8.47,71.36904761904762,0.0,0.6379189055193953,0.0,0.2126396351731318,1.8345708932249776
8.48,70.89285714285714,0.0,0.6473542610150301,0.0,0.21578475367167674,1.8433241526039987
8.49,72.64632936507937,0.0,0.6706266198802389,0.0,0.22354220662674634,1.9000501028639853
8.5,70.91765873015873,0.0,0.645432916683051,0.0,0.21514430556101707,1.8406757103425833
8.51,71.55505952380953,0.0,0.6507592382324485,0.0,0.21691974607748282,1.8564915462421352
8.52,71.54513888888889,0.0,0.657158960775982,0.0,0.21905298692532735,1.8661854065231722
8.53,70.61507936507937,0.0,0.6367192951046274,0.0,0.21223976503487582,1.8236838715413812
8.540000000000001,70.41170634920636,0.0,0.6388645116116233,0.0,0.21295483720387445,1.8245327273282987
8.55,71.24751984126985,0.0,0.6416741330205223,0.0,0.21389137767350747,1.8388705753933723
8.56,71.07142857142858,0.0,0.6436657793364494,0.0,0.21455525977881645,1.8398113378396987
8.57,71.0639880952381,0.0,0.6533192150651627,0.0,0.21777307168838753,1.8545239869094399
8.58,71.35912698412699,0.0,0.6445260944438483,0.0,0.21484203148128275,1.8445828686234245
8.59,70.90029761904762,0.0,0.6322993493515368,0.0,0.2107664497838456,1.820329240434261
8.6,71.5376984126984,0.0,0.6521182845916339,0.0,0.21737276153054466,1.8583670839928863
8.61,71.07638888888889,0.0,0.6480415477269561,0.0,0.21601384924231876,1.8465803731813326
8.620000000000001,71.23015873015872,0.0,0.6468642633754271,0.0,0.21562142112514232,1.8466204419375596
8.63,69.80158730158732,0.0,0.6265819730279661,0.0,0.2088606576759887,1.7983780729285959
8.64,72.00148809523809,0.0,0.6557143995951377,0.0,0.21857146653171253,1.8694466031887347
8.65,70.89781746031746,0.0,0.6428893291507273,0.0,0.21429644305024245,1.8365374475549248
8.66,71.37896825396827,0.0,0.6491556965411981,0.0,0.21638523218039935,1.8519196870774564
8.67,71.24255952380952,0.0,0.6431966699681719,0.0,0.21439888998939063,1.8411456082369113
8.68,72.80257936507937,0.0,0.6725544285632081,0.0,0.22418480952106937,1.9048810761778716
8.69,72.02132936507937,0.0,0.6557440468763571,0.0,0.21858134895878578,1.8697301575913667
8.700000000000001,71.86507936507937,0.0,0.6577823433413876,0.0,0.21926078111379582,1.8709805455044133
8.71,71.06646825396827,0.0,0.6346953877785128,0.0,0.21156512925950421,1.8259972136413385
8.72,71.51289682539682,0.0,0.6510746021826733,0.0,0.2170248673942244,1.8564691519181942
8.73,71.23511904761905,0.0,0.6506929217984551,0.0,0.21689764059948505,1.8525505753290596
8.74,71.24255952380952,0.0,0.6462844708004357,0.0,0.21542815693347855,1.8458802361797157
8.75,71.85515873015872,0.0,0.651723044397463,0.0,0.2172410147991543,1.8615705728380145
8.76,70.73412698412699,0.0,0.6383782636985958,0.0,0.2127927545661986,1.8276561948140373
8.77,70.1140873015873,0.0,0.6301501268553477,0.0,0.21005004228511587,1.8075992421305809
8.78,72.17013888888889,0.0,0.6522014593847892,0.0,0.21740048646159643,1.8660839043900102
8.790000000000001,70.7390873015873,0.0,0.6357899328922043,0.0,0.2119299776307347,1.8237469447204273
8.8,71.38888888888889,0.0,0.6382492856885975,0.0,0.21274976189619915,1.8353155713891827
8.81,71.37400793650794,0.0,0.6431000186435829,0.0,0.21436667288119432,1.842574790491589
8.82,71.19791666666667,0.0,0.6459285676955409,0.0,0.2153095225651803,1.844798803799829
8.83,70.4389880952381,0.0,0.6302506843002293,0.0,0.21008356143340978,1.811652239736542
8.84,70.6125992063492,0.0,0.6397654782622489,0.0,0.21325515942074963,1.8283249238116388
8.85,72.6438492063492,0.0,0.6681086546607273,0.0,0.22270288488690917,1.8961594609559724
8.86,70.91517857142857,0.0,0.6432501348498398,0.0,0.2144167116166133,1.8372990162935638
8.870000000000001,71.06894841269842,0.0,0.6447183487640096,0.0,0.21490611625466985,1.8413955157238624
8.88,72.62400793650794,0.0,0.6589608769295853,0.0,0.21965362564319513,1.8818947731967928
8.89,70.74404761904762,0.0,0.655867694141881,0.0,0.21862256471396035,1.854592369112789
8.9,69.79910714285714,0.0,0.6201387021804259,0.0,0.20671290072680862,1.7884686290576055
8.91,70.77628968253968,0.0,0.6392052349494594,0.0,0.21306841164981982,1.8294301697796471
8.92,71.20783730158729,0.0,0.6320828691553,0.0,0.21069428971843335,1.8236877803238407
8.93,71.0515873015873,0.0,0.6463414507558142,0.0,0.21544715025193809,1.8436759387779627
8.94,71.52281746031744,0.0,0.6463881782174464,0.0,0.21546272607248218,1.8494023494572271
8.950000000000001,71.38640873015872,0.0,0.6522174665247761,0.0,0.21740582217492538,1.8567036867665614
8.96,71.22271825396825,0.0,0.6447371434208347,0.0,0.21491238114027827,1.843269572292899
8.97,71.06150793650792,0.0,0.6455218697459746,0.0,0.21517395658199154,1.842538295515256
8.98,71.84771825396825,0.0,0.661090936462631,0.0,0.22036364548754364,1.8758453882903199
8.99,70.74404761904762,0.0,0.6478049326350855,0.0,0.21593497754502855,1.8422294681357025
9.0,69.7891865079365,0.0,0.6224129188240686,0.0,0.2074709729413562,1.7918367136254765
9.01,70.93253968253968,0.0,0.6389055659787368,0.0,0.21296852199291222,1.8308456773578727
9.02,69.96527777777779,0.0,0.6350088215015768,0.0,0.21166960716719227,1.8132635263024177
9.03,71.21775793650794,0.0,0.6458660862676745,0.0,0.21528869542255813,1.844941094181863
9.040000000000001,71.38640873015873,0.0,0.6552788388082507,0.0,0.21842627960275016,1.8613977909345556
9.05,70.60267857142856,0.0,0.6360185086555868,0.0,0.21200616955186224,1.8224605227957091
9.06,70.46130952380952,0.0,0.6409818024352909,0.0,0.21366060081176358,1.828374478019827
9.07,71.35664682539682,0.0,0.6527236757033454,0.0,0.21757455856778182,1.8571227313165581
9.08,70.56299603174604,0.0,0.6322656724427161,0.0,0.21075522414757208,1.816229983459784
9.09,71.37152777777777,0.0,0.648802564446671,0.0,0.21626752148222367,1.8512889321515622
9.1,71.2251984126984,0.0,0.6447761097533936,0.0,0.2149253699177979,1.8433590825742512
9.11,70.76388888888889,0.0,0.6373013474212367,0.0,0.21243378247374553,1.826362066045896
9.120000000000001,71.06646825396825,0.0,0.6519297714419048,0.0,0.21730992381396833,1.8524232685918731
9.13,71.19543650793649,0.0,0.6455087795259302,0.0,0.2151695931753101,1.8441253667016642
9.14,71.39880952380952,0.0,0.6487602767986784,0.0,0.21625342559955948,1.8515514720436876
9.15,69.94047619047619,0.0,0.6371400433432498,0.0,0.21238001444774995,1.8162337807453637
9.16,70.76140873015873,0.0,0.6400750633356188,0.0,0.2133583544452063,1.8305853352098536
9.17,71.87003968253968,0.0,0.6526608658111129,0.0,0.21755362193703767,1.8631871371008495
9.18,70.2827380952381,0.0,0.6340729828563068,0.0,0.21135766095210223,1.8156380975225275
9.19,70.59275793650794,0.0,0.629316386995113,0.0,0.20977212899837103,1.8120648886306017
9.200000000000001,71.97172619047619,0.0,0.6640142583938979,0.0,0.2213380861312993,1.8818159104896912
9.21,71.06150793650792,0.0,0.6494824062427125,0.0,0.2164941354142375,1.8486111181435874
9.22,71.54761904761905,0.0,0.6598169888942197,0.0,0.21993899629807326,1.8702908115425654
9.23,71.69394841269842,0.0,0.6469311714281412,0.0,0.2156437238093804,1.852288510475531
9.24,72.94890873015872,0.0,0.6742780968276049,0.0,0.22475936560920165,1.9092799865642323
9.25,71.8328373015873,0.0,0.6389446200109841,0.0,0.21298154000366137,1.84170913163589
9.26,70.91765873015872,0.0,0.6451827262119165,0.0,0.21506090873730543,1.8402920849535098
9.27,69.62797619047619,0.0,0.6282476722935834,0.0,0.20941589076452782,1.798848811802542
9.28,72.1750992063492,0.0,0.6605025773883966,0.0,0.22016752579613214,1.8788718091383985
9.290000000000001,71.07886904761904,0.0,0.6439113427951021,0.0,0.214637114265034,1.8402771541905851
9.3,69.94047619047619,0.0,0.6317879530367312,0.0,0.21059598434557705,1.8080272422753687
9.31,71.35912698412697,0.0,0.6562390904373259,0.0,0.2187463634791087,1.8625427958134233
9.32,70.12152777777777,0.0,0.6342830450771627,0.0,0.21142768169238754,1.8140256691183159
9.33,70.73660714285714,0.0,0.6398536686541323,0.0,0.2132845562180441,1.8299482443172885
9.34,70.9126984126984,0.0,0.6541695934218399,0.0,0.2180565311406133,1.854012424199202
9.35,71.21527777777777,0.0,0.6499831965799068,0.0,0.21666106552663558,1.851224234755857
9.36,71.66914682539681,0.0,0.6614747964090735,0.0,0.2204915988030245,1.8742911163986744
9.370000000000001,70.44642857142858,0.0,0.6274255109969396,0.0,0.20914183699897984,1.8074095930524503
9.38,69.7891865079365,0.0,0.6242888381600804,0.0,0.20809627938669348,1.7947131232740279
9.39,71.5203373015873,0.0,0.6510357801600949,0.0,0.21701192672003167,1.856498910531193
9.4,71.24503968253968,0.0,0.6470940829292452,0.0,0.21569802764308177,1.847151403348652
9.41,71.53521825396825,0.0,0.651809912726218,0.0,0.21726997090873928,1.85786448522782
9.42,71.83531746031744,0.0,0.6564562498134162,0.0,0.21881874993780542,1.868590059237714
9.43,71.36160714285714,0.0,0.6614643693963881,0.0,0.2204881231321294,1.8705846521220808
9.44,70.57787698412697,0.0,0.6386114112938855,0.0,0.2128704704312952,1.8261386877934815
9.450000000000001,71.08878968253968,0.0,0.6427814744723073,0.0,0.2142604914907691,1.838663737048014
9.46,70.45386904761905,0.0,0.6402748826988636,0.0,0.2134249608996212,1.827201248709686
9.47,71.21775793650794,0.0,0.6496873310500033,0.0,0.21656244368333444,1.8508003361814336
9.48,71.2078373015873,0.0,0.6448097700738952,0.0,0.2149365900246317,1.8432023617323536
9.49,70.61011904761905,0.0,0.6418587472411241,0.0,0.21395291574704137,1.831504841007819
9.5,71.25248015873015,0.0,0.641695849808257,0.0,0.21389861660275233,1.8389633982774225
9.51,69.96279761904762,0.0,0.6274121125619583,0.0,0.20913737085398615,1.8015854773569073
9.52,71.0689484126984,0.0,0.646995302316472,0.0,0.21566510077215728,1.8448868445043045
9.53,70.91021825396825,0.0,0.6399021729879716,0.0,0.2133007243293239,1.8321059509625088
9.540000000000001,70.74900793650792,0.0,0.6412638339382527,0.0,0.21375461131275086,1.832259307276749
9.55,71.86507936507937,0.0,0.6614566392307506,0.0,0.2204855464102502,1.8766144658681032
9.56,70.29265873015872,0.0,0.6488000558594685,0.0,0.21626668528648954,1.8383386570797564
9.57,70.30753968253968,0.0,0.6392879725698337,0.0,0.21309599085661118,1.8239320341308878
9.58,70.7638888888889,0.0,0.6295566875375259,0.0,0.20985222917917526,1.8144869208908734
9.59,71.82291666666666,0.0,0.6574941862367792,0.0,0.21916472874559306,1.870032752229728
9.6,70.75396825396824,0.0,0.6394269724073627,0.0,0.21314232413578754,1.8295023100722414
9.61,71.2251984126984,0.0,0.6410704832640776,0.0,0.21369016108802588,1.8376771219572998
9.620000000000001,71.39880952380952,0.0,0.6480223952842976,0.0,0.21600746509476582,1.850420053721637
9.63,70.8953373015873,0.0,0.6457794150392865,0.0,0.21525980501309552,1.8409391506792872
9.64,70.14136904761907,0.0,0.6385532486042979,0.0,0.2128510828680993,1.8208114097646855
9.65,71.51537698412697,0.0,0.6470897750301068,0.0,0.21569659167670227,1.850388845522354
9.66,71.05902777777777,0.0,0.6480953304855186,0.0,0.2160317768285062,1.8464545067444618
9.67,71.54265873015872,0.0,0.6488750503490694,0.0,0.2162916834496898,1.8534536486304778
9.68,71.38640873015873,0.0,0.6425689037040895,0.0,0.2141896345680298,1.841909223774842
9.69,70.2703373015873,0.0,0.6337955456746479,0.0,0.21126518189154928,1.8150638843201743
9.700000000000001,71.36656746031746,0.0,0.6468612456093076,0.0,0.2156204152031025,1.8482527194580811
9.71,71.3764880952381,0.0,0.6459957029007372,0.0,0.21533190096691243,1.847044601590654
9.72,72.48263888888889,0.0,0.661052130686277,0.0,0.22035071022875902,1.883404933718958
9.73,70.91517857142857,0.0,0.6418267801488522,0.0,0.21394226004961742,1.835116539085383
9.74,71.67906746031746,0.0,0.6512094017563103,0.0,0.2170698005854368,1.8586698922168186
9.75,71.70386904761905,0.0,0.6643822410221476,0.0,0.22146074700738252,1.8791658648053882
9.76,69.9578373015873,0.0,0.6417699468159004,0.0,0.21392331560530012,1.8235412994034281
9.77,71.2375992063492,0.0,0.6398153224013747,0.0,0.21327177413379164,1.8359013514916318
9.78,71.69890873015872,0.0,0.6541549670638583,0.0,0.21805165568795276,1.8634245209264875
9.790000000000001,70.24801587301587,0.0,0.635474692199175,0.0,0.211824897399725,1.8173707185149255
9.8,70.73412698412697,0.0,0.6564812630718183,0.0,0.21882708769060613,1.8554141271863118
9.81,70.9126984126984,0.0,0.6484609073014226,0.0,0.2161536357671408,1.8452591054812286
9.82,69.34275793650794,0.0,0.6168432685797212,0.0,0.20561442285990705,1.7779394403936675
9.83,71.22271825396824,0.0,0.6472421893352126,0.0,0.2157473964450709,1.847110642694945
9.84,69.9751984126984,0.0,0.6337899242310661,0.0,0.211263308077022,1.811513598106682
9.85,71.70386904761905,0.0,0.6469929377748049,0.0,0.21566431259160165,1.852502266492796
9.86,69.01041666666666,0.0,0.6311859309944959,0.0,0.21039531033149866,1.7959434275248933
9.870000000000001,71.0515873015873,0.0,0.6433019948421068,0.0,0.21443399828070228,1.8390154397102778
9.88,69.99007936507937,0.0,0.6402377231210183,0.0,0.21341257437367273,1.8215787944998472
9.89,71.2251984126984,0.0,0.6459789554499529,0.0,0.21532631848331762,1.845203445975642
9.9,70.76388888888889,0.0,0.6448930521982379,0.0,0.21496435073274597,1.8380026800372977
9.91,71.67162698412699,0.0,0.6517178873757821,0.0,0.21723929579192736,1.8593602844523895
9.92,70.58531746031746,0.0,0.6424998647512254,0.0,0.2141666215837418,1.832190268809022
9.93,71.53769841269842,0.0,0.652099813293353,0.0,0.2173666044311177,1.8583387613355224
9.94,71.22767857142858,0.0,0.6482789264226537,0.0,0.21609297547421794,1.8487598300385455
9.950000000000001,70.12896825396825,0.0,0.6301858138776371,0.0,0.21006193795921235,1.8078325336599959
9.96,69.01289682539682,0.0,0.6136501603897002,0.0,0.2045500534632334,1.7690850078356355
9.97,69.8189484126984,0.0,0.6277118551744871,0.0,0.20923728505816236,1.8003188922199276
9.98,70.9077380952381,0.0,0.6499406480942254,0.0,0.21664688269807514,1.8474685175540029
9.99,71.7063492063492,0.0,0.6523082989362059,0.0,0.21743609964540198,1.8606822488450394
10.0,69.34027777777779,0.0,0.6219754257421906,0.0,0.20732514191406354,1.7857789861380255
best Lambda,0.03
