NN,Accuracy(%),FGreen,FYellow,FRed,FMean,ScoreS
1,61.970899470899475,0.7509534869626749,0.16334201745966453,0.6223015873015874,0.5121990305746422,3.1362661130920895
2,62.03703703703703,0.7436470232470005,0.19168109668109673,0.6057142857142858,0.5136808018807943,3.140361014160984
3,62.76455026455026,0.7495322051204404,0.21586802086802087,0.5969047619047619,0.520768329297741,3.1778739054915524
4,65.3042328042328,0.7681205544787887,0.23972527472527477,0.6038095238095238,0.537218451004529,3.282374414518727
5,63.05555555555556,0.7556824054347275,0.22531968031968033,0.5581746031746031,0.5130588963096703,3.133053489556585
6,63.17460317460317,0.7639241154180179,0.21774531024531024,0.5020634920634921,0.4945776392422734,3.03098660314514
7,63.08201058201058,0.7530653730653729,0.2222194472194472,0.619047619047619,0.5314441464441464,3.2367284117284116
8,61.67989417989418,0.7403062403977038,0.18961323763955343,0.6119047619047618,0.5139414133140063,3.139799411895047
9,63.47883597883597,0.7544269748604113,0.23683483183483184,0.5943650793650794,0.5285422953534409,3.2204647192093008
10,63.78306878306878,0.7564258893589011,0.25517399267399266,0.5967460317460318,0.5361153045929752,3.2592658581765406
11,63.439153439153436,0.7518618962736611,0.2354517704517704,0.5852597402597403,0.5241911356617239,3.197754608136961
12,61.24338624338624,0.7464532356328022,0.17294372294372293,0.6152380952380953,0.5115450179382067,3.1233084988812543
13,64.56349206349206,0.7674139357290832,0.18246031746031743,0.5895238095238095,0.5131326875710701,3.158546623300153
14,62.38095238095239,0.7402268581178193,0.24069708069708068,0.5704761904761906,0.5171333764303635,3.150482445670394
15,63.84920634920635,0.7555783254127358,0.23627705627705634,0.6704761904761904,0.5541105240553275,3.365126078905293
16,65.31746031746032,0.767817660708622,0.26635364635364633,0.62,0.5513904356874229,3.352641995829944
17,62.35449735449735,0.7433497504946572,0.19978354978354979,0.5428571428571429,0.4953301477117833,3.0409598404863827
18,62.06349206349206,0.7424439001412686,0.23073593073593074,0.5278571428571428,0.5003456579114474,3.0562202939834515
19,62.367724867724874,0.7483542068676394,0.2079254079254079,0.5961904761904763,0.5174900303278411,3.158053139404383
20,65.37037037037035,0.7739475701776803,0.19016095016095017,0.6233333333333333,0.5291472845573213,3.250732439372586
21,68.22751322751323,0.7930127551693662,0.24149572649572648,0.6992857142857143,0.577931398650269,3.528397755773237
22,63.796296296296305,0.7522600307347228,0.20820346320346322,0.6214285714285713,0.5272973551222526,3.2270999543995442
23,67.12962962962963,0.7830497501550132,0.24448051948051946,0.685,0.5708434232118443,3.4803253522990363
best S,21
