sum_count_assignment_upload,sum_count_assignment_view,sum_count_forum_add_post,sum_count_forum_view_discussion,sum_count_forum_view_forum,sum_count_quiz_view,sum_count_content_access_view,snr_count_assignment_view,snr_count_course_view,snr_count_forum_view_discussion,snr_count_quiz_view,snr_count_scele_resource_view,snr_diff_course_view,snr_diff_scele_resource_view,asgn_rcpmean_diff_first_view_time_available_created,asgn_mean_diff_time_due_first_submit,signal
0.159229,-0.944761,-0.26579,-0.216894,-0.272306,1.115267,-0.121734,-0.140049,-0.470849,-0.395208,0.43211,0.632353,-0.962325,1.282973,-0.086579,-0.458813,Yellow
0.781757,-0.368156,-0.26579,0.953529,2.332008,0.796634,-0.449706,-0.357313,1.016222,0.743854,0.168328,0.353729,0.040413,-0.843138,0.026532,1.616892,Green
0.532746,2.245785,1.209458,0.645523,1.680929,1.504707,-0.683971,1.138047,1.623086,0.264676,1.802505,1.106279,0.278993,0.35668,0.856375,0.675063,Green
-0.463298,0.900374,0.15571,1.045931,1.029851,0.123964,0.112531,2.153827,0.740271,0.191305,0.77629,1.22215,0.225163,0.211062,-0.319945,-0.580022,Green
-0.463298,-0.445037,0.15571,0.245115,-0.359116,0.053156,-0.262293,-0.57155,1.412229,0.919916,0.428942,-1.156116,0.557122,1.532489,-0.014906,-0.475334,Green
-0.712309,-0.983201,1.420208,1.199934,0.682609,0.123964,-0.449706,0.718729,0.602988,0.655888,0.248469,1.566298,1.945198,2.199517,-0.264781,2.067545,Green
0.532746,0.208448,0.577209,1.415538,1.507309,0.725826,1.61183,1.449201,1.311233,0.248368,-0.385365,0.67315,-0.048498,-0.15659,0.793542,-0.578227,Green
-0.089782,-0.90632,0.15571,-0.617302,-0.749764,-0.300881,1.564977,0.111472,-0.100379,-0.716982,0.051384,-0.801724,1.347599,-0.569557,-0.012614,-0.465252,Red
-0.96132,-0.291276,0.36646,3.078772,4.806106,0.619615,-0.871383,0.042332,1.727807,5.048334,1.519182,-0.915588,0.535785,0.365022,0.08413,-0.33526,Green
0.532746,-0.291276,-0.687289,-1.01771,-1.010195,-0.761128,-0.777677,0.147578,0.077766,-1.308776,-1.407961,-0.654888,0.626007,0.934662,-0.076757,-0.309396,Green
-1.085826,2.361105,5.213703,7.51406,7.801067,2.956258,0.534209,0.934322,0.271375,1.441872,1.462245,0.608819,-0.325489,-0.554739,-0.298261,0.137983,Green
-0.712309,-0.291276,-0.05504,1.138333,0.899635,-1.292184,-0.871383,-0.019828,-0.504748,3.707486,0.898553,-0.993414,-0.389746,0.313274,0.503905,3.624516,Green
0.034724,0.977255,0.577209,0.121913,-0.185495,0.938248,0.581062,0.708831,-0.012421,-0.913959,-0.024868,-0.153675,0.508704,0.418791,-0.164099,-0.615972,Yellow
0.40824,0.746613,0.15571,1.045931,0.899635,1.044459,-0.543412,1.316154,1.339624,0.054272,2.482407,-1.161151,1.083656,-0.230058,0.62042,-0.064181,Green
-0.089782,0.823493,2.263207,3.263575,5.153348,0.265578,-0.637118,0.172985,-0.311913,0.179317,0.434834,0.493429,-0.408892,0.903127,17.10303,0.856243,Green
-0.587804,-0.752559,-0.687289,-0.340097,-0.315711,1.504707,0.253091,0.316312,0.87003,0.788057,0.049996,1.00806,-0.086973,0.411867,-0.018536,-0.297228,Yellow
-0.089782,-0.790999,0.787959,1.01513,0.639204,0.123964,0.627915,0.399528,0.029505,2.574843,1.038799,-0.781815,0.160595,-0.819553,0.175871,-0.212259,Green
-0.96132,-1.752007,-0.687289,-0.740505,-0.532737,0.194771,-0.590265,0.634388,0.431324,-1.009112,0.998445,0.251873,0.373908,1.476363,-0.119955,-0.667684,Green
0.781757,0.43909,-0.476539,-0.648103,-0.402522,0.336386,1.892948,-1.512746,1.046169,1.366358,0.237633,0.237809,-0.021975,-0.50059,-0.355905,0.078284,Red
0.159229,1.284777,-0.26579,-0.401698,-0.532737,-0.831936,2.642597,1.215928,1.045013,-0.142174,1.167646,-0.854341,-0.145571,-0.900537,-0.253645,-0.516163,Yellow
3.894394,0.323769,-0.476539,-0.247695,-0.359116,1.256881,-0.168587,-1.276999,0.031529,0.152851,0.360542,0.80314,-1.085309,-0.866343,0.018662,0.034512,Yellow
-0.089782,0.016247,3.949205,3.01717,2.114982,2.212781,-0.355999,0.677205,1.255941,-1.104198,0.461812,-0.684044,-0.257377,0.012635,2.892289,-0.234073,Green
0.283735,0.054687,0.36646,0.368318,0.161746,3.027066,0.581062,-0.694529,0.562248,1.521927,1.42505,-0.453666,0.155236,-0.847091,-0.127973,1.338693,Yellow
0.657251,1.70762,-0.687289,-0.309296,0.205152,0.796634,-0.449706,1.351123,1.953687,1.071323,1.429746,1.680401,-0.096433,1.043038,-0.212438,0.419508,Yellow
0.283735,-0.752559,-0.687289,-0.4941,-0.793169,-0.371688,-0.449706,-0.130698,1.07244,0.471182,0.954034,-0.149593,0.93402,-0.542544,-0.231729,-0.640922,Red
1.52879,1.207896,-0.05504,-0.340097,-0.098685,1.681726,-0.730824,0.256711,0.597971,0.496583,2.012869,0.160468,0.876904,1.220035,2.171591,1.763033,Green
0.283735,-0.291276,-0.05504,-0.5249,-0.532737,-1.008954,-0.449706,-0.437762,-0.131084,-1.510257,-0.305296,0.390018,2.077761,0.974261,0.425133,0.781349,Green
-0.338793,0.093128,0.15571,0.49152,0.378773,0.194771,-0.402853,-0.32837,-0.623399,-0.270662,0.73246,-0.679092,0.35838,-0.705963,-0.258596,-0.457359,Yellow
0.159229,-0.637238,-0.687289,-0.4941,-0.05528,-0.336284,-0.402853,-0.674034,0.04774,0.640372,-0.057158,0.255124,0.296121,0.395172,-0.33408,-0.505373,Green
-0.712309,0.40065,-0.26579,-0.340097,-0.315711,-0.619514,-0.871383,-1.16772,0.27277,-0.431176,0.495759,-0.074535,-0.54663,2.990343,-0.338309,-0.169649,Green
0.034724,-1.021641,-0.687289,-0.740505,-0.445927,-0.336284,-0.543412,0.201998,-0.458918,0.189538,-0.964786,0.559687,0.357854,1.435358,-0.116037,-0.482517,Green
0.40824,-0.406596,0.36646,0.368318,-0.011875,-0.973551,0.065678,0.121728,1.248412,0.702199,0.564454,0.244202,0.272701,-0.585102,-0.318248,1.641679,Green
-0.338793,0.016247,1.630958,1.569542,1.160067,1.894148,1.190152,0.035074,1.015176,0.160856,0.719762,1.911114,0.473225,0.399762,0.468596,2.881858,Green
0.40824,-0.252835,-0.05504,0.306716,0.161746,1.044459,-0.402853,-0.803426,0.227604,0.762108,0.836049,-0.874094,0.456452,0.031909,0.200499,-0.410078,Yellow
-0.463298,-0.406596,-0.687289,-0.740505,-0.836574,-1.008954,-0.871383,0.258723,0.139201,0.863015,-0.105031,0.693019,1.334026,0.632393,0.07612,1.73106,Green
1.279779,1.169456,0.15571,0.861127,0.812825,1.363093,-0.730824,0.313677,-0.198835,1.04127,0.404406,0.764276,0.932119,2.134648,-0.110973,-0.326502,Green
0.283735,1.284777,0.36646,0.707124,1.984766,1.044459,-0.730824,0.518899,0.099798,0.089773,1.484502,0.158035,1.083516,3.781448,1.283038,-0.093984,Green
-0.089782,-0.022193,-0.476539,-0.648103,-0.749764,-0.725725,-0.871383,0.63053,-0.946692,-0.525129,-0.256817,-0.41479,1.169432,0.5694,-0.033678,-0.643334,Green
2.026812,0.36221,-0.476539,-0.678903,-0.489332,0.796634,-0.730824,-0.385982,0.178919,-0.372288,1.429746,-0.48092,0.841908,0.594269,-0.042567,2.051224,Green
-0.089782,1.938262,-0.687289,-0.771305,-0.706358,-1.185973,-0.871383,-0.150617,-1.708484,-0.219056,-1.21351,-1.092125,0.013203,-0.515129,-0.271355,-0.496202,Green
1.030768,0.285329,-0.05504,-0.155293,-0.228901,-0.796532,0.299944,0.488724,0.583122,0.388821,0.788675,0.595748,0.663977,0.161424,0.082481,0.049774,Green
-0.712309,-1.444485,-0.05504,0.060311,0.335367,-0.619514,-0.355999,0.285763,0.930643,0.93452,0.299288,0.79784,-0.028107,0.579004,-0.078881,-0.482237,Green
0.40824,-0.329716,-0.26579,0.029511,0.031531,-0.017651,-0.449706,0.422318,1.655172,0.448941,0.759814,-1.144709,0.253512,-0.982972,0.543912,0.244419,Green
0.781757,0.631292,-0.26579,0.861127,0.205152,-0.19467,-0.82453,0.765159,0.552401,1.227513,0.492945,-2.09059,2.09957,-0.586967,1.415126,1.116103,Green
-0.587804,0.093128,-0.476539,-0.586501,-0.532737,-0.654917,-0.871383,-0.209693,-0.639113,-0.605786,-0.655816,-0.51109,1.221158,0.854394,0.3458,1.343851,Green
1.030768,0.131568,-0.687289,-0.401698,0.118341,-0.796532,-0.730824,-1.372947,0.004108,1.064657,0.243231,-0.546216,1.330257,1.163095,5.213438,5.32593,Green
-0.214287,1.476978,7.3212,4.279996,4.155028,3.274891,0.065678,4.176387,1.930138,1.108937,1.674897,1.002054,0.684369,1.822284,-0.090761,2.229185,Green
0.40824,0.093128,-0.26579,-0.216894,0.508988,0.548808,-0.730824,0.594928,1.259848,-0.380204,1.481889,-0.050818,1.512398,1.549786,0.2624,0.64772,Green
0.283735,-0.214395,0.787959,0.922729,0.378773,-0.159266,0.581062,0.040646,0.825908,0.75199,-0.33949,1.100644,-0.057755,0.407613,-0.096633,-0.360493,Green
-0.587804,-1.060082,-0.26579,-0.401698,-0.445927,-0.973551,-0.262293,0.2086,-0.227653,-0.142174,0.029029,0.145256,1.137637,0.390427,-0.042078,-0.116255,Green
-1.085826,-0.560358,5.845952,2.801566,1.594119,0.017753,-0.637118,0.904004,1.105978,0.774999,1.002373,1.694635,0.158801,1.416921,1.697351,5.74115,Green
0.159229,0.093128,-0.05504,-0.278495,0.031531,-0.938147,-0.777677,0.539715,-0.243804,0.754727,0.522925,-0.142984,0.070545,1.570155,-0.13254,-0.245917,Green
-3.451431,-2.943656,-0.687289,-1.110112,-1.0536,-2.566716,-0.730824,-2.965837,-3.925177,-2.807087,-3.382134,-2.846847,-0.795776,0.43926,-0.680782,-0.442559,Red
-1.085826,-0.598798,0.15571,-0.093692,-0.272306,-0.017651,3.485953,1.012112,1.902141,1.138999,-0.44258,-0.810707,-0.497267,-0.670585,0.097759,-0.73749,Yellow
0.781757,0.40065,-0.26579,-0.155293,-0.228901,0.300982,-0.496559,0.252697,1.134393,0.358984,0.307763,0.938874,1.147247,0.831423,0.059929,-0.544281,Green
0.40824,0.40065,-0.05504,-0.555701,-0.359116,0.513404,-0.449706,0.721685,0.664894,0.135541,1.033941,-0.183252,0.541541,0.336211,0.058162,0.0493,Green
-0.338793,0.016247,0.787959,-0.216894,-0.619548,-0.265477,-0.683971,-0.710169,-0.90202,1.08622,0.26985,-1.01538,0.28476,-0.72546,-0.310849,-0.578944,Red
0.532746,0.785053,-0.687289,-0.278495,-0.619548,0.300982,0.955887,1.576321,0.877111,0.700756,0.865521,-1.194009,1.168369,-0.867985,0.55876,0.035065,Green
-0.712309,-0.291276,-0.687289,-0.617302,-0.445927,-0.690321,-0.82453,0.515084,-0.961313,-0.716982,0.865521,-0.500299,0.512977,1.463331,-0.066824,-0.671966,Yellow
0.532746,-0.445037,-0.687289,-0.986909,-0.879979,0.123964,-0.871383,0.636433,-0.405485,-0.404445,-0.463773,-0.44977,0.982095,2.204665,-0.102413,-0.139418,Green
2.026812,1.015695,0.577209,0.737925,1.290282,-0.831936,-0.074881,0.927876,-0.764583,1.621904,0.211607,-0.104708,1.169174,1.558485,0.540086,-0.020183,Green
-0.712309,-1.752007,-0.687289,-0.586501,-0.402522,0.300982,-0.683971,-0.445181,-0.602392,-0.605786,0.22158,-2.655172,0.967791,-1.624919,-0.088671,-0.679174,Yellow
-0.463298,-0.944761,-0.687289,-0.340097,-0.359116,-1.433798,-0.637118,0.222314,0.173907,-0.23784,-0.047133,-0.342264,0.72817,-0.170281,0.010493,0.229304,Green
-0.338793,1.246337,0.15571,2.247155,0.552393,2.177377,1.518123,1.580807,0.36883,2.204658,0.988728,-0.89431,-0.290568,-0.841485,0.171139,0.250418,Green
-0.338793,0.554411,0.15571,0.707124,0.161746,1.115267,0.206237,0.981715,-0.1401,0.462021,0.664213,-0.21242,-0.251127,-0.727068,0.569984,1.254501,Green
0.40824,0.285329,-0.05504,0.737925,0.682609,1.787937,-0.21544,0.755256,1.96731,-0.328948,0.065272,2.408022,-0.421069,0.545123,-0.369091,-0.223424,Green
1.155273,0.785053,-0.687289,-0.648103,-0.228901,-0.371688,-0.777677,0.520335,1.002022,0.169756,0.427217,0.6835,-0.556026,-0.373118,-0.068567,-0.066129,Green
-0.587804,1.323217,1.630958,0.891928,1.246877,1.540111,-0.730824,-0.085874,0.662889,0.460093,1.263743,-0.329406,1.698704,1.562762,8.951506,0.181883,Green
0.283735,0.785053,-0.05504,-0.062891,-0.272306,0.478,-0.637118,-0.370413,0.271839,0.457153,0.645163,1.040967,0.254382,1.345318,-0.314837,0.553636,Green
-0.338793,-0.022193,-0.687289,-0.4941,-0.14209,-0.230073,-0.402853,1.211602,1.27012,0.838787,0.237352,-0.85263,1.127199,-0.023379,-0.082105,-0.490433,Green
-0.463298,-0.060634,-0.476539,0.306716,0.552393,-0.371688,-0.777677,2.218018,1.059948,0.092785,0.071839,1.151551,0.336689,-0.430193,-0.110143,-0.329762,Green
-0.587804,-0.175955,-0.26579,-0.186093,0.248557,1.363093,-0.777677,-0.427836,1.157409,0.169756,-0.510254,1.426829,0.531909,1.746449,-0.09124,-0.480676,Green
-0.712309,-0.329716,3.106206,0.98433,0.726014,0.902845,-0.590265,0.189664,0.731364,-0.802085,1.98142,0.678615,1.720095,1.951833,0.133422,0.697372,Green
1.030768,0.170008,-0.687289,-0.617302,-0.619548,-0.690321,-0.543412,0.608019,0.236507,0.299341,-1.518257,0.343233,0.010787,0.610138,0.198316,2.482877,Green
-0.089782,-1.098522,-0.687289,-0.278495,-0.098685,-0.796532,-0.590265,0.111429,-0.008026,0.870589,1.237597,0.814802,-0.273956,-0.511467,-0.092512,-0.605773,Green
1.155273,0.785053,-0.687289,-0.216894,0.291962,0.478,1.049593,0.331678,-0.509004,2.034107,-0.733366,-0.42886,-0.345902,-0.615052,-0.178635,0.56523,Green
-0.836815,-0.521917,0.998709,0.830327,1.724335,0.300982,-0.82453,0.108119,1.651517,2.216979,0.180218,-0.176342,1.188761,-0.35629,-0.031071,-0.337326,Green
1.902306,1.361658,2.263207,1.323137,1.637524,0.619615,0.909034,0.654888,2.639829,0.996272,0.157138,2.029901,0.570706,-0.281236,0.075574,-0.201055,Green
-0.089782,0.208448,1.209458,0.368318,-0.619548,-1.681624,-0.730824,-0.071613,-1.418949,-1.130467,-1.011801,-0.113916,-0.382605,-0.953826,0.134371,-0.545539,Green
0.40824,-0.483477,-0.687289,-0.709704,-0.662953,1.540111,-0.543412,-0.124016,-0.299927,-0.085538,0.842534,1.129402,-0.888479,-0.785483,-0.086315,-0.023026,Yellow
0.532746,-0.291276,-0.05504,0.768726,-0.185495,1.186074,0.909034,-0.344638,1.251373,0.54244,0.542927,1.055168,-1.085073,-0.639597,-0.347401,1.335739,Yellow
0.781757,0.669732,-0.26579,0.799526,0.76942,-0.725725,1.424417,-0.352048,-0.079332,0.287897,-0.659928,0.281005,0.086136,0.171854,-0.119789,-0.135637,Green
0.283735,-0.329716,-0.687289,0.060311,-0.185495,0.194771,-0.637118,0.026092,1.655536,-1.009809,-0.774148,0.533341,-0.037341,-0.624164,-0.028469,-0.519954,Green
-0.587804,-0.714119,-0.05504,0.121913,-0.011875,-0.300881,-0.82453,-0.274266,0.268948,0.137644,2.081867,0.767524,0.374155,0.312838,-0.043212,-0.471721,Green
-0.338793,-0.175955,0.15571,-0.370897,-0.706358,-0.548706,-0.730824,0.132628,-0.221908,-0.211936,-1.552173,0.366122,-0.908559,0.038543,-0.395046,-0.729624,Red
0.283735,-0.291276,-0.476539,0.183514,-0.185495,-1.25678,0.206237,0.431144,-0.116775,0.421109,-0.818925,0.425244,1.196331,1.232252,0.125345,1.30691,Red
1.52879,0.515971,0.998709,1.723545,1.897956,0.796634,0.206237,-0.212815,1.226783,1.166265,0.835455,1.254231,-0.280968,0.912585,-0.316604,0.326915,Green
0.034724,2.437986,0.998709,1.415538,0.552393,1.079863,0.299944,-0.433191,0.168001,0.599315,0.432089,1.379213,-0.787787,0.316869,0.122086,0.816621,Yellow
-0.836815,0.016247,-0.687289,-0.216894,1.290282,0.76123,-0.496559,0.926657,-0.027468,0.230959,1.632809,0.452583,0.165566,0.712305,0.49303,4.065335,Green
-0.338793,0.785053,0.577209,2.431959,2.67925,-0.513303,-0.543412,-0.659499,0.046915,0.988751,-0.697503,-0.391268,-0.932494,-0.851379,-0.171193,-0.594463,Green
0.40824,0.746613,-0.687289,-0.309296,0.118341,-0.513303,-0.590265,0.068409,-0.403604,0.343472,-0.262747,-1.258842,-0.379469,-1.232744,0.063334,-0.337412,Yellow
0.159229,0.131568,-0.687289,-0.709704,-0.793169,0.832037,1.190152,0.520335,0.901182,0.303049,0.339929,0.993872,-0.558173,-0.652584,0.128467,-0.527826,Yellow
0.906262,0.246889,0.36646,-0.309296,-0.576143,-0.86734,-0.82453,0.970957,-0.04282,-0.161898,0.074981,0.515648,0.243708,0.337953,0.012786,-0.64555,Yellow
-0.214287,0.016247,-0.687289,-1.110112,-1.010195,-1.398395,-0.777677,0.756403,-0.255944,-2.807087,0.423447,-0.212165,0.312969,0.556804,-0.14682,-0.627606,Red
-0.214287,-0.521917,0.787959,0.953529,0.378773,-0.973551,-0.637118,1.782762,-0.23629,0.905294,-1.7174,-0.652428,0.706693,0.036454,-0.064918,-0.034859,Green
-0.214287,-0.022193,-0.26579,0.306716,-0.272306,-0.86734,-0.82453,0.400624,0.309027,0.362337,-1.619861,1.373046,-0.178505,-0.37792,0.62018,0.037964,Yellow
0.159229,-0.675679,0.36646,-0.124492,-0.445927,-1.327587,-0.637118,1.18068,0.128869,0.706384,-0.800703,0.227493,1.019184,0.123658,-0.045703,-0.514568,Green
-0.587804,4.667524,0.15571,0.245115,0.812825,2.389799,0.346797,1.410478,0.104179,-0.385063,1.413877,0.370864,-0.1873,-0.389322,0.055355,-0.337925,Green
0.034724,1.015695,1.420208,1.815946,2.939681,1.221478,-0.82453,-0.367367,0.637537,0.637845,1.292694,0.001742,0.589122,0.582656,-0.33188,2.632473,Green
-0.712309,-0.291276,-0.476539,-0.186093,0.074936,0.053156,-0.449706,-0.905447,1.373936,1.229487,-0.123504,-0.632307,-1.391979,-0.804712,-0.117503,-0.10601,Green
1.52879,1.70762,4.159955,3.325177,2.201792,1.717129,-0.683971,1.213137,2.554287,1.339019,0.500357,2.904662,0.389467,0.449846,-0.121344,0.055285,Green
0.657251,0.631292,-0.687289,-0.278495,-0.402522,2.708432,1.330711,1.131866,0.300961,0.018371,0.975356,-0.04886,-0.80034,-1.205017,0.000099,-0.265723,Yellow
1.902306,0.977255,0.15571,-0.432498,-0.402522,-0.902743,2.267773,-0.176604,-0.839532,0.518896,-0.571141,-0.707426,-0.718977,-0.962134,-0.112879,1.083753,Red
0.657251,-0.483477,-0.05504,0.429919,0.422178,2.814643,-0.777677,-0.260364,0.582979,-0.684947,1.607102,0.235018,1.124053,0.886175,0.102088,-0.569455,Green
0.159229,0.554411,-0.476539,0.121913,0.031531,-0.902743,2.314626,1.07848,0.615908,0.61778,-0.571141,-1.241363,0.059495,-0.039548,-0.051859,0.337757,Green
0.657251,1.169456,0.36646,0.737925,0.76942,-0.19467,0.534209,0.788128,0.956234,1.330839,-0.096748,0.296932,0.279573,0.707346,-0.06304,3.761838,Green
-0.338793,1.169456,-0.26579,-0.062891,1.333688,0.371789,0.159384,1.250934,0.242932,0.484294,1.746567,-1.169534,0.696696,0.686565,0.157852,-0.133425,Green
1.155273,0.554411,-0.26579,-0.4941,-0.228901,-1.185973,-0.590265,1.092732,1.322821,0.395425,0.24978,1.001856,-0.438572,-0.243726,-0.015591,-0.426736,Green
0.034724,0.708172,-0.26579,-0.617302,-0.576143,0.796634,0.627915,0.190849,0.058885,0.199998,0.692464,-0.08349,-0.331556,-0.869615,-0.051532,0.689748,Green
-0.836815,0.016247,-0.476539,-0.340097,-0.532737,-0.336284,0.346797,0.304983,-0.27602,-0.307431,1.236136,0.822421,-0.922551,-0.931436,-0.246313,-0.614687,Red
0.781757,0.016247,-0.687289,-0.894508,-0.402522,0.300982,-0.777677,1.416144,0.399535,-0.493768,1.281409,-0.567595,1.21232,-0.058421,-0.249915,0.340092,Green
-0.338793,-1.175403,0.577209,1.01513,1.290282,-1.362991,-0.449706,0.594787,-0.344344,-0.335043,0.066579,-0.000624,0.614227,0.887549,-0.008916,0.020414,Green
0.906262,2.822389,2.052457,0.922729,1.76774,1.115267,-0.262293,0.588879,0.471697,-0.267304,0.393228,1.081874,-2.667026,-0.644153,0.210663,-0.407736,Green
0.532746,2.130464,0.36646,1.384738,2.76606,0.478,-0.449706,-0.894562,0.962077,0.482626,0.336197,1.39612,-1.477068,-0.567346,-0.349884,-0.548886,Yellow
0.159229,-0.714119,-0.476539,-0.278495,0.161746,2.177377,0.721621,0.413525,-0.153717,-0.201188,1.266488,-0.577656,1.102609,-0.516749,0.018066,1.208056,Green
1.777801,0.246889,-0.687289,0.399118,1.941361,0.973652,-0.449706,0.877928,2.051506,-0.014612,1.257172,1.906712,-1.10759,-0.417831,0.002883,0.467664,Green
-0.463298,-0.060634,0.36646,0.645523,0.85623,-0.230073,-0.871383,-0.010931,0.681375,0.504728,-0.665717,-0.371624,0.336754,3.876848,0.153616,3.603218,Green
-3.451431,-2.636134,-0.687289,-0.986909,-0.879979,-1.717028,-0.449706,-1.878523,-2.220423,-0.932568,-2.643331,-2.536102,0.383755,-1.378787,0.570602,-0.480676,Red
0.034724,0.900374,-0.05504,-0.278495,0.161746,3.416506,-0.262293,-0.14751,0.779243,-0.201188,1.545734,-0.369752,0.495796,0.677687,0.267056,2.610666,Green
0.283735,0.785053,0.36646,-0.03209,-0.315711,0.300982,-0.82453,0.307604,0.050403,0.81264,1.281409,0.634149,-0.454647,-0.572796,0.446345,-0.548282,Yellow
0.159229,-0.483477,-0.476539,-0.340097,0.118341,0.796634,-0.262293,1.473157,-0.139578,0.266164,-0.251877,0.519855,-0.287358,-0.10521,-0.107954,-0.635931,Yellow
0.034724,-0.790999,-0.476539,-0.586501,-0.96679,-0.619514,-0.21544,0.221232,-0.14816,-0.779988,-0.658796,0.328831,0.639623,0.321247,-0.087435,-0.626977,Yellow
-0.463298,-0.983201,-0.476539,-0.432498,0.248557,-1.398395,-0.683971,-1.184304,-1.103495,-0.417107,-1.63912,0.285438,-0.201861,0.056399,0.06398,-0.599659,Red
-0.463298,-0.560358,1.420208,3.663983,0.682609,0.973652,0.112531,0.612703,1.074639,1.29799,0.654436,0.610235,1.046706,0.881038,0.669043,-0.160946,Green
-0.338793,-1.021641,-0.26579,-0.5249,-0.489332,-0.86734,-0.777677,-1.27027,0.002962,0.195548,-0.639247,-1.768189,2.900925,0.34424,-0.104433,0.322074,Green
-0.712309,0.785053,0.787959,0.737925,0.552393,3.274891,-0.168587,0.672738,1.383692,0.169756,1.274941,-0.448835,0.141663,-0.10808,-0.089232,-0.278462,Green
-0.089782,0.016247,-0.476539,-0.5249,0.118341,-0.86734,1.986654,0.354973,-0.032986,-0.185168,-0.756434,0.234491,0.036129,-1.675606,-0.003702,-0.383217,Green
-0.836815,-1.559806,-0.687289,-0.586501,-0.793169,-0.725725,1.190152,0.557783,0.165699,-0.461157,1.091147,-0.6842,0.223327,-0.742769,0.016277,-0.642773,Red
1.279779,-0.445037,-0.05504,-0.463299,-0.359116,-0.442495,-0.683971,0.317393,0.893419,-0.036786,0.354385,-1.390113,0.637314,-0.109532,-0.068505,-0.607057,Yellow
-0.463298,1.476978,0.36646,1.50794,0.986446,0.442597,-0.683971,0.261802,1.520511,3.110253,0.954039,1.457079,0.533273,1.050911,-0.163168,-0.018084,Green
1.030768,-0.214395,1.420208,0.614723,0.031531,0.194771,1.564977,0.064895,-0.326313,0.278264,2.363226,-0.737876,0.017702,-0.721351,0.093823,-0.446435,Green
0.034724,0.592851,0.36646,0.029511,0.335367,0.336386,-0.82453,-0.247004,-0.203352,-0.281684,0.459357,-0.225714,0.231735,1.62829,0.088441,-0.111549,Green
-0.587804,0.170008,-0.26579,0.183514,1.029851,0.973652,-0.683971,2.12207,2.579687,1.221535,1.96631,-0.982638,1.917419,1.55719,-0.11436,0.632955,Green
0.657251,-0.175955,-0.05504,-0.617302,-0.662953,-1.115165,-0.590265,-0.108315,0.323794,0.299341,-0.57021,1.031375,1.471829,0.519473,-0.079492,-0.084849,Green
-0.089782,1.131016,0.36646,0.676324,0.161746,0.265578,0.346797,2.637119,0.457725,-0.685769,1.288258,1.051293,-0.45251,-0.452583,-0.102407,1.569727,Green
0.781757,2.476426,-0.26579,0.183514,0.161746,1.681726,1.096446,2.620237,0.627548,0.87556,1.466498,-1.294519,0.396404,0.657486,1.153366,0.028154,Green
-0.214287,0.131568,0.36646,1.569542,1.116661,-0.265477,-0.449706,0.038701,0.260051,0.513542,1.51347,0.63414,1.344936,0.088504,0.267345,-0.419311,Red
-0.712309,-0.483477,-0.26579,1.107532,1.029851,1.964955,-0.028028,0.211273,0.454916,0.53808,0.794879,1.533851,-0.003881,0.414302,0.131264,-0.538727,Green
-0.089782,-0.714119,0.36646,0.460719,0.552393,-1.362991,-0.543412,1.341603,-0.57458,0.783153,-0.711724,0.010734,0.108601,-0.151721,0.012861,-0.212466,Green
0.40824,0.323769,-0.05504,0.676324,0.508988,0.867441,1.049593,1.15688,0.989673,0.981222,1.101543,0.248357,0.698586,0.819419,-0.185195,1.191439,Green
2.151317,0.016247,1.209458,1.107532,0.378773,-0.725725,-0.871383,-0.064373,0.627278,-0.043695,-1.411329,-0.376464,1.17376,1.594421,-0.033923,3.316136,Green
-0.712309,-0.675679,-0.05504,-0.463299,-0.315711,0.619615,-0.309146,0.814899,0.433132,-0.263331,0.826361,0.76893,1.642415,0.2032,0.329456,2.547909,Green
0.159229,-0.82944,-0.05504,-0.247695,-0.315711,-0.230073,-0.730824,-0.008603,-0.034499,1.369666,-0.609715,-0.001756,1.256594,0.73953,0.119395,-0.342051,Yellow
-0.463298,-0.598798,0.577209,-0.124492,-0.315711,1.398496,-0.496559,1.041306,0.790688,-0.777776,0.746054,-0.863741,0.506073,-0.687369,0.116051,-0.407277,Green
0.159229,1.70762,0.36646,0.98433,0.595799,0.478,-0.82453,1.060025,0.609583,-0.013583,0.983707,0.182878,0.94115,0.654225,-0.130151,-0.421948,Yellow
0.532746,0.554411,1.420208,1.353937,1.984766,0.584211,-0.543412,0.814899,0.743128,0.211415,1.137222,-0.456777,0.488709,0.235562,1.113635,-0.054828,Green
0.159229,-0.137514,0.998709,1.96995,1.637524,1.115267,-0.683971,0.948814,0.102089,0.355226,0.327381,-0.069107,-1.295368,-0.158779,-0.096187,-0.233612,Yellow
0.40824,-0.714119,-0.26579,-0.740505,-0.576143,0.159367,-0.496559,-0.012952,1.058743,-0.211936,-0.79716,0.641461,0.032703,0.282374,-0.032202,-0.436683,Green
-0.96132,-0.598798,-0.476539,-0.155293,-0.576143,-1.681624,1.00274,0.794385,-0.355253,-0.776504,0.126752,-0.518344,0.237555,-0.316758,0.294808,-0.711906,Green
0.532746,-0.445037,-0.26579,-0.555701,-0.749764,0.300982,-0.449706,1.138047,0.968778,-0.345107,-0.459128,1.005534,1.534325,1.380662,-0.085959,0.516114,Green
-0.463298,0.785053,2.895456,4.772805,2.896276,1.964955,0.206237,0.177844,1.098504,1.358145,1.145087,0.581541,0.020977,1.303185,0.133686,1.766409,Green
-0.338793,2.015143,-0.476539,0.553121,0.465583,1.044459,-0.637118,1.041405,0.565485,0.332783,0.102263,0.59667,-0.306665,0.980603,-0.050053,-0.44675,Green
0.532746,0.054687,-0.476539,0.429919,0.552393,1.292285,-0.028028,0.42663,0.003004,-0.114688,-0.173166,0.084453,1.015501,0.316724,-0.033203,-0.041808,Green
-0.089782,1.092575,-0.26579,-0.340097,-0.359116,0.796634,-0.496559,0.127154,1.491161,-1.083967,0.927235,-0.043923,0.162023,-0.583483,0.224947,-0.188735,Green
-0.96132,-0.714119,-0.687289,-0.894508,-0.489332,0.08856,3.251687,1.027677,-0.617396,-1.360347,-0.325922,0.04628,-0.861397,-1.641178,-0.267241,-0.16654,Red
0.283735,0.054687,-0.476539,-0.370897,-0.14209,-0.300881,-0.683971,0.648583,2.538688,0.276412,0.071151,0.667126,-0.031264,-0.117561,-0.057953,-0.60971,Green
0.159229,-1.021641,0.577209,-0.370897,-0.576143,-0.19467,-0.637118,-0.880154,0.044746,-0.264369,0.004228,0.468535,-0.049078,0.025153,-0.115527,-0.48977,Green
-0.214287,-0.252835,-0.05504,-0.062891,-0.662953,-0.123862,0.440503,-0.213391,0.696706,1.082278,-0.248334,0.583474,0.967287,0.716481,-0.005481,0.321045,Green
1.030768,0.861934,1.420208,2.555161,3.156707,-1.115165,-0.355999,1.124768,0.099719,0.832009,-1.274464,0.017392,-0.055317,0.08751,1.079232,-0.19661,Green
-0.587804,-0.560358,-0.476539,-0.340097,-0.185495,0.76123,-0.871383,-0.303625,0.305723,-0.727878,-0.379354,-0.324249,0.85706,0.216389,-0.295481,0.767621,Green
-0.463298,0.131568,0.15571,1.107532,0.726014,1.752533,0.768474,0.087511,0.539202,0.570718,1.191346,0.656478,-0.319583,-0.44356,-0.053878,-0.285874,Yellow
0.906262,0.054687,0.787959,0.707124,1.203472,0.371789,0.768474,-0.789939,0.137599,0.700361,0.672158,-0.86165,0.411126,-0.048024,0.28127,4.158309,Green
-0.338793,-0.252835,-0.687289,-0.309296,-0.228901,0.407193,-0.449706,0.473673,0.997005,2.185281,0.232284,-0.206895,0.050733,-0.749961,1.154487,-0.574387,Green
-0.214287,1.70762,2.263207,2.093152,1.811145,-0.053055,1.049593,1.429022,0.609735,0.692845,0.275435,0.18911,-0.008971,0.564464,0.026272,-0.607716,Green
-0.214287,0.246889,1.841708,1.076732,0.812825,3.239488,-0.637118,1.440115,1.33086,0.894601,0.973797,0.729415,1.518325,0.683527,8.858066,3.150933,Green
0.034724,-0.483477,-0.26579,-0.247695,-0.185495,0.08856,0.440503,-0.212314,0.561356,-0.493768,0.099108,-0.023186,0.312786,-0.736839,-0.106693,-0.074405,Yellow
1.777801,0.938814,-0.476539,0.368318,3.113302,1.15067,-0.871383,0.205068,0.122346,0.590765,1.294564,-0.56761,0.421832,0.129464,-0.116467,-0.635783,Yellow
-0.587804,0.36221,-0.687289,-0.740505,-0.576143,-0.761128,-0.121734,0.722351,0.326124,-0.313746,-0.433153,0.695248,-0.459275,0.083691,-0.126515,-0.397243,Green
-0.836815,1.400098,-0.476539,1.076732,0.899635,-0.159266,-0.355999,0.465452,0.619843,-0.506345,-0.228852,0.753074,-0.502679,-0.730508,-0.283472,-0.390868,Green
0.781757,-0.637238,0.577209,-0.216894,-0.359116,-1.469202,-0.637118,0.638766,0.90319,-1.106136,-0.634119,0.75525,0.882971,1.108443,-0.116975,-0.367673,Green
-0.089782,0.131568,-0.476539,-0.309296,0.074936,-1.115165,-0.683971,2.19179,-0.248163,-0.058573,-0.125972,0.424809,-1.101276,0.271576,-0.37942,-0.267616,Green
1.030768,0.669732,-0.476539,0.399118,-0.098685,0.123964,-0.543412,-0.669241,0.239168,0.390345,1.172044,1.262959,-0.686795,-0.62671,-0.106307,-0.474291,Yellow
1.653295,3.014591,-0.476539,-0.00129,0.552393,3.16868,0.487356,2.011355,1.91851,0.286539,1.190804,1.491979,-0.826498,-0.476,-0.314682,-0.204511,Green
0.532746,0.708172,5.635203,4.772805,3.156707,-0.088458,-0.543412,-0.488461,0.138524,1.986196,0.739022,-0.426866,1.510196,1.511383,0.151944,-0.495638,Green
-0.089782,0.093128,-0.687289,0.060311,0.552393,1.504707,-0.355999,0.347932,0.430914,0.100094,-0.48223,0.606798,1.056607,1.235323,-0.15601,-0.342506,Red
1.030768,-0.137514,-0.05504,-0.586501,-0.619548,0.371789,-0.683971,0.266274,-0.314479,0.330855,-0.737815,0.589937,1.406992,0.958984,0.01634,-0.550743,Green
-2.953409,-2.751455,-0.687289,-1.110112,-0.96679,-2.106468,-0.871383,-2.530633,-3.704497,-2.807087,-3.015027,-2.735929,-0.54663,0.910921,-1.413183,-0.623898,Red
-0.338793,0.054687,-0.687289,-0.802106,-0.662953,-1.292184,-0.777677,0.100181,-0.492493,0.196218,0.25653,-0.569263,0.616064,0.182999,0.722535,-0.231082,Green
0.781757,0.746613,0.15571,-0.370897,-0.619548,-0.017651,-0.590265,0.671973,-0.018519,-0.211936,0.240699,0.379908,0.430412,1.075478,0.02999,-0.153865,Yellow
0.159229,1.861382,5.002953,6.220434,5.891237,0.265578,0.018825,0.153817,-0.242014,1.46908,-0.400364,-0.121365,-0.517916,-1.008499,1.540657,1.643346,Green
0.781757,1.131016,-0.05504,0.091112,-0.662953,-1.044358,0.39365,0.076593,0.662088,1.159685,-0.090557,0.488659,-0.464709,0.326171,-0.029043,-0.294341,Green
0.159229,-0.445037,-0.05504,-0.617302,-0.185495,-1.044358,-0.683971,-1.33183,-0.1606,-0.833554,0.39687,-0.654364,2.084687,0.740546,0.053494,0.677533,Green
0.781757,2.245785,2.263207,2.216354,1.941361,0.442597,0.206237,1.259198,0.901148,0.261961,1.076708,-0.358428,-0.644862,-1.675003,1.317418,-0.200035,Green
-0.712309,0.093128,0.36646,-0.124492,-0.576143,1.256881,-0.777677,-0.141971,0.163994,0.273585,1.689801,-0.496615,-0.370396,-0.338445,-0.127113,0.973007,Green
2.026812,2.207344,7.53195,6.590042,2.114982,1.221478,0.018825,-0.501183,1.677684,0.858286,0.594421,-0.117335,0.438283,-0.313084,-0.052454,1.298843,Green
4.143405,0.785053,1.420208,2.98637,1.073256,-0.725725,-0.777677,-1.147683,1.199648,-0.098439,-0.822012,1.103682,-0.341607,-0.164943,-0.130928,0.194028,Green
-0.587804,-0.82944,0.15571,0.737925,0.031531,-0.442495,-0.449706,0.420401,0.024454,0.581097,0.466355,0.668679,-0.140825,0.388148,0.074991,1.09217,Green
0.283735,-0.214395,1.420208,0.368318,0.85623,-0.477899,-0.590265,1.420295,-0.051687,-0.073137,-0.234373,0.379248,0.809619,1.845992,0.123524,1.106512,Green
0.906262,0.246889,-0.687289,-0.802106,-0.706358,-1.044358,-0.590265,-0.270937,-0.14036,-1.001876,-0.199709,-0.647043,-0.703106,-0.635811,-0.179807,-0.463482,Red
1.902306,1.746061,-0.05504,-0.4941,-0.011875,-0.548706,-0.402853,1.253267,1.311946,0.552585,0.268681,0.613291,1.188782,0.069431,0.036579,-0.471369,Green
1.279779,0.131568,0.15571,0.245115,0.508988,0.548808,-0.730824,-0.098634,0.391588,-0.169823,0.299049,-0.033975,1.025606,0.024807,0.141979,2.245264,Green
0.159229,0.938814,0.15571,0.399118,1.246877,2.035762,1.283858,2.142423,0.746593,1.586542,1.167382,-0.397862,0.18089,0.073797,1.217637,-0.488065,Green
-0.214287,-0.90632,-0.687289,-0.925308,-0.879979,1.327689,0.159384,0.370552,-0.594147,-0.211936,0.532941,0.433673,0.141191,0.283324,-0.033736,-0.000669,Green
0.159229,-0.175955,-0.687289,-0.463299,-0.011875,-0.159266,0.253091,0.732839,1.101789,-0.263331,0.411015,0.587797,1.349403,0.804544,0.137646,-0.05763,Yellow
-0.338793,0.515971,1.420208,1.384738,2.549034,2.141974,0.112531,0.703613,1.101989,1.236108,0.836676,0.303437,0.110372,0.304865,-0.072676,0.359299,Green
-0.463298,-0.368156,-0.687289,0.707124,0.291962,0.230175,-0.683971,1.264275,0.211629,0.72266,-0.059134,0.398806,-0.305258,-0.097773,-0.283021,-0.677656,Green
0.159229,-1.290723,-0.05504,-0.432498,0.031531,-1.115165,-0.028028,-0.150617,0.658086,-0.723257,0.045001,-0.176588,0.50589,-0.006393,-0.115187,0.183172,Green
0.40824,1.054135,0.15571,0.091112,0.639204,2.460607,-0.402853,0.410357,-0.255532,-0.247041,1.364006,0.214464,0.127113,0.210146,0.381007,0.308219,Green
1.030768,0.554411,0.15571,-0.062891,0.074936,1.469304,-0.309146,-1.371261,-0.518002,0.540669,-0.672804,-0.222977,-0.478947,0.627123,0.123043,-0.568272,Red
-0.96132,0.016247,-0.687289,-0.740505,-0.619548,1.575515,0.955887,0.87381,1.165648,0.189538,1.176365,0.197554,0.635263,1.318763,0.15172,-0.397644,Yellow
-0.214287,-1.060082,-0.687289,-0.463299,-0.445927,-0.725725,-0.21544,-0.892578,0.55565,-0.981329,0.934382,0.872254,0.479507,-0.54719,-0.1003,-0.430946,Green
0.283735,2.591747,0.998709,2.308756,1.941361,-1.398395,1.846095,0.13335,0.431257,1.741321,0.259296,0.360262,0.251074,-0.058867,-0.254386,-0.288945,Yellow
-0.338793,-1.444485,-0.26579,-0.863707,-0.836574,-0.58411,-0.82453,1.019366,0.376699,-0.576974,0.436414,-0.06907,0.074496,1.167204,-0.091194,-0.16433,Green
-0.463298,-1.329164,-0.05504,-0.555701,-0.315711,-0.336284,-0.82453,-0.926995,-0.363271,-0.459683,0.833073,-1.033843,1.195515,0.314435,0.09839,1.093988,Green
-0.463298,-1.060082,-0.476539,-0.309296,-0.315711,-1.469202,-0.683971,0.2086,1.20765,0.155642,0.163597,0.535904,1.323664,1.462315,0.044395,1.372065,Green
-0.338793,0.323769,-0.687289,-0.401698,-0.05528,2.071166,-0.683971,0.070184,1.06984,0.584819,0.09623,1.279488,0.883948,1.504761,-0.257456,-0.074312,Green
-0.96132,-1.252283,-0.26579,-0.186093,0.161746,2.49601,-0.590265,1.387098,-0.361535,-0.139832,-0.709393,-0.773602,0.653658,1.60781,-0.113776,-0.099722,Green
0.034724,3.591195,-0.05504,1.353937,0.465583,1.079863,-0.028028,0.652262,1.282218,1.051726,0.864726,0.992882,1.196342,0.038788,-0.16303,0.406833,Green
2.400328,0.246889,0.15571,-0.309296,-0.489332,-0.230073,-0.871383,0.452536,0.249376,-0.767721,0.750626,-0.070918,0.458267,-0.036098,0.067014,4.131067,Green
-0.463298,-1.175403,-0.26579,-0.062891,0.161746,0.76123,-0.871383,1.075335,0.881218,-0.886509,1.392248,0.187171,1.959867,1.664673,-0.043697,-0.069798,Green
0.657251,-0.137514,0.15571,0.614723,0.161746,-1.008954,-0.168587,-1.005163,-1.735389,0.411593,-0.952247,-0.78545,-1.329344,-0.973703,0.020021,-0.644256,Red
-1.708353,0.208448,-0.687289,-0.370897,-0.228901,-0.017651,-0.637118,-0.298648,-0.710692,0.719033,0.332047,-0.266088,-0.761962,-0.688922,-0.355511,0.904644,Red
-1.459342,-1.098522,-0.476539,-0.062891,-0.14209,0.690423,3.345393,0.304822,-0.256675,1.33096,0.071019,0.527645,-0.819196,-2.011588,0.69132,-0.277049,Red
-0.338793,-0.445037,-0.26579,-0.370897,-0.532737,-1.115165,-0.871383,-0.243647,-0.717481,-0.289419,0.138523,-1.388056,0.93635,0.648206,-0.0613,-0.330423,Green
0.40824,-0.483477,-0.26579,-0.155293,-0.228901,-0.300881,-0.637118,0.751393,1.548207,-0.007317,0.613227,1.026045,1.664482,0.906566,-0.032153,-0.205072,Green
1.155273,0.785053,0.15571,0.306716,-0.315711,2.920855,-0.262293,0.106372,-0.225624,0.505537,1.158279,-0.308797,-0.637485,0.981865,-0.17561,0.493533,Green
0.283735,-0.983201,-0.687289,-1.01771,-0.96679,-0.761128,-0.637118,-0.5071,-0.429092,-0.796889,-1.098222,0.183092,1.365962,0.888241,-0.088753,-0.60544,Yellow
-0.214287,-0.406596,-0.687289,-0.832906,-0.749764,0.159367,-0.82453,0.136349,0.527402,-0.701115,1.385613,0.987029,0.805291,1.399936,0.042797,0.681089,Green
-0.338793,0.131568,-0.05504,-0.247695,-0.228901,0.371789,-0.637118,-0.679385,-0.574862,0.678232,0.038909,-0.342693,-0.60278,-0.431098,-0.053812,-0.509425,Red
-0.089782,-0.82944,-0.476539,-0.555701,0.031531,-0.371688,0.253091,-0.698066,1.191433,1.258735,0.624729,2.756338,-0.952134,-0.184072,-0.143678,-0.642195,Green
0.40824,-0.406596,-0.05504,-0.771305,-0.359116,-1.044358,-0.777677,0.825855,0.010254,-1.306016,-0.892564,0.288871,0.611822,-0.024238,0.022729,-0.682523,Yellow
-0.089782,-1.406044,-0.476539,-0.986909,-0.923384,-2.248083,-0.871383,1.208178,-0.90711,-0.932568,-1.843062,-1.104348,1.781678,1.106277,-0.115257,-0.374673,Green
0.532746,0.131568,0.577209,-0.155293,-0.14209,1.681726,-0.168587,0.117582,0.165896,0.221394,1.217321,-1.89609,-0.741592,-1.054217,0.025469,1.506084,Yellow
0.532746,-0.137514,-0.687289,-0.925308,-0.96679,-0.407092,0.018825,-1.097622,1.287253,-1.217889,0.154243,1.271409,0.639934,1.188634,-0.062648,1.056599,Red
-0.214287,-0.521917,-0.05504,-0.432498,-0.315711,-0.619514,-0.590265,-0.537394,-0.082854,1.019029,0.427567,0.551806,1.715993,0.779943,0.196911,0.700856,Green
-0.338793,-0.175955,0.36646,-0.155293,0.031531,-0.442495,-0.21544,1.43552,0.150513,-0.369964,1.456063,0.00011,0.24737,-0.99291,-0.077274,-0.595231,Green
-0.463298,-1.136962,-0.05504,-0.678903,-0.315711,0.584211,-0.730824,1.874965,0.41325,-0.435356,0.007183,-0.156153,1.212245,0.506709,0.405247,2.722708,Green
0.40824,-0.329716,0.787959,0.768726,0.248557,-0.831936,-0.82453,0.65561,0.587985,0.861864,-0.470737,-0.691874,0.813581,0.557429,0.012707,0.385962,Green
-0.089782,-0.560358,-0.687289,-0.678903,-0.619548,-0.58411,-0.777677,0.985167,1.372817,0.152851,2.321808,-0.337737,1.117588,2.169522,-0.121093,3.704896,Green
0.532746,-0.983201,-0.476539,-0.5249,0.205152,-0.902743,-0.637118,0.057802,0.050188,0.195548,-1.338997,0.612734,-0.688846,-0.823763,-0.041575,-0.506529,Yellow
0.034724,-0.329716,-0.05504,-0.648103,-0.923384,-1.787835,-0.543412,0.248376,1.291461,0.702869,-0.869612,1.766768,1.608246,0.286227,0.938361,5.37647,Yellow
1.155273,0.170008,1.420208,0.98433,0.812825,-0.371688,-0.121734,0.246577,0.02241,0.623133,1.185548,-0.231084,0.627725,0.480734,-0.016201,-0.180618,Green
0.40824,-0.214395,-0.05504,-0.062891,0.118341,-1.008954,-0.82453,1.475457,0.071137,1.176262,-0.81419,1.591083,-0.520891,-0.285893,-0.108153,-0.359141,Green
0.034724,1.246337,-0.05504,0.121913,0.85623,0.08856,-0.355999,-0.794005,0.514112,0.511133,-0.109791,-0.176156,0.105776,-0.167042,-0.346089,0.3137,Green
0.40824,-0.137514,-0.05504,0.275916,-0.228901,-0.159266,-0.496559,0.463837,2.29057,1.90201,0.807964,1.111883,0.264937,-0.01095,-0.222884,-0.65183,Green
-0.089782,0.669732,0.36646,1.538741,2.158387,0.159367,-0.168587,1.012112,2.458451,0.814056,0.181204,1.52049,-0.221425,0.926265,1.586349,1.678658,Green
-0.214287,-1.367604,0.577209,-0.432498,-0.749764,-1.185973,-0.777677,0.542308,-0.545009,-0.391576,-1.156795,0.231965,1.876893,1.074284,-0.116825,-0.219551,Green
0.159229,-0.445037,-0.476539,0.306716,0.422178,-0.300881,-0.168587,-0.506505,0.286363,0.861855,1.20856,0.18644,-0.61573,-0.790486,-0.083058,-0.315344,Green
1.777801,-0.291276,0.36646,-0.093692,-0.445927,-1.787835,-0.683971,-0.325206,-0.542759,0.163733,-1.229708,0.099263,1.145024,0.421694,-0.004529,-0.553626,Green
-1.210331,0.093128,-0.687289,-0.4941,-0.576143,-0.654917,-0.730824,-0.005552,0.936543,0.137644,0.68229,-0.238877,-0.01492,-0.27123,-0.06588,-0.564337,Yellow
0.159229,1.553859,-0.476539,-0.093692,0.205152,-1.150569,-0.21544,1.643897,-0.145636,0.789455,0.89755,-0.134902,0.804593,0.812473,-0.319051,-0.341151,Green
0.159229,-0.137514,-0.687289,-1.01771,-0.836574,-1.752432,-0.871383,0.188705,0.286227,-1.308776,-0.804717,-2.052871,0.838558,-1.198908,0.179387,-0.541028,Green
-0.089782,-0.445037,-0.05504,-0.155293,0.378773,0.478,0.487356,-0.386785,-0.615254,0.123369,-1.11396,0.12557,-1.018421,0.283547,0.806112,1.259681,Yellow
0.781757,-0.329716,-0.476539,-0.678903,0.031531,-0.548706,-0.871383,-0.893693,0.02237,-0.372288,0.54548,0.228528,0.052386,1.093602,0.051006,0.792032,Green
0.283735,-0.675679,-0.476539,-0.463299,-0.576143,-1.717028,0.534209,0.278037,-0.284226,-0.036786,0.502171,0.320043,1.204342,-0.1631,-0.241272,2.015922,Green
0.532746,1.784501,-0.26579,0.460719,0.552393,2.77924,-0.543412,-0.571791,1.572815,1.719282,-0.282374,-0.30733,-0.847448,-0.62259,0.297608,-0.42922,Green
-0.587804,-0.560358,-0.26579,-0.648103,-0.402522,-2.177276,-0.871383,0.403604,-1.237392,-1.057438,-3.10451,-0.727438,-2.155869,-1.08716,-0.133522,-0.593051,Red
-3.575936,-3.135858,-0.687289,-1.110112,-1.097005,-2.672927,-0.871383,-4.374387,-4.309402,-2.807087,-4.417623,-3.988388,-6.407421,-5.61811,-0.425813,-0.823785,Red
0.781757,-0.637238,-0.476539,-0.648103,-0.662953,-0.230073,-0.777677,0.254648,1.033031,-0.654404,0.116681,0.664152,0.160219,-0.23515,-0.01989,0.480864,Green
0.034724,0.938814,-0.687289,-0.863707,-0.923384,-0.796532,-0.82453,-0.110817,-0.305946,-0.716982,-0.160307,1.649503,0.182694,0.695978,-0.256118,-0.490493,Yellow
0.159229,-0.675679,-0.05504,-0.370897,0.118341,0.548808,0.253091,1.552799,0.579664,0.475551,0.556427,1.77152,0.873349,1.799034,-0.127683,-0.586093,Green
1.653295,1.246337,-0.26579,-0.370897,-0.315711,-0.725725,-0.730824,-0.82496,-0.784959,0.035762,-0.280137,-1.760959,0.141792,-0.786756,-0.403919,-0.530798,Green
-0.089782,-0.483477,-0.687289,-0.802106,-0.793169,-0.19467,-0.543412,-0.248506,-0.637523,-1.444357,-0.65115,0.107771,1.412007,0.117449,-0.068184,-0.672963,Red
-1.334837,0.093128,-0.687289,-0.925308,-0.836574,-0.58411,-0.543412,0.486296,0.398213,-0.211936,1.531201,0.927982,0.913725,1.12803,0.251889,0.100814,Green
-0.463298,-0.060634,-0.687289,-1.01771,-0.923384,-0.938147,-0.543412,0.4802,0.225071,-0.796889,0.053766,0.052597,1.206608,1.283911,-0.16364,0.71504,Green
0.906262,-0.483477,0.15571,-0.216894,-0.011875,-1.185973,-0.590265,1.37404,-0.545686,0.042203,-0.681877,-1.306406,1.535474,-0.86612,-0.039774,1.571854,Green
-0.463298,0.515971,-0.687289,-0.309296,0.508988,-0.371688,-0.402853,-0.238363,-0.158468,0.155642,-0.952234,-2.116508,0.4333,-1.192979,-0.280799,-0.654761,Green
0.40824,-0.598798,2.263207,1.230735,1.203472,-0.123862,-0.683971,0.271761,-0.425919,-0.187942,-1.103632,-0.502899,0.434643,0.109688,-0.099291,-0.564227,Yellow
-0.587804,0.669732,-0.687289,-0.370897,-0.532737,0.159367,-0.543412,1.24522,0.612383,1.430779,0.258127,0.536047,-0.686623,-0.351488,0.020538,-0.50142,Green
0.40824,3.898718,0.36646,-0.155293,-0.706358,0.76123,0.159384,-1.491609,-0.906537,0.451117,0.401477,0.193018,-0.977326,-0.922781,0.714989,-0.633099,Yellow
-0.089782,0.592851,4.370704,2.801566,3.243518,0.371789,-0.449706,2.006737,0.765043,1.551616,1.45579,-1.367392,0.162689,-1.163911,0.534443,-0.393844,Green
