@relation 'data-student-learning-analytics-plus-class-weka.filters.unsupervised.attribute.Remove-R1,2,3,4,5,6,7,8,9,10,11-weka.filters.supervised.instance.Resample-B0.0-S161803398-Z60.0-no-replacement-weka.filters.supervised.instance.SMOTE-C0-K8-P100.0-S161803398-weka.filters.supervised.instance.SMOTE-C1-K8-P300.0-S161803398-weka.filters.unsupervised.instance.Randomize-S161803398-weka.filters.unsupervised.attribute.Standardize-weka.filters.unsupervised.attribute.Remove-R3-4,8-9,11,18,23-24'

@attribute sum_count_assignment_upload numeric
@attribute sum_count_assignment_view numeric
@attribute sum_count_forum_add_post numeric
@attribute sum_count_forum_view_discussion numeric
@attribute sum_count_forum_view_forum numeric
@attribute sum_count_quiz_view numeric
@attribute sum_count_content_access_view numeric
@attribute snr_count_assignment_view numeric
@attribute snr_count_course_view numeric
@attribute snr_count_forum_view_discussion numeric
@attribute snr_count_quiz_view numeric
@attribute snr_count_scele_resource_view numeric
@attribute snr_diff_course_view numeric
@attribute snr_diff_scele_resource_view numeric
@attribute asgn_rcpmean_diff_first_view_time_available_created numeric
@attribute asgn_mean_diff_time_due_first_submit numeric
@attribute signal {Yellow,Green,Red}

@data
0.159229,1.70762,0.36646,0.98433,0.595799,0.478,-0.82453,1.060025,0.609583,-0.013583,0.983707,0.182878,0.94115,0.654225,-0.130151,-0.421948,Yellow
0.40824,-0.406596,-0.05504,-0.771305,-0.359116,-1.044358,-0.777677,0.825855,0.010254,-1.306016,-0.892564,0.288871,0.611822,-0.024238,0.022729,-0.682523,Yellow
0.034724,-0.483477,-0.26579,-0.247695,-0.185495,0.08856,0.440503,-0.212314,0.561356,-0.493768,0.099108,-0.023186,0.312786,-0.736839,-0.106693,-0.074405,Yellow
0.159229,-0.137514,0.998709,1.96995,1.637524,1.115267,-0.683971,0.948814,0.102089,0.355226,0.327381,-0.069107,-1.295368,-0.158779,-0.096187,-0.233612,Yellow
0.159229,0.131568,-0.687289,-0.709704,-0.793169,0.832037,1.190152,0.520335,0.901182,0.303049,0.339929,0.993872,-0.558173,-0.652584,0.128467,-0.527826,Yellow
-0.96132,0.016247,-0.687289,-0.740505,-0.619548,1.575515,0.955887,0.87381,1.165648,0.189538,1.176365,0.197554,0.635263,1.318763,0.15172,-0.397644,Yellow
0.781757,0.746613,0.15571,-0.370897,-0.619548,-0.017651,-0.590265,0.671973,-0.018519,-0.211936,0.240699,0.379908,0.430412,1.075478,0.02999,-0.153865,Yellow
0.40824,0.746613,-0.687289,-0.309296,0.118341,-0.513303,-0.590265,0.068409,-0.403604,0.343472,-0.262747,-1.258842,-0.379469,-1.232744,0.063334,-0.337412,Yellow
0.283735,0.054687,0.36646,0.368318,0.161746,3.027066,0.581062,-0.694529,0.562248,1.521927,1.42505,-0.453666,0.155236,-0.847091,-0.127973,1.338693,Yellow
0.781757,1.131016,-0.05504,0.091112,-0.662953,-1.044358,0.39365,0.076593,0.662088,1.159685,-0.090557,0.488659,-0.464709,0.326171,-0.029043,-0.294341,Green
-0.587804,4.667524,0.15571,0.245115,0.812825,2.389799,0.346797,1.410478,0.104179,-0.385063,1.413877,0.370864,-0.1873,-0.389322,0.055355,-0.337925,Green
0.906262,-0.483477,0.15571,-0.216894,-0.011875,-1.185973,-0.590265,1.37404,-0.545686,0.042203,-0.681877,-1.306406,1.535474,-0.86612,-0.039774,1.571854,Green
1.52879,0.515971,0.998709,1.723545,1.897956,0.796634,0.206237,-0.212815,1.226783,1.166265,0.835455,1.254231,-0.280968,0.912585,-0.316604,0.326915,Green
-0.463298,-0.944761,-0.687289,-0.340097,-0.359116,-1.433798,-0.637118,0.222314,0.173907,-0.23784,-0.047133,-0.342264,0.72817,-0.170281,0.010493,0.229304,Green
0.657251,-0.483477,-0.05504,0.429919,0.422178,2.814643,-0.777677,-0.260364,0.582979,-0.684947,1.607102,0.235018,1.124053,0.886175,0.102088,-0.569455,Green
1.279779,0.131568,0.15571,0.245115,0.508988,0.548808,-0.730824,-0.098634,0.391588,-0.169823,0.299049,-0.033975,1.025606,0.024807,0.141979,2.245264,Green
0.781757,0.669732,-0.26579,0.799526,0.76942,-0.725725,1.424417,-0.352048,-0.079332,0.287897,-0.659928,0.281005,0.086136,0.171854,-0.119789,-0.135637,Green
-0.214287,0.246889,1.841708,1.076732,0.812825,3.239488,-0.637118,1.440115,1.33086,0.894601,0.973797,0.729415,1.518325,0.683527,8.858066,3.150933,Green
-0.587804,-0.714119,-0.05504,0.121913,-0.011875,-0.300881,-0.82453,-0.274266,0.268948,0.137644,2.081867,0.767524,0.374155,0.312838,-0.043212,-0.471721,Green
0.159229,0.938814,0.15571,0.399118,1.246877,2.035762,1.283858,2.142423,0.746593,1.586542,1.167382,-0.397862,0.18089,0.073797,1.217637,-0.488065,Green
0.034724,1.015695,1.420208,1.815946,2.939681,1.221478,-0.82453,-0.367367,0.637537,0.637845,1.292694,0.001742,0.589122,0.582656,-0.33188,2.632473,Green
-0.338793,0.554411,0.15571,0.707124,0.161746,1.115267,0.206237,0.981715,-0.1401,0.462021,0.664213,-0.21242,-0.251127,-0.727068,0.569984,1.254501,Green
1.155273,0.785053,0.15571,0.306716,-0.315711,2.920855,-0.262293,0.106372,-0.225624,0.505537,1.158279,-0.308797,-0.637485,0.981865,-0.17561,0.493533,Green
0.283735,-0.291276,-0.05504,-0.5249,-0.532737,-1.008954,-0.449706,-0.437762,-0.131084,-1.510257,-0.305296,0.390018,2.077761,0.974261,0.425133,0.781349,Green
0.906262,2.822389,2.052457,0.922729,1.76774,1.115267,-0.262293,0.588879,0.471697,-0.267304,0.393228,1.081874,-2.667026,-0.644153,0.210663,-0.407736,Green
-0.214287,-0.521917,0.787959,0.953529,0.378773,-0.973551,-0.637118,1.782762,-0.23629,0.905294,-1.7174,-0.652428,0.706693,0.036454,-0.064918,-0.034859,Green
0.40824,0.40065,-0.05504,-0.555701,-0.359116,0.513404,-0.449706,0.721685,0.664894,0.135541,1.033941,-0.183252,0.541541,0.336211,0.058162,0.0493,Green
0.40824,-0.406596,0.36646,0.368318,-0.011875,-0.973551,0.065678,0.121728,1.248412,0.702199,0.564454,0.244202,0.272701,-0.585102,-0.318248,1.641679,Green
0.657251,1.169456,0.36646,0.737925,0.76942,-0.19467,0.534209,0.788128,0.956234,1.330839,-0.096748,0.296932,0.279573,0.707346,-0.06304,3.761838,Green
0.781757,0.016247,-0.687289,-0.894508,-0.402522,0.300982,-0.777677,1.416144,0.399535,-0.493768,1.281409,-0.567595,1.21232,-0.058421,-0.249915,0.340092,Green
-0.587804,0.669732,-0.687289,-0.370897,-0.532737,0.159367,-0.543412,1.24522,0.612383,1.430779,0.258127,0.536047,-0.686623,-0.351488,0.020538,-0.50142,Green
0.657251,-0.175955,-0.05504,-0.617302,-0.662953,-1.115165,-0.590265,-0.108315,0.323794,0.299341,-0.57021,1.031375,1.471829,0.519473,-0.079492,-0.084849,Green
-0.587804,0.36221,-0.687289,-0.740505,-0.576143,-0.761128,-0.121734,0.722351,0.326124,-0.313746,-0.433153,0.695248,-0.459275,0.083691,-0.126515,-0.397243,Green
-0.338793,-0.175955,0.36646,-0.155293,0.031531,-0.442495,-0.21544,1.43552,0.150513,-0.369964,1.456063,0.00011,0.24737,-0.99291,-0.077274,-0.595231,Green
0.159229,-1.290723,-0.05504,-0.432498,0.031531,-1.115165,-0.028028,-0.150617,0.658086,-0.723257,0.045001,-0.176588,0.50589,-0.006393,-0.115187,0.183172,Green
0.781757,-0.637238,0.577209,-0.216894,-0.359116,-1.469202,-0.637118,0.638766,0.90319,-1.106136,-0.634119,0.75525,0.882971,1.108443,-0.116975,-0.367673,Green
-0.463298,-0.445037,0.15571,0.245115,-0.359116,0.053156,-0.262293,-0.57155,1.412229,0.919916,0.428942,-1.156116,0.557122,1.532489,-0.014906,-0.475334,Green
0.034724,-1.021641,-0.687289,-0.740505,-0.445927,-0.336284,-0.543412,0.201998,-0.458918,0.189538,-0.964786,0.559687,0.357854,1.435358,-0.116037,-0.482517,Green
-0.463298,0.785053,2.895456,4.772805,2.896276,1.964955,0.206237,0.177844,1.098504,1.358145,1.145087,0.581541,0.020977,1.303185,0.133686,1.766409,Green
0.781757,2.476426,-0.26579,0.183514,0.161746,1.681726,1.096446,2.620237,0.627548,0.87556,1.466498,-1.294519,0.396404,0.657486,1.153366,0.028154,Green
-0.463298,-0.060634,-0.687289,-1.01771,-0.923384,-0.938147,-0.543412,0.4802,0.225071,-0.796889,0.053766,0.052597,1.206608,1.283911,-0.16364,0.71504,Green
0.781757,0.40065,-0.26579,-0.155293,-0.228901,0.300982,-0.496559,0.252697,1.134393,0.358984,0.307763,0.938874,1.147247,0.831423,0.059929,-0.544281,Green
0.532746,-0.445037,-0.26579,-0.555701,-0.749764,0.300982,-0.449706,1.138047,0.968778,-0.345107,-0.459128,1.005534,1.534325,1.380662,-0.085959,0.516114,Green
0.40824,0.323769,-0.05504,0.676324,0.508988,0.867441,1.049593,1.15688,0.989673,0.981222,1.101543,0.248357,0.698586,0.819419,-0.185195,1.191439,Green
0.40824,1.054135,0.15571,0.091112,0.639204,2.460607,-0.402853,0.410357,-0.255532,-0.247041,1.364006,0.214464,0.127113,0.210146,0.381007,0.308219,Green
0.283735,1.284777,0.36646,0.707124,1.984766,1.044459,-0.730824,0.518899,0.099798,0.089773,1.484502,0.158035,1.083516,3.781448,1.283038,-0.093984,Green
-0.214287,-0.406596,-0.687289,-0.832906,-0.749764,0.159367,-0.82453,0.136349,0.527402,-0.701115,1.385613,0.987029,0.805291,1.399936,0.042797,0.681089,Green
-3.451431,-2.636134,-0.687289,-0.986909,-0.879979,-1.717028,-0.449706,-1.878523,-2.220423,-0.932568,-2.643331,-2.536102,0.383755,-1.378787,0.570602,-0.480676,Red
0.657251,-0.137514,0.15571,0.614723,0.161746,-1.008954,-0.168587,-1.005163,-1.735389,0.411593,-0.952247,-0.78545,-1.329344,-0.973703,0.020021,-0.644256,Red
-0.338793,-0.175955,0.15571,-0.370897,-0.706358,-0.548706,-0.730824,0.132628,-0.221908,-0.211936,-1.552173,0.366122,-0.908559,0.038543,-0.395046,-0.729624,Red
-0.836815,-1.559806,-0.687289,-0.586501,-0.793169,-0.725725,1.190152,0.557783,0.165699,-0.461157,1.091147,-0.6842,0.223327,-0.742769,0.016277,-0.642773,Red
-0.587804,-0.560358,-0.26579,-0.648103,-0.402522,-2.177276,-0.871383,0.403604,-1.237392,-1.057438,-3.10451,-0.727438,-2.155869,-1.08716,-0.133522,-0.593051,Red
