userid,student_id,name,entrance_method,program,class_section,grade_category,grade,score,score_midtest,score_finaltest,sum_count_assignment_upload,sum_count_assignment_view,sum_count_course_view,sum_count_forum_add_discussion,sum_count_forum_add_post,sum_count_forum_view_discussion,sum_count_forum_view_forum,sum_count_quiz_attempt,sum_count_quiz_review,sum_count_quiz_view,sum_count_scele_resource_view,sum_count_content_access_view,snr_count_assignment_view,snr_count_course_view,snr_count_forum_view_discussion,snr_count_quiz_view,snr_count_scele_resource_view,min_diff_enrol_all_course,snr_diff_course_view,snr_diff_scele_resource_view,asgn_rcpmean_diff_first_view_time_available_created,asgn_mean_diff_time_due_first_submit,quiz_rcpmean_diff_first_view_time_open_created,quiz_mean_diff_time_finish_time_start,signal
5094,0,AAA,F,G,F,pass,C,57.7,55.2,52.7,30,57,213,0,2,29,19,71,71,107,87,16,0.896665,1.50791,0.536577,1.135922,1.517929,141484,0.50708,0.617988,204342.2,6080.217391,96874.9,18542.4507,Yellow
6707,1,AAB,F,I,F,outstanding,A,91.9,76,78.3,35,72,244,2,2,67,79,61,59,98,221,9,0.850657,1.998121,0.789987,1.074138,1.4264,170999,0.600461,0.427596,272476.2,40660.28571,220314.2,8952.459016,Green
6708,2,AAC,F,I,C,outstanding,A,93,94,78.4,33,140,350,1,9,57,64,49,49,118,189,4,1.167315,2.198173,0.683383,1.456901,1.673615,-118407,0.622679,0.535039,772343.3,24969.95,320122.2,4328.857143,Green
6709,3,AAD,F,I,A,pass,B,72.3,59.4,74.3,25,105,278,0,4,70,49,44,41,79,207,21,1.382417,1.907154,0.66706,1.216537,1.711679,134194,0.617666,0.521999,63771.1,4060.95,86737.2,24591.47727,Green
6710,4,AAE,F,I,E,outstanding,B+,74.6,68.8,68.7,25,70,208,0,4,44,17,47,47,77,121,13,0.80529,2.128664,0.829156,1.13518,0.930411,112092,0.64858,0.640332,247515.3,5805,152906.2,16398.82979,Green
6711,5,AAF,F,I,D,outstanding,A,97.1,92.5,87.7,23,56,156,1,10,75,41,49,48,79,119,9,1.07852,1.861899,0.770417,1.092909,1.824733,85477,0.777846,0.700064,96999.8,48167.9,115098,18620.87755,Green
6712,6,AAG,D,J,B,pass,B-,68,53.2,61.2,33,87,329,0,6,82,60,57,55,96,248,53,1.233205,2.095371,0.679755,0.94445,1.531331,220086,0.592181,0.489076,734495.2,4090.857143,101822.3,24089.7193,Green
6713,7,AAH,F,I,F,fail,D,46,45.8,38,28,58,185,0,4,16,8,33,34,67,157,52,0.949927,1.630035,0.464991,1.046747,1.04683,61938,0.722194,0.452095,248896,5972.96,102707.9,54921.48485,Red
6714,8,AAI,F,I,F,outstanding,A,97.2,87.5,91.3,21,74,345,0,5,136,136,59,60,93,158,0,0.935286,2.232694,1.747616,1.39054,1.009425,-189266,0.646593,0.535786,307171,8138.55,224804.6,51021.44068,Green
6716,9,AAJ,F,I,C,pass,B-,66.4,57.2,60.4,33,74,161,0,0,3,2,33,31,54,102,2,0.957573,1.68876,0.333333,0.704934,1.095066,219841,0.654995,0.586797,210258.6,8569.421053,68391.5,8797.909091,Green
6718,10,AAK,F,G,E,outstanding,A-,80.3,57.8,85,20,143,788,3,28,280,205,64,69,159,376,30,1.124174,1.752583,0.945277,1.377204,1.510198,75994,0.566386,0.453422,76832.9,16022.5,187243,26335.38462,Green
6719,11,AAL,F,I,E,outstanding,A,95.3,91.5,84.9,23,74,183,0,3,73,46,13,14,39,92,0,0.922123,1.496735,1.449314,1.245174,0.983859,66847,0.560402,0.531152,560028.2,74106.15,133753.5,1808.692308,Green
6722,12,AAM,F,I,E,pass,C,59.5,45.2,59,29,107,204,0,6,40,21,47,47,102,132,31,1.076424,1.65903,0.421169,1.028887,1.259716,134189,0.644071,0.540601,157646.9,3462.05,111152.3,16425.61702,Yellow
6723,13,AAN,F,I,D,outstanding,B+,75.2,53,79,32,101,294,0,4,70,46,61,60,105,208,7,1.205031,2.10473,0.636574,1.61615,0.928757,219564,0.697614,0.482497,630212.6,12654.57143,209774,3333.311475,Green
6724,14,AAO,F,I,D,outstanding,A,94.7,82,86.7,28,103,261,1,14,142,144,45,45,83,129,5,0.962953,1.560303,0.664393,1.13656,1.472292,49407,0.558619,0.583973,10558732.2,27988.30952,241869.2,990.177778,Green
6725,15,AAP,F,I,D,pass,C+,60.1,51,63.1,24,62,317,0,0,25,18,57,75,118,228,24,0.993304,1.949929,0.799821,1.046422,1.64135,-116119,0.588598,0.539981,245328.9,8772.130435,130188.2,50421.36842,Yellow
6726,16,AAQ,D,J,B,outstanding,B+,75.9,75.8,57.2,28,61,221,1,7,69,40,34,38,79,216,32,1.010926,1.672851,1.197332,1.278023,1.05337,383036,0.611653,0.429708,362432.8,10187.66667,557827.4,108924.7059,Green
6727,17,AAR,F,I,C,outstanding,B+,76.4,56.8,60.1,21,36,184,0,0,12,13,70,68,81,113,6,1.06066,1.80531,0.4,1.268571,1.39294,202434,0.631518,0.635306,184237.8,2600.552632,93082,18016.15714,Green
6729,18,AAS,F,G,D,fail,D,51,47.2,49.6,35,93,259,0,1,15,16,60,57,85,198,59,0.605982,2.007993,0.928477,1.090371,1.38832,112621,0.594651,0.458271,42110.3,15027.96,170790.5,33315.01667,Red
6730,19,AAT,D,J,B,pass,C+,63.7,53.2,67.1,30,115,272,0,2,23,13,34,32,52,304,75,1.183807,2.007612,0.59287,1.308202,1.029545,116261,0.583141,0.422456,103707.8,5124.809524,93046.3,40249.76471,Yellow
6732,20,AAU,F,G,C,pass,C,56.4,60.8,55.7,60,90,231,0,1,28,17,86,85,111,177,15,0.655904,1.673518,0.658505,1.119159,1.574033,324868,0.495627,0.425518,267735.4,14298.7381,82061.3,11913.82759,Yellow
6734,21,AAV,F,I,E,outstanding,A-,82.6,81.2,65.3,28,82,260,0,22,134,74,75,81,138,116,11,1.069727,2.077144,0.378846,1.142879,1.085488,122902,0.572729,0.50423,1998702.9,9824.263158,237335.8,29290.48,Green
6746,22,AAW,F,G,E,pass,C+,62,55.8,64.3,31,83,416,0,5,48,29,87,85,161,316,31,0.779248,1.848469,0.963087,1.368492,1.161168,107213,0.611154,0.427242,179408.2,36025.64583,457135.9,33129.91954,Yellow
6748,23,AAX,F,I,C,pass,C+,62.6,54.2,58.3,34,126,296,0,0,26,30,68,68,98,183,9,1.212436,2.307155,0.86284,1.369592,1.862216,75559,0.587717,0.596502,128529.6,20712.55263,135711,21785.91176,Yellow
6749,24,AAY,F,I,C,fail,D,54.5,45.8,58.9,31,62,163,0,0,20,7,34,29,65,168,9,0.898645,2.016653,0.729325,1.258169,1.261057,219431,0.683679,0.454514,116909.5,3046.391304,219499.1,100743.8529,Red
6752,25,AAZ,F,I,D,outstanding,A,96.4,95,79.5,41,113,273,0,3,25,23,74,74,123,111,3,0.980683,1.860245,0.734976,1.506173,1.362913,78240,0.67836,0.612352,1564581.3,43094.90476,538860.8,6482.12,Green
6753,26,ABA,F,I,F,outstanding,A,96.2,95.5,89.4,31,74,122,0,3,19,13,23,22,47,76,9,0.833621,1.619913,0.288509,0.963204,1.438321,155258,0.790191,0.590343,512578.6,26740.61905,128963.4,30234.52174,Green
6754,27,ABB,F,I,E,pass,C,57.6,58.2,55.5,26,84,168,0,4,52,34,52,51,81,156,10,0.856786,1.457622,0.564285,1.206271,1.087115,80271,0.630072,0.43988,100725.7,6104.45,88272.1,14424.80769,Yellow
6755,28,ABC,F,I,F,pass,B,74.1,49.8,75.7,30,65,197,0,0,20,24,48,48,66,188,10,0.783588,1.678862,0.766965,1.021324,1.394008,83892,0.624274,0.538486,55257.1,5304.565217,99875.1,30205.25,Green
6756,29,ABD,F,I,C,pass,B,73.9,61.8,64.5,23,92,170,0,2,25,18,25,25,58,54,0,0.679045,1.753043,0.528575,1.15083,1.285714,205602,0.545792,0.770882,52709.4,10897.52381,90752.5,64825.68,Green
6757,30,ABE,E,G,A,pass,B,72.7,62.5,63.9,29,55,170,0,0,12,15,47,42,66,107,7,0.969097,1.511843,0.666667,0.808736,1.494058,219002,0.630023,0.631634,186598.1,5685.333333,73965.4,21726.02041,Green
6758,31,ABF,F,G,D,pass,B-,67.8,58.8,55.6,32,71,244,0,5,48,25,27,26,48,189,20,0.952099,2.074662,0.78072,1.16692,1.39042,76316,0.622093,0.450703,64793.6,41073.225,93951.5,42567.2963,Green
6760,32,ABG,A,H,B,outstanding,A-,82.6,64.2,74.3,26,82,268,0,11,87,52,73,71,129,240,44,0.933749,1.997776,0.660286,1.203297,1.938006,161610,0.640767,0.538897,538759.4,61733.9,329112.6,20630.63158,Green
6761,33,ABH,F,G,D,pass,C+,64,54.8,73.7,32,75,266,0,3,46,29,74,73,105,181,10,0.756188,1.738154,0.794048,1.230534,1.023056,220711,0.639205,0.505956,377267.4,6892.130435,170722.8,13495.77027,Yellow
6762,34,ABI,E,I,C,pass,B-,67.4,57.8,40,25,71,122,0,0,12,6,24,24,47,107,0,0.981109,1.709012,0.816497,1.010111,1.537858,134201,0.72093,0.559729,302346.1,42562.25,135025.2,29103.375,Green
6763,35,ABJ,C,J,B,pass,B,72.9,62.2,62,39,112,287,0,4,64,44,68,65,114,110,3,0.992746,1.597579,0.856154,1.129433,1.561266,52563,0.683502,0.694255,189648.4,8284.458333,316431.7,30851.64706,Green
6764,36,ABK,F,I,A,outstanding,A,97.1,91,98.8,31,115,143,0,5,59,71,39,39,105,71,3,1.036204,1.696023,0.644472,1.382417,1.362114,159890,0.697601,0.841725,1029349.2,12158.07143,281888.6,26868.61538,Green
6765,37,ABL,E,G,E,pass,B,70.4,64.2,59,28,81,121,0,1,15,8,36,34,55,110,0,1.059843,1.351049,0.507673,0.974559,1.173939,220168,0.705602,0.554088,236207.9,3006.217391,89867.8,1905.916667,Green
6766,38,ABM,E,G,D,pass,B,73.3,63.2,61.3,45,91,209,0,1,14,14,55,56,98,127,3,0.844586,1.722105,0.541676,1.369592,1.152215,76346,0.675101,0.556315,230853.6,47896,308747.1,37065.41818,Green
6772,39,ABN,C,H,B,pass,B-,68.5,53.2,54,28,132,133,0,0,11,9,24,24,42,123,0,0.894427,1.099925,0.575766,0.750479,0.951432,220813,0.597927,0.456969,93040.2,5457.347826,68642.2,20465,Green
6773,40,ABO,C,H,B,outstanding,A-,82.4,78,66.3,37,89,189,0,3,31,20,29,29,53,179,25,1.029814,1.85535,0.711002,1.219438,1.505904,116188,0.658531,0.517554,306177.9,14553,92597.4,5255.344828,Green
6775,41,ABP,F,G,F,pass,B-,65.6,56.2,63.8,23,44,191,0,3,38,33,26,24,58,144,11,0.986835,1.96991,0.832405,1.104812,1.572292,115235,0.59408,0.554948,208979.5,5690,159963.5,28802.80769,Green
6781,42,ABQ,E,I,A,outstanding,A,87.4,77.1,70.7,32,73,225,0,2,37,26,58,57,75,169,9,1.015752,2.20875,0.724377,1.212678,0.934158,76769,0.620306,0.415074,584127.1,17795.66667,144099.2,21868.13793,Green
6782,43,ABR,C,I,E,outstanding,A,97.2,78.6,98,35,98,159,0,2,64,30,115,114,70,143,1,1.088352,1.845223,0.897588,1.150171,0.623433,124898,0.792222,0.450536,1108914.4,32317.42857,139828.4,11764.0087,Green
6785,44,ABS,F,I,E,outstanding,A,90.8,97,69,24,84,115,0,1,17,13,52,55,57,85,0,0.881917,1.452442,0.489729,0.881104,1.142304,406097,0.710419,0.579609,464791.4,36111.57143,98023.5,4944.310345,Green
6786,45,ABT,F,I,A,outstanding,A,90.6,89.5,74.6,37,85,117,1,0,23,28,50,47,53,77,3,0.635586,1.664479,0.861357,1.091682,1.130765,155471,0.720579,0.607253,3396878.2,102450.7381,145431.2,4796.019608,Green
6788,46,ABU,E,G,C,outstanding,A-,81.2,68.2,74.1,27,120,466,2,38,175,121,77,81,168,221,20,1.810715,2.299392,0.871208,1.427012,1.639377,68298,0.66043,0.666283,201823,50860.73684,319751.2,41716.57143,Green
6790,47,ABV,F,I,A,outstanding,A,99.8,100,92.3,32,84,125,3,2,29,37,67,66,91,73,3,1.052304,2.078432,0.539915,1.381805,1.293505,245077,0.737541,0.641881,414554.4,24514.42857,72683.2,4887.119403,Green
6791,48,ABW,C,J,B,pass,B-,68.9,44.2,62.8,31,76,245,0,7,66,34,54,52,71,202,31,0.934929,1.935384,0.791797,0.955195,1.671764,208632,0.591319,0.5396,198286.1,7718.173913,79993.3,19024.38889,Green
6792,49,ABX,C,G,E,outstanding,A,92.1,85,76.4,24,54,139,0,2,23,15,27,27,48,107,13,0.970495,1.588079,0.59287,1.041511,1.357916,398094,0.702641,0.538061,231147.8,11787.04762,106483.6,20642.22222,Green
6794,50,ABY,E,I,D,outstanding,A,97.2,96,92.2,20,67,244,0,31,127,62,42,45,76,146,5,1.117754,2.027709,0.796916,1.269491,1.866892,80035,0.611486,0.629983,1278916.1,109368.0625,524705,43912.95238,Green
6797,51,ABZ,C,J,B,pass,B,70,61.8,62.9,30,84,210,0,3,27,26,27,27,49,90,2,1.040612,1.582755,0.792406,1.157193,1.263228,150148,0.603267,0.643705,176657,9626.947368,82953.7,16353,Green
6798,52,ACA,C,G,F,fail,E,-3.4,0,0,1,5,23,0,0,0,1,2,2,3,18,3,0.298275,0.369195,0,0.242536,0.375,55871,0.52259,0.542434,-153583.5,6351,216361.6,185.5,Red
6800,53,ACB,E,I,D,pass,C,58.6,70.2,57.5,20,66,280,0,4,33,19,94,136,75,229,93,1.140647,2.290163,0.877896,0.931049,1.043879,-2151,0.550389,0.443048,315380.7,1437.631579,104822,30879.22549,Yellow
6803,54,ACC,D,J,B,outstanding,B+,79.2,75.2,71.6,35,92,274,0,2,31,20,50,50,84,174,8,0.979833,2.037076,0.704364,1.106797,1.618622,159615,0.703536,0.577552,292593.5,4656.380952,147363.1,34836.02,Green
6809,55,ACD,F,I,A,outstanding,A-,84,59,81.7,32,92,171,0,3,18,17,41,40,90,120,9,1.079146,1.882306,0.654654,1.276885,1.25,208814,0.647129,0.533206,291528.7,14545.1,125690.4,49912.29268,Green
6811,56,ACE,D,J,B,fail,D,53.4,42,46.2,26,82,195,0,7,29,11,39,37,68,213,4,0.775936,1.365775,0.866154,1.097917,0.976643,220109,0.623216,0.438134,69250.2,4078.909091,93675.5,23600.30769,Red
6813,57,ACF,F,I,D,outstanding,B+,78.2,64.8,73.6,33,102,149,0,0,27,11,49,49,84,172,39,1.260124,1.952263,0.780399,1.237437,0.917963,159602,0.705503,0.425371,593070.9,14307.95,128686.9,14677.20408,Green
6814,58,ACG,E,I,D,pass,C+,64.3,42.8,62.1,23,74,156,0,0,16,15,21,21,56,105,1,1.035396,1.346229,0.464991,1.237437,1.145849,73955,0.644469,0.634139,216242.3,2529.210526,458588.2,58096.42857,Yellow
6823,59,ACH,E,I,C,outstanding,A-,80.9,74.5,62.6,33,70,134,0,0,4,5,62,60,79,82,0,1.061093,1.529457,0.534522,0.926085,1.162448,209441,0.688156,0.700525,194804.3,11401.15789,76893.6,17679.08065,Green
6824,60,ACI,E,I,E,outstanding,B+,77.3,56.2,83,45,108,180,0,6,60,55,32,29,52,80,17,1.122809,1.411081,0.985329,1.084275,1.275802,211637,0.705578,0.64266,581822.4,13387.55,94060.7,14802.53125,Green
6826,61,ACJ,E,I,A,pass,C,57.6,50.5,62,23,36,155,0,0,17,16,62,66,84,182,4,0.83205,1.464547,0.489729,1.086611,0.437966,651723,0.686824,0.357588,203082.4,2409.136364,165693.9,42038.01493,Yellow
6827,62,ACK,C,I,D,outstanding,B+,76.5,56.8,61.1,25,57,159,0,0,25,17,32,32,35,153,5,0.973399,1.720453,0.571587,1.023672,1.197764,220224,0.664509,0.48785,262815.1,17543.85714,114421.8,30534.65625,Green
6828,63,ACL,E,G,F,outstanding,A-,82,54.5,80.8,26,114,516,0,4,109,38,51,98,137,318,51,1.261074,1.784709,1.114976,1.266295,1.016415,220112,0.569638,0.427744,359582.1,17895.6,527444.4,33795.21569,Green
6829,64,ACM,C,I,A,outstanding,B+,79.5,78.8,72,26,96,207,0,4,59,29,53,53,107,149,23,1.13421,1.616941,0.727287,1.190286,1.240418,219472,0.573311,0.43799,599831.9,34623.05556,220644.3,19107.86792,Green
6830,65,ACN,E,I,D,outstanding,B+,75.6,63.8,66.3,32,89,500,0,3,60,41,86,86,126,278,14,1.086255,2.311646,0.551318,1.05,2.101242,77433,0.557485,0.551914,34167.7,10001.66667,140160.5,17585.05814,Green
6831,66,ACO,C,I,C,outstanding,A,87.9,85.8,57.7,38,102,250,0,0,15,20,69,99,65,156,2,1.036508,1.99344,0.662266,1.134776,1.534731,62129,0.544917,0.469686,215192.2,12622.11905,112493,6866.608696,Green
6832,67,ACP,E,I,A,outstanding,A,92.7,88,83.8,24,116,189,0,11,65,54,85,91,119,88,3,0.908137,1.881645,0.726858,1.33071,1.201988,75275,0.754891,0.643043,5648553,16753.85714,185138.7,8426.545455,Green
6833,68,ACQ,C,G,A,outstanding,A-,80.3,75,73.4,31,102,193,0,3,34,19,58,58,89,136,5,0.847883,1.752736,0.726204,1.185824,1.65216,218864,0.620387,0.623571,66848.2,22947.04545,92442.8,12897.86441,Green
6834,69,ACR,E,G,A,outstanding,A,88.3,77.5,84.8,26,81,151,0,0,20,22,42,43,69,150,10,1.182891,2.081818,0.811107,1.090305,1.030107,133955,0.701669,0.501005,207037.2,5553.45,107283.4,9919.547619,Green
6835,70,ACS,F,I,F,outstanding,A-,82,59.8,74.7,25,80,222,0,1,46,38,45,44,65,225,2,1.39601,2.012535,0.645142,1.051538,1.688487,75256,0.628052,0.464575,190148.5,8230.142857,111752.7,11886.13333,Green
6839,71,ACT,F,G,C,pass,B-,65.6,52.8,57.8,24,77,216,0,2,30,31,86,91,114,118,2,0.835723,2.044663,0.662266,0.915198,1.778917,74995,0.646232,0.659492,201534.6,5716,107055.2,8056.151163,Green
6840,72,ACU,E,G,A,outstanding,A,86.2,57.2,88,23,73,207,0,18,68,42,75,73,101,145,6,0.966485,1.904218,0.446058,1.498807,1.533126,123914,0.756883,0.677884,336863,25341.6,108045.5,16161.38667,Green
6844,73,ACV,E,I,D,outstanding,B+,76.5,68.6,69.1,37,86,156,0,0,16,11,29,26,56,105,7,1.055076,1.741089,0.691095,0.6791,1.422952,219200,0.597702,0.557736,375952.6,55087.10417,79159.9,50601.72414,Green
6845,74,ACW,F,I,F,outstanding,B+,75.6,54,66.2,28,53,185,0,0,27,23,26,24,53,171,6,0.949918,1.660479,0.818182,1.324586,1.577864,86770,0.571185,0.457297,200768.7,3631.952381,149551.8,41020.34615,Green
6846,75,ACX,E,G,D,pass,B,70,49.8,69,38,102,227,0,0,29,32,52,46,89,191,41,0.996558,1.495332,1.077033,0.86294,1.169317,219196,0.564485,0.448021,148891,23140.19048,144970.2,22774.15385,Green
6847,76,ACY,E,G,A,pass,B,72.6,59,59.4,22,68,218,0,8,63,65,50,49,84,193,1,0.949217,2.207545,1.117717,1.076923,1.25227,219175,0.707402,0.471193,237778.5,8104.136364,111342.5,31893.2,Green
6848,77,ACZ,C,G,E,pass,B,69.9,62.2,61.9,44,117,296,0,14,79,63,65,65,93,238,38,1.065001,2.533341,0.846143,1.071517,1.977028,111213,0.649845,0.477914,302017.4,10374.33333,104388.7,5011.907692,Green
6849,78,ADA,C,J,B,pass,B-,65.4,64.8,51.2,28,87,165,0,9,48,11,13,13,28,161,3,0.911157,1.19537,0.373002,0.797724,1.272777,220149,0.561067,0.417684,337434.3,4635.413043,101659.1,69639.38462,Green
6850,79,ADB,F,G,A,pass,C+,59.9,54.1,59.1,32,69,214,0,0,13,10,70,68,119,186,7,0.90006,1.564254,0.60547,1.232053,1.681211,158312,0.513957,0.432759,204501.5,13340.18182,112630.3,12992.42857,Yellow
6851,80,ADC,C,G,F,pass,C,57.1,60.8,51.6,33,74,403,0,3,61,21,65,64,109,301,38,0.853341,2.075638,0.745178,1.161878,1.656825,-260380,0.495649,0.445823,47232.9,35976.43478,85060.5,3001.523077,Yellow
6852,81,ADD,C,G,E,outstanding,A,87.8,76,81.3,35,99,248,0,2,62,43,29,28,55,179,49,0.851772,1.636973,0.688549,0.880141,1.40251,219333,0.604719,0.518488,184338.1,11464.15,85535.4,20438.34483,Green
6853,82,ADE,C,G,C,pass,B-,68.1,60.2,58.6,31,73,265,0,0,38,21,57,55,81,233,5,0.931847,2.20887,0.399845,0.853388,1.485403,76339,0.59322,0.447205,239345.4,5061.643939,144388.9,27705.13793,Green
6854,83,ADF,A,H,B,pass,B,69.9,56.8,61.3,24,63,223,0,3,40,25,19,19,67,188,1,0.868243,1.751783,0.655122,1.522334,1.562333,170713,0.631541,0.531113,230465.3,5865.181818,92450.5,78928.26316,Green
6856,84,ADG,C,H,B,fail,D,51.7,42.8,57.2,26,77,226,0,4,24,9,45,45,60,155,3,0.954407,1.589973,0.57735,0.671156,1.430471,382941,0.512087,0.50655,18533.3,1568.675,85217.1,21079.41304,Red
6857,85,ADH,E,I,F,fail,D,52,47.8,59.6,31,74,268,0,1,42,21,18,15,40,144,23,1.017621,1.62463,0.718185,0.8429,1.449893,69006,0.708107,0.613446,331997.5,35496.16667,121621.3,82401.38889,Red
6858,86,ADI,C,G,C,pass,B-,66.5,67,49.7,41,95,267,0,8,92,69,71,68,98,164,23,0.881256,2.067532,0.883962,1.230395,1.722218,72941,0.570532,0.58482,65783.7,19170,236501.9,16103.50704,Green
6859,87,ADJ,F,G,F,pass,C+,60.1,54.8,59.2,29,145,338,0,8,82,38,87,82,106,210,25,0.834589,1.718506,0.757831,1.135917,1.763275,77027,0.523334,0.531474,330034.5,27328.22917,153896.5,35718.17241,Yellow
6860,88,ADK,F,I,C,outstanding,A,86.2,75.2,87,22,82,305,0,0,29,55,50,48,97,202,8,1.122551,1.65407,0.675882,1.417154,1.458874,73064,0.612116,0.566885,553477.5,81449.95238,273433.4,52148.22,Green
6861,89,ADL,E,I,F,pass,B-,68.2,68,63.7,26,102,362,0,6,115,87,29,25,61,282,7,0.786666,1.67859,0.84447,0.87134,1.181666,85679,0.509858,0.426858,153373.8,3820.375,104582.2,33047.41379,Green
6862,90,ADM,C,H,B,pass,C,56.9,54.2,47.8,32,101,140,0,0,26,28,50,48,61,133,6,0.940808,1.530077,0.700913,0.97317,0.896665,83771,0.561359,0.392707,294644.4,8102.695652,123422.7,11297.98,Yellow
6863,91,ADN,E,G,C,pass,C,54.9,50.2,41.4,30,85,287,0,0,13,7,60,59,99,230,44,1.036508,1.960198,0.69192,1.114331,1.636689,111349,0.544717,0.44466,333878.2,4930.5,107490.4,23891.63333,Yellow
6864,92,ADO,C,H,B,pass,C,55.4,48,38.2,36,88,170,0,5,26,12,29,31,51,162,1,1.131932,1.649009,0.588482,1.052274,1.479591,79000,0.619393,0.533362,264196.2,2969.291667,66209,24475.24138,Yellow
6865,93,ADP,C,H,B,fail,D,52.5,52.8,44.5,27,82,133,0,0,0,2,21,17,36,101,2,1.086498,1.578753,0,1.133893,1.240502,218834,0.625843,0.55296,168055.5,3268.238095,76183.4,33341.61905,Red
6866,94,ADQ,E,G,E,outstanding,B+,78.1,57.2,73.2,27,68,142,0,7,67,34,35,33,48,106,5,1.30384,1.585232,0.825903,0.632456,1.095874,75618,0.662509,0.506363,217390.1,13143.05,64191.9,814.918919,Green
6867,95,ADR,E,G,D,pass,C+,61,45.9,65,27,81,156,0,2,46,19,29,26,51,149,1,1.011158,1.764995,0.70511,0.655302,1.761249,218708,0.580074,0.469256,630068.2,14356.25,106632.4,29153.24138,Yellow
6868,96,ADS,C,J,B,outstanding,B+,75.9,63.8,59.8,30,64,144,0,5,32,15,27,29,38,117,5,1.176343,1.705606,0.781651,0.847168,1.384931,220274,0.69161,0.514172,228964.7,5151.380952,60105,3564.888889,Green
6869,97,ADT,E,G,D,outstanding,B+,76.3,57,71.4,24,203,284,0,4,44,44,55,56,143,201,26,1.225005,1.697467,0.538834,1.365875,1.432029,78751,0.579255,0.468235,289838,8094.15,123127.9,30385.2807,Green
6870,98,ADU,E,I,C,outstanding,A,91.1,83.2,79.3,29,108,245,1,10,95,93,48,47,110,128,1,0.848528,1.873288,0.766403,1.337491,1.310771,111115,0.65156,0.555275,56581.8,57579.28571,242399.9,34473.8125,Green
6872,99,ADV,E,I,C,pass,B,73.7,53.2,69.6,23,74,483,1,1,30,27,31,31,77,207,9,0.734584,2.116041,0.898027,1.005784,1.102484,78041,0.467068,0.431037,185714.6,11957.71429,146964.1,74703,Green
6873,100,ADW,E,G,F,outstanding,A,86,84.2,72.8,41,126,308,0,23,144,76,64,79,124,173,4,1.183216,2.505142,0.922395,1.151907,2.26439,-105492,0.632967,0.543382,183401.3,14644.80952,190663.2,43782.03125,Green
6874,101,ADX,C,G,A,pass,C,59.3,61,53.8,34,98,270,0,0,27,16,83,82,152,258,47,1.166006,1.762336,0.628587,1.263163,1.294148,77614,0.522165,0.39519,256553.8,9297,123074.4,28139.74699,Yellow
6878,102,ADY,C,H,B,fail,D,47.7,43.8,43,44,107,189,0,4,22,16,43,42,50,190,67,0.888924,1.386374,0.73994,0.900937,1.077807,606190,0.529742,0.41694,188500.4,31778.5,222342.3,3204.116279,Red
6880,103,ADZ,A,H,B,pass,B,71.8,55.8,70.6,34,69,188,0,3,50,35,92,91,155,124,2,0.871187,1.855303,0.472118,1.411133,1.387403,68267,0.701376,0.582455,317988.2,4237,157142.8,19705.6413,Green
6881,104,AEA,E,I,F,outstanding,B+,77.9,71.8,50.7,30,96,201,1,1,40,26,26,27,50,182,68,1.154701,1.866158,0.761939,0.900937,0.902407,-125322,0.602238,0.499557,225256.2,19350.63158,103921.7,38933.73077,Green
6883,105,AEB,F,G,F,outstanding,A,84.7,84,79.7,34,112,328,0,5,60,43,42,44,70,184,30,1.093216,1.978346,0.920575,1.012051,1.407742,60747,0.622733,0.566441,218521.3,76393.85714,85091.2,20213.57143,Green
6884,106,AEC,F,G,E,pass,B-,68.8,63.8,74.4,26,112,181,0,2,34,56,61,67,86,114,22,1.19122,1.743207,0.732242,1.443799,0.926003,163333,0.661578,0.56458,351578.3,11501,181965.5,13010.09836,Green
6885,107,AED,E,G,F,pass,B,70.8,57.2,63,38,96,193,0,2,20,20,29,26,42,171,6,1.157719,2.099191,0.712471,1.093216,1.639312,171118,0.555855,0.481273,247102.7,6614.613636,89041.5,25066.17241,Green
6886,108,AEE,E,G,A,pass,B-,65.9,51,50.2,29,100,190,0,2,16,12,55,50,98,169,32,0.966736,1.682536,0.668994,1.196903,1.282772,178656,0.565821,0.425225,225453.3,25214.6,180251.8,22985.34545,Green
6887,109,AEF,E,G,D,fail,I,38.2,39.2,0,22,82,188,0,1,25,13,49,47,66,192,26,0.990905,1.572135,0.556105,1.324244,1.580367,81893,0.510784,0.419689,108124.5,3483.45,103877.3,41920.89796,Red
6889,110,AEG,E,I,C,pass,B-,68.4,58.2,62.8,35,82,152,0,0,7,16,61,60,84,146,2,1.226205,1.794831,0.51465,1.334848,1.123742,59488,0.709596,0.497867,105954.5,19389.52381,168554,14109.09836,Green
6891,111,AEH,E,I,A,outstanding,B+,77.9,70.5,62.6,26,51,172,0,6,69,55,26,24,37,130,9,1.052274,1.549612,0.549962,1.050306,1.309994,220041,0.653898,0.582578,251123.5,14063.86842,122630.4,41184.5,Green
6892,112,AEI,F,G,A,pass,B,72.7,56,78.3,36,155,415,0,13,66,66,54,53,107,187,13,1.051023,1.818619,0.565032,1.126815,1.665598,-988267,0.348328,0.445415,383390,6931.130435,212552.5,81939.33333,Green
6894,113,AEJ,F,G,B,pass,C,58.8,50.2,53,33,137,439,0,5,81,89,72,74,89,250,9,0.736889,1.980272,0.731871,1.113457,1.768829,168373,0.459144,0.452293,45736.9,4579.663043,123293.4,21314.65753,Yellow
6895,114,AEK,C,G,A,outstanding,A,84.6,65,87.6,30,63,182,0,1,27,29,104,104,137,152,34,1.01389,1.612452,0.579741,1.331353,1.120437,77357,0.699379,0.456824,267376.4,33849.30952,127789.9,12813.49038,Green
6897,115,AEL,E,G,F,outstanding,B+,78.2,52.8,80.5,43,88,390,0,0,49,70,60,60,103,238,9,1.112232,2.339401,0.621249,1.329171,1.93656,218963,0.493552,0.465682,258231.2,21514.8,106265.3,7931.901639,Green
6898,116,AEM,C,I,D,outstanding,A,100.2,100,91.1,25,80,174,2,5,57,45,39,39,69,65,0,0.924007,1.887739,0.736788,0.878785,1.188119,213193,0.628058,0.850268,349026.8,73751.33333,115368.6,639.589744,Green
6899,117,AEN,E,I,F,fail,E,-3.2,0,0,1,13,146,0,0,4,5,20,20,27,192,9,0.528525,0.931165,0.417029,0.415581,0.477081,72882,0.632435,0.379629,600204.1,5716,179724.4,6882.8,Red
6900,118,AEO,C,I,C,outstanding,A-,83.4,86.5,72.8,29,105,246,0,3,27,29,78,73,172,121,13,0.895085,1.920001,0.579741,1.396759,1.188734,64990,0.642869,0.563785,417359.3,57216,455066.5,50998.87179,Green
6912,119,AEP,F,I,E,pass,C+,62,57.2,71.8,31,102,233,0,5,35,18,44,43,84,246,1,0.99146,1.67974,0.80529,1.334848,1.518519,213977,0.554358,0.451805,525356.1,4589.714286,200041.6,77151.15909,Yellow
6913,120,AEQ,E,G,E,pass,C,58,48.8,65.3,30,69,267,0,1,25,28,66,63,98,218,13,1.238278,1.617113,0.683714,0.975716,1.480973,586954,0.569937,0.493677,191466.6,3129.545455,142275.4,45135.15152,Yellow
6914,121,AER,E,G,C,pass,C,58.4,66.5,45.1,29,61,138,0,1,17,3,21,20,58,122,14,0.97317,1.614284,0.450974,0.880406,1.418221,68050,0.656263,0.531866,203826.5,3278.714286,114162.7,61708.80952,Yellow
6918,122,AES,D,J,B,fail,D,43.4,43.2,40,25,56,161,0,1,22,31,24,23,36,118,4,0.675533,1.299359,0.531705,0.650791,1.403966,220157,0.577899,0.508149,295033.8,3733.8125,140635,6852.958333,Red
6919,123,AET,E,I,D,outstanding,A-,82.3,77,76.2,25,67,257,0,10,155,41,67,66,103,152,21,1.056068,2.017378,0.913267,1.187996,1.510663,168488,0.694173,0.581995,659501,11042.52632,119815.5,8270.985075,Green
6920,124,AEU,E,I,E,outstanding,A-,81.1,73,76,26,55,108,0,2,19,14,36,36,51,87,2,0.657329,1.664101,0.668004,0.884985,0.729343,149554,0.866849,0.533925,193587.7,19089.35,96458.5,22101.36111,Green
6921,125,AEV,F,G,A,pass,B,70.2,53.6,71.5,23,102,244,0,7,60,38,89,87,168,195,15,1.068781,2.119257,0.662266,1.333333,1.162755,172527,0.60989,0.49342,202744.1,9084.775,89704.5,19493.7191,Green
6922,126,AEW,F,G,D,pass,B,70,60.5,58.9,28,82,208,0,1,19,28,29,31,51,350,61,1.001491,1.652251,0.583305,0.857537,1.38723,150745,0.600062,0.353049,254264.4,7339.619048,155831.5,19148.34483,Green
6923,127,AEX,C,G,D,fail,D,51.7,51.8,37.7,22,41,262,0,0,17,7,46,41,55,207,44,1.044438,1.717747,0.521905,1.290284,1.085437,68501,0.617495,0.436584,266299.2,3015.55,82188.7,19454.69565,Red
6924,128,AEY,C,J,B,pass,C,57.1,45.2,65.3,39,70,155,0,3,21,17,41,39,63,136,4,0.993533,1.957639,0.616316,1.117717,0.853542,219341,0.656048,0.49329,215229.3,3610.565217,101493.8,43429.56098,Yellow
6926,129,AEZ,E,G,E,outstanding,A-,80,60,70,25,120,235,0,5,85,48,57,55,88,120,4,0.981761,2.164359,1.316446,1.25817,1.788854,-14197,0.646359,0.597207,158208,13422.52381,304196.2,73265.33333,Green
6927,130,AFA,E,G,D,outstanding,A,88.7,67.2,87.1,37,76,252,0,10,56,26,52,47,81,178,52,0.940064,1.555556,0.686406,1.588235,1.067804,83447,0.598346,0.438502,313009.7,6286.428571,155802,25176.13462,Green
6928,131,AFB,C,G,C,outstanding,A-,84.3,69,73.7,29,97,153,0,5,37,33,39,37,85,93,1,0.874016,1.59609,0.561833,1.142304,1.236051,141072,0.618278,0.648911,309767.7,11865.45238,120946,29779.58974,Green
6929,132,AFC,E,G,C,outstanding,A,86.7,83,66.5,24,86,208,0,2,42,49,50,48,103,113,4,1.375692,2.513515,0.896258,1.495268,0.987399,-226950,0.775259,0.642544,187608.1,24268.45238,426656.7,44520.76,Green
6930,133,AFD,C,J,B,pass,B,70.9,54.2,63.1,34,77,211,1,3,16,10,31,31,44,170,6,0.903385,1.769863,0.691095,0.901155,1.649009,69973,0.733763,0.549617,208611.2,12310.25,82828.8,3840.709677,Green
6931,134,AFE,C,G,C,pass,B,73.5,67.8,65.2,28,111,358,0,5,58,29,62,63,83,400,26,1.484759,1.814013,0.471935,1.336452,1.655552,152702,0.554557,0.46257,194808.2,39874.55,339769.6,20981.12698,Green
6932,135,AFF,E,I,A,outstanding,A,91.3,94,87.7,35,146,348,0,2,42,29,55,88,123,177,42,1.481184,1.869995,0.819288,1.3782,0.884945,-120514,0.633613,0.561976,951239.4,14192.80952,154924.5,17166.18182,Green
6935,136,AFG,A,H,B,fail,D,53.4,45.2,42,27,85,197,0,5,87,51,28,26,68,171,9,0.934517,1.74885,0.738749,1.389202,1.518516,78290,0.721946,0.511024,417533.4,6738.309524,120219.6,55315.10714,Red
6936,137,AFH,A,H,B,outstanding,A,86.1,77.8,60.8,23,69,317,0,2,72,49,90,88,131,217,18,0.971061,1.813087,0.744208,1.220891,1.814074,113749,0.596336,0.540199,335562.7,4748.9,176122.9,26685.43333,Green
6937,138,AFI,C,H,B,pass,B,69.7,50.2,62.8,28,63,246,0,5,51,38,28,28,37,164,7,1.21042,1.473715,0.79873,0.868009,1.313725,81995,0.606811,0.489512,264241.2,10184.21739,86724.5,800,Green
6939,139,AFJ,E,I,A,outstanding,A,84.5,68.2,87,32,90,271,0,3,58,37,67,110,100,179,41,1.171303,1.989369,0.842795,1.292719,1.391785,79249,0.661754,0.576477,144939.9,33572.47619,123027.3,7378.358209,Green
6940,140,AFK,A,H,B,outstanding,A,89.9,75.2,73.5,46,82,151,0,9,72,34,49,48,55,79,0,0.91269,1.869906,0.614779,0.704145,1.186529,117773,0.706005,0.645878,236060.4,68968.71429,88491.8,31929.71429,Green
6941,141,AFL,E,G,E,pass,B,69.8,55.8,65.1,23,64,189,0,3,21,18,73,71,93,134,12,1.098885,1.805906,0.565916,1.228265,1.562795,166495,0.749649,0.521295,454946.4,56170.5,101807.1,26082.08219,Green
6942,142,AFM,D,J,B,pass,C+,62.3,62.2,54.3,30,60,140,0,3,28,18,52,52,69,113,3,0.9245,1.651752,0.929213,0.891902,1.309622,157139,0.713719,0.569323,328413.7,8025.409091,71092.2,6289.018868,Yellow
6943,143,AFN,E,I,E,outstanding,A-,83.6,63.6,75.7,25,66,210,0,6,32,18,45,44,115,163,8,1.146829,1.923774,0.451466,1.209455,1.026457,115051,0.643826,0.441545,326399.4,6938.789474,235843,90845.95556,Green
6944,144,AFO,C,H,B,pass,C,59.1,48.8,58.4,30,126,286,0,5,68,39,26,41,89,161,1,1.150793,1.864073,0.621478,1.265119,1.370275,73190,0.684343,0.561684,178096.4,6694.380952,78827.3,14155.88462,Yellow
6947,145,AFP,E,I,A,outstanding,A-,79.9,65.8,75.7,33,96,239,0,10,80,71,33,34,92,186,7,1.098885,1.908096,0.671534,1.301076,1.160146,126801,0.642209,0.524193,927307.1,12810.38095,128343.6,46535.12121,Green
6949,146,AFQ,E,G,C,pass,C+,62.2,64.2,59.1,30,78,477,0,8,100,63,80,80,107,257,4,1.127243,1.696778,0.703528,1.111392,1.287497,218924,0.476065,0.48888,198555.1,9831.95,142249.4,18382.43902,Yellow
6950,147,AFR,E,G,F,outstanding,B+,77.8,54.5,73,32,63,233,0,2,12,12,40,40,80,184,8,0.923579,2.012138,0.57735,0.847998,1.520921,-280611,0.599743,0.528385,237097.3,6448.9,125485.2,50363.15,Green
6951,148,AFS,F,I,A,outstanding,B+,77.8,68.2,72.5,21,66,162,0,1,31,12,14,12,28,133,40,1.094541,1.546016,0.451749,1.0644,1.139921,63986,0.61882,0.474733,434075.9,1863.842105,87495.3,16953.28571,Green
6952,149,AFT,C,G,E,pass,B,70.3,63.2,67.3,33,70,156,0,2,18,8,45,44,84,127,9,1.167315,1.982481,0.547723,0.927173,1.64052,116810,0.739583,0.626736,204716,22321.95,123141.4,53301,Green
6953,150,AFU,A,H,B,outstanding,A-,83.2,81,77,25,102,340,0,17,191,92,108,107,131,163,23,0.963982,2.025245,0.92665,1.302918,1.501237,54373,0.598651,0.619798,337021.7,43151.15,121655.4,19689.3945,Green
6955,151,AFV,C,G,C,pass,B-,67.7,51.8,66.5,26,134,254,0,1,54,36,55,55,105,157,5,1.14685,1.849536,0.698535,1.058664,1.506207,75525,0.568139,0.590911,226344.3,6281.181818,138325.7,13198.67273,Green
6964,152,AFW,E,G,C,outstanding,A-,81.9,74.8,66.9,33,83,201,0,1,50,38,86,84,112,153,18,1.016665,1.664115,0.598985,0.994152,1.337942,154105,0.691267,0.531461,236494.1,13027.28571,109590,7646.093023,Green
6965,153,AFX,F,G,F,pass,B-,68.1,56.5,57.8,28,110,245,0,2,25,17,69,64,98,212,8,0.953248,2.154684,0.383347,1.251892,1.29577,79532,0.611786,0.450848,391994,10579.56818,103793.3,15584.05714,Green
6967,154,AFY,B,I,A,fail,D,49.9,45.8,48.6,21,63,224,0,0,7,14,57,50,78,228,88,1.143943,1.459601,0.32186,0.958373,1.325402,219368,0.516479,0.356132,95518.4,10949.33333,130603.8,42138.15789,Red
6969,155,AFZ,E,I,F,outstanding,B+,76,70.2,59.7,31,83,270,0,1,24,22,29,30,67,214,4,1.063666,2.5,0.685994,1.051377,1.529352,77290,0.593786,0.492571,221585.4,3566.363636,108588.9,64268.55172,Green
6970,156,AGA,F,I,F,outstanding,A-,83,66.2,73.2,30,55,220,0,6,24,12,50,50,70,207,5,0.73994,1.677875,0.565685,1.035702,1.464114,219189,0.592127,0.505351,186905.1,5564.5,88411.6,6091.26,Green
6972,157,AGB,A,H,B,pass,B-,66.9,54.2,60.8,27,75,158,0,3,34,10,46,49,72,137,28,0.881134,1.892793,0.865277,0.976546,1.501872,220220,0.686777,0.567259,253192.8,19072.21053,104228.6,3137.065217,Green
6979,158,AGC,C,I,A,outstanding,A,88.3,70.5,86.6,37,104,288,0,10,119,98,25,24,44,202,11,1.164503,1.695997,0.809599,0.736202,1.315912,153898,0.591546,0.510935,906584.1,10448.38095,291452.9,49522.76,Green
6985,159,AGD,C,G,A,outstanding,B+,78.1,74,68.9,24,67,148,0,1,25,21,64,62,97,133,0,0.862026,1.763906,0.462567,0.945858,1.203682,211168,0.676512,0.522476,78507.3,26511.92105,114482.7,24371.8125,Green
6988,160,AGE,F,I,D,pass,C+,60,47.2,53.6,25,85,322,0,4,72,42,68,99,125,222,35,0.944853,1.840872,0.751469,1.313753,1.525854,-106622,0.566936,0.463378,224040.2,8961.285714,117873.9,18279.38235,Yellow
6990,161,AGF,E,I,E,outstanding,A,100,96,91.6,36,83,216,1,7,59,53,37,48,86,126,35,0.759044,1.708484,0.780311,1.192147,1.027144,220207,0.634984,0.498798,425921.1,82998.83333,276242.8,44915.59459,Green
6992,162,AGG,E,G,A,pass,B-,69.4,62.5,54.1,26,75,132,0,0,26,20,48,46,87,134,9,1.026627,1.991786,1.110665,1.089118,1.242233,218692,0.601422,0.43594,951914.7,4154.826087,118911.1,65300.375,Green
6993,163,AGH,C,I,D,outstanding,B+,78.7,57.9,64.9,27,126,320,0,14,104,67,24,22,74,132,41,1.228932,1.864123,0.778639,1.099225,1.372322,79294,0.595862,0.553646,272319.9,3599.578947,101479.3,66682.70833,Green
6995,164,AGI,E,G,E,pass,B,71.5,82.2,76.1,27,88,267,0,12,71,44,75,73,167,185,5,1.231281,2.101841,0.823524,1.262798,1.549814,74799,0.738093,0.564308,5592268.4,66216.52632,2594381.1,39720.14667,Green
7004,165,AGJ,C,G,D,pass,C,57.9,47.2,47,29,69,245,0,2,28,21,40,43,78,247,28,0.881362,1.848175,0.51465,1.057925,1.302582,153990,0.625826,0.437115,192226.6,12484.2381,81209.3,22458.575,Yellow
7012,166,AGK,E,G,C,pass,C+,61.5,52.5,57.6,43,106,288,0,1,48,97,66,67,108,200,0,0.969747,1.703456,0.755929,1.337929,1.123737,220388,0.635981,0.514692,186338.9,3132,248440.5,17754.63636,Yellow
7027,167,AGL,E,I,D,outstanding,A-,79.7,69.2,58.6,24,91,232,0,0,12,12,40,40,54,169,16,1.079287,1.770631,0.5547,0.933257,1.53859,219184,0.553927,0.510593,180286.2,7105.952381,139643.5,30097.63415,Green
7029,168,AGM,E,G,D,pass,B,73.3,57.2,65.3,22,118,293,0,1,71,46,21,21,71,238,11,1.024886,1.867455,0.511852,0.981109,1.557586,81232,0.549885,0.437682,85741,7212.15,181477.5,39836.47619,Green
7030,169,AGN,A,H,B,pass,B-,64.9,51.8,72.7,35,65,171,0,6,29,17,18,18,34,124,5,1.061587,1.96086,0.378415,0.886186,1.558301,198342,0.678925,0.602359,186032.8,7598.571429,80403.6,6974.444444,Green
7034,170,AGO,E,I,C,outstanding,A-,81.3,55,67.5,28,85,235,0,1,26,27,57,57,44,131,4,1.390456,1.581318,0.611469,1.005206,1.44975,220166,0.49414,0.527418,27945.7,9265.45,122950.9,10783.84746,Green
7035,171,AGP,C,G,F,pass,C+,61.7,45.2,70.3,37,99,273,0,1,49,23,51,54,79,253,7,0.784603,1.741966,0.711341,1.309232,1.725085,219917,0.532739,0.446977,192458.7,5822.363636,92340.1,25525.2549,Yellow
7036,172,AGQ,E,G,F,pass,B,70.2,53.8,66.9,42,160,492,0,1,36,38,105,104,165,372,29,1.352247,2.295559,0.688247,1.313626,1.800319,106626,0.519729,0.460473,66941.2,10316.75,104718.2,12846.66667,Green
7037,173,AGR,E,G,E,outstanding,A-,82.7,77.8,73.1,33,100,212,0,30,191,98,36,36,73,112,7,0.822885,1.708789,1.066374,1.207808,1.169972,81827,0.737336,0.638442,348020.1,5466.73913,95718.4,21841.80556,Green
7038,174,AGS,C,G,D,fail,D,54.2,47.2,51.6,28,84,240,0,0,38,38,84,84,118,125,11,1,1.805175,0.646768,0.921762,1.509534,76045,0.695095,0.613721,162519.5,8017.833333,180477.3,19916.65882,Red
7041,175,AGT,C,G,E,outstanding,B+,77,66.8,67.9,37,78,150,0,3,17,11,64,63,86,113,4,0.982708,1.559457,0.698106,0.861898,1.503995,213139,0.727725,0.588975,266336.7,4548.727273,91068.8,28894.21875,Green
7045,176,AGU,C,H,B,fail,E,-3.1,0,0,5,10,30,0,0,0,3,9,8,16,23,0,0.390434,0.441942,0,0.328521,0.411437,219293,0.545792,0.584671,-594755.2,3330,294125.6,5983.333333,Red
7050,177,AGV,F,I,A,outstanding,A-,81,73,75,26,83,146,0,0,10,10,16,16,39,94,2,0.947536,1.500775,0.668153,1.094797,1.123194,165754,0.654069,0.519486,691722.7,9874.1,97542.1,23894.1875,Green
7053,178,AGW,C,J,B,pass,C+,63.2,49.8,47.4,35,101,249,0,4,24,11,41,41,75,165,6,1.068619,1.65702,0.57735,1.091089,1.435,219701,0.63678,0.599407,274559,11160.47826,65207.1,3579.341463,Yellow
7056,179,AGX,E,G,C,outstanding,B+,76.1,64.1,57.7,30,130,302,1,27,238,161,40,38,83,265,19,0.958894,1.583345,0.95133,0.940937,1.27033,68859,0.548466,0.412788,1184529.4,41101,361837.9,65233.225,Green
7057,180,AGY,C,I,C,pass,B-,65.7,47.2,65.9,35,111,244,0,3,39,10,26,26,46,179,27,0.942541,1.881381,0.882498,1.013501,1.470725,47718,0.553421,0.532307,238999.9,8820.227273,81908.9,38180.73077,Green
7058,181,AGZ,E,I,E,outstanding,B+,76.9,62.5,79.5,30,70,113,0,3,16,21,24,23,46,69,4,0.644293,1.610183,0.439057,1.127668,1.095238,220444,0.790836,0.569414,288717.1,25011.1,77285.6,14356.75,Green
7059,182,AHA,C,I,F,outstanding,A-,83.1,79.5,68.5,35,140,295,0,14,108,70,41,42,88,286,23,1.19297,1.960187,0.682779,1.286902,1.192454,72254,0.536644,0.353103,1050058.3,10391.31579,120938.9,37224.4878,Green
7060,183,AHB,C,I,E,outstanding,B+,78.9,69.8,78,23,84,241,0,5,32,12,82,81,111,234,2,0.896258,1.717185,0.685365,1.430503,1.147059,219207,0.562204,0.472791,179926,29933.52632,117434.3,10345.54217,Green
7062,184,AHC,E,G,F,outstanding,B+,76.7,57.8,72.5,45,139,279,0,39,250,74,74,70,110,227,19,0.820191,2.216171,0.815445,1.173939,1.271654,-97110,0.637513,0.475062,224898.2,35361.7619,101255.2,34460.52,Green
7063,185,AHD,E,I,E,outstanding,A,85.9,82,69.3,62,102,254,0,10,133,50,31,29,55,166,2,0.683288,2.058587,0.6026,0.842177,1.672762,72572,0.564885,0.488328,177628.1,16956.19048,41030.6,7771.354839,Green
7064,186,AHE,F,I,E,outstanding,A,85.9,71.2,75,24,60,211,0,4,60,26,53,51,63,155,9,1.015346,1.671186,0.753778,1.143943,1.529862,-132254,0.583583,0.537857,301666,31918.71429,97139.9,7022.113208,Green
7069,187,AHF,E,I,A,outstanding,A-,79.6,57,78.6,31,76,179,0,10,48,45,29,28,62,99,6,1.227084,1.646086,0.608229,0.979816,1.434783,79351,0.672094,0.668406,330900.8,32157.65,159918.1,77454.51724,Green
7071,188,AHG,D,J,B,fail,D,53.5,53.2,44.6,36,88,209,0,0,10,9,36,35,46,180,6,0.868948,1.616855,0.40161,0.987935,1.097643,82010,0.53122,0.446162,148185,6002.45,79056.9,2982.166667,Red
7074,189,AHH,C,J,B,outstanding,B+,75.7,64.2,63.1,44,127,162,0,3,20,25,22,19,60,119,10,1.191714,2.095606,0.747435,1.097643,1.511667,81019,0.707404,0.509316,278528,5871.047619,114041.8,72132.59091,Green
7076,190,AHI,F,I,A,outstanding,A,94.5,98,78.2,39,85,199,0,4,44,37,51,53,91,108,3,0.905435,1.792211,0.586719,1.104756,1.299038,67836,0.692208,0.50532,342017.4,51128.6,133749.6,15503.31373,Green
7077,191,AHJ,C,G,D,pass,B,72.3,49.2,65.5,30,106,267,0,4,49,54,72,78,133,162,46,1.380002,1.909238,0.977462,1.30814,1.1795,153247,0.613543,0.509707,989953.9,5592.9,235452,36997.33333,Green
7093,192,AHK,E,I,D,outstanding,B+,75.6,51.2,70.8,27,58,208,0,0,6,5,72,74,113,151,22,1.00479,1.467265,0.57735,1.159539,1.452662,219699,0.609846,0.52847,236172.9,13712.65,160286.6,30574.16438,Green
7095,193,AHL,C,G,D,pass,C,59.1,50.8,59.1,30,77,190,0,0,21,25,69,71,71,120,24,1.081508,2.026328,0.565916,1.130981,1.503292,169277,0.722362,0.575145,339407.1,12763.70833,132456.5,7728.913043,Yellow
7097,194,AHM,E,I,C,outstanding,B+,76.7,45.2,79.3,26,95,267,2,10,81,84,108,109,136,182,21,1.075319,2.026394,0.8995,1.230681,1.409879,55321,0.606976,0.530399,212716.8,19709.5,241161.3,4389,Green
7100,195,AHN,E,I,A,outstanding,B+,75.2,71.2,63.5,25,72,232,0,0,59,32,39,38,82,192,4,1.194045,1.732888,0.785272,1.020861,1.441208,220152,0.56827,0.494343,86012.8,2434.428571,73702.2,9807.358974,Green
7104,196,AHO,C,G,F,pass,B,71,63.2,59.8,30,48,166,0,3,22,26,56,51,44,145,18,0.894427,1.880062,0.463595,1.045252,1.252189,59688,0.643809,0.502526,187110.1,16775.33333,98545.5,10148.83929,Green
7105,197,AHP,C,G,C,outstanding,A-,82.9,61.8,80.1,32,109,254,0,4,39,40,94,94,145,166,10,1.013219,1.578889,0.56954,1.354194,1.380651,63269,0.608535,0.521917,485998.8,18858.54762,158416.4,26074.67368,Green
7107,198,AHQ,C,J,B,fail,D,52.4,49.8,38.9,37,96,212,0,4,34,27,54,56,117,121,12,0.635943,1.492366,0.744784,0.877125,1.23695,220200,0.552095,0.559257,330610.9,4256.692308,138225.3,37181.39286,Red
7109,199,AHR,E,G,A,pass,C+,63.3,59.5,66.5,21,82,230,0,0,12,11,64,62,120,123,39,1.11136,2.047379,0.666667,1.310244,1.375096,72604,0.655857,0.621193,347885.1,7099.263158,234418.3,61209.15625,Yellow
7110,200,AHS,C,G,D,pass,B-,67.5,60.8,65.5,27,54,203,0,0,21,15,24,19,55,182,14,0.737309,1.846294,0.406181,1.253566,1.596737,68101,0.641352,0.454098,196077.5,6544.473684,111674.5,105993.625,Green
7112,201,AHT,F,G,C,pass,C+,59.5,54.8,55.5,31,149,349,0,8,111,70,21,21,36,229,58,0.95456,1.805288,1.011896,1.095445,1.428546,72103,0.620079,0.497827,103261.7,8910.136364,67730,2723.809524,Yellow
7113,202,AHU,C,I,E,outstanding,A-,83.2,61.8,79.6,26,44,119,0,2,8,6,29,27,59,71,1,1.142183,1.787303,0.496139,1.13693,1.287509,76101,0.603635,0.607621,201562.4,10986.15,76291.2,48540.7931,Green
7114,203,AHV,D,J,B,pass,B,70.4,67.2,54.8,25,47,119,0,3,18,18,31,30,66,83,1,0.730021,1.543373,0.522233,1.229837,0.970578,76301,0.708031,0.531256,315761.1,31949,84230.1,19428.80645,Green
7115,204,AHW,E,I,E,outstanding,A-,83.3,69.8,77.5,25,54,161,0,1,26,18,25,37,34,99,4,0.970495,2.061225,0.659126,1.07303,1.486245,136255,0.719965,0.634048,283236.1,36581.61364,107222.3,2988.24,Green
7116,205,AHX,F,G,A,outstanding,A-,80.8,70,73.8,26,90,198,0,0,23,24,85,84,134,121,4,0.941184,2.015796,0.754606,1.057251,1.730515,76403,0.679016,0.637849,101412.1,12485.78571,132590,13497.61176,Green
7117,206,AHY,E,G,F,outstanding,B+,79.4,55.8,78,21,49,165,0,2,30,29,97,102,146,67,6,1.220054,1.543945,0.593391,0.868555,1.056068,220822,0.65757,0.647077,187959.8,12062.47368,110136.1,20811.21649,Green
7119,207,AHZ,F,I,E,outstanding,B+,79.5,73.2,82.6,29,175,258,0,3,80,36,45,43,106,216,18,1.064445,2.085806,0.85848,1.237251,1.636364,77706,0.708108,0.506572,158291.1,20501.3913,147865.4,38826.04444,Green
7120,208,AIA,C,I,F,outstanding,A,91.2,65,80.9,48,88,143,0,4,26,14,38,38,69,88,0,1.022151,1.745331,0.453703,1.210526,1.286902,153720,0.639374,0.499866,296861.4,82545,120317.8,58182.81579,Green
7121,209,AIB,E,I,E,outstanding,B+,77,64.4,61.5,25,51,166,0,2,34,29,70,70,97,79,0,1.154035,1.953617,0.427276,1.360809,1.371685,219484,0.779212,0.652169,230173,12561,120765.6,12943.5,Green
7124,210,AIC,C,J,B,fail,D,50.4,45.2,49.5,34,78,298,0,4,56,29,31,30,47,229,15,0.713468,1.091056,0.716068,0.811673,1.052176,219497,0.472901,0.415904,268554.5,2990.846154,74285.4,16857.67742,Red
7125,211,AID,F,I,F,fail,E,22.9,0,0,15,87,193,0,0,24,20,29,27,75,152,5,0.86308,1.428846,0.784465,1.112485,1.222788,331842,0.525739,0.441406,42347.5,28794.64286,416173.5,52417.62069,Red
7126,212,AIE,C,G,E,fail,E,30,52.8,0,17,53,377,0,1,34,22,39,36,95,548,90,0.990871,1.578512,0.920602,1.051346,1.483532,220192,0.520409,0.322962,672920.1,9108.307692,205252.8,43732.87179,Red
7128,213,AIF,C,I,E,outstanding,B+,77.6,65,55.5,26,70,102,0,2,24,13,18,18,44,93,0,0.874727,1.426608,0.560112,1.067157,0.854218,219490,0.683896,0.561145,219569.3,8219.136364,80604.7,3347,Green
7130,214,AIG,E,I,C,outstanding,A-,81.9,67,63.3,32,69,196,0,2,31,20,32,32,67,137,5,1.085437,2.173489,0.622872,1.178344,1.647258,107902,0.751704,0.584281,237126.3,10307.4,132253.3,60177.125,Green
7131,215,AIH,C,G,A,pass,B-,69.4,53.2,65.7,38,102,264,0,4,46,18,84,101,158,117,13,0.948847,1.588748,0.736968,1.306008,1.208758,110883,0.537331,0.591024,150713.2,21945.7619,175589.7,26683.07143,Green
7133,216,AII,E,G,D,pass,C,58,53.2,46,31,56,122,0,0,3,3,30,28,54,112,5,0.818938,1.521675,0.447214,0.777482,1.370345,133958,0.723904,0.58264,203032.7,3637.5,68328.1,19585.4,Yellow
7134,217,AIJ,F,G,C,outstanding,A,85.3,75.2,64.2,27,71,154,0,0,9,8,58,58,80,125,1,0.955195,1.836982,0.468521,1.359255,1.634441,133915,0.671691,0.628462,282273.9,25070.33333,125261.4,1031.293103,Green
7135,218,AIK,C,J,B,fail,D,51.3,38.2,45.6,26,85,227,0,3,28,20,44,48,86,164,5,0.782455,1.473622,0.775388,1.043825,1.197623,110427,0.540563,0.464494,224080,5237.052632,80603.2,7314.772727,Red
7136,219,AIL,E,I,F,pass,B,70.3,53.8,67.7,28,60,217,0,1,18,26,37,34,65,167,24,0.778499,2.055879,0.904534,1.181038,2.215665,157281,0.508029,0.486615,169948.2,3025.184211,130404.6,27922.81081,Green
7137,220,AIM,E,I,D,pass,C+,61.5,49.5,45.8,32,71,179,0,3,11,17,24,24,46,157,2,1.101205,1.666505,0.333947,0.825652,1.405094,111187,0.653674,0.500928,270185.7,2353.347826,92005.7,3078.125,Yellow
7139,221,AIN,E,G,F,pass,B,69.9,58,63.6,28,45,63,0,1,4,4,16,15,12,79,0,1.182166,1.364097,0.417029,0.603023,0.947417,112812,0.762618,0.602165,187067.5,7481.947368,70796.2,14459.5,Green
7143,222,AIO,D,J,B,pass,C,58.3,49.8,50.6,33,85,348,0,6,31,22,55,57,123,221,15,0.951221,1.717812,0.673754,1.319837,0.687327,119395,0.527636,0.408694,271836.1,38814.28571,259058.3,16456.05455,Yellow
7144,223,AIP,A,H,B,fail,D,50.4,33.8,44.7,33,78,174,0,0,6,3,39,34,64,113,19,0.693889,2.087466,0.353553,1.070839,1.727861,219102,0.656292,0.60954,218757.6,31326.12,149250.9,74111.97436,Red
7146,224,AIQ,E,I,E,outstanding,A,85.3,74.8,70.5,27,68,176,0,3,22,18,32,30,58,134,6,0.812523,1.635812,0.851206,1.134858,1.491469,219629,0.756501,0.572942,375106.4,25399.65,104206.9,31301.3125,Green
7151,225,AIR,C,I,F,outstanding,A-,84.2,65.8,78.5,26,77,189,0,5,31,26,33,32,63,169,14,1.230308,1.712741,0.542193,1.375756,1.310235,133989,0.619734,0.414184,209947.1,3807.571429,104803.7,43246.06061,Green
7152,226,AIS,E,G,A,outstanding,A,86.1,82,72.3,25,52,152,0,3,14,18,38,35,92,113,3,1.323365,1.799352,0.527645,1.036394,1.258902,134187,0.709589,0.548474,500600.2,59082.55,159498.4,42214.5,Green
7154,227,AIT,E,I,F,outstanding,B+,78,63.5,70.9,32,73,180,0,7,61,31,26,26,52,122,1,1.065154,1.856953,0.816241,0.924454,1.082916,209743,0.672463,0.553016,264148.8,20153.7,84568.6,5436.423077,Green
7157,228,AIU,C,G,A,outstanding,B+,75.9,54.8,72,28,67,265,0,0,14,11,20,20,59,96,2,1.134941,2.115672,0.658505,1.578534,1.199251,301315,0.700774,0.697378,183552.3,75445.23684,251108.2,49784.9,Green
7159,229,AIV,C,G,C,pass,C+,61.1,64,39.6,33,56,194,0,1,19,30,30,30,50,204,5,0.938562,1.679669,0.668004,0.721087,1.511484,218741,0.532548,0.429331,231451,5285.3,89458.4,16711.33333,Yellow
7161,230,AIW,C,J,B,pass,C+,61.5,56.2,49.3,29,73,125,0,3,15,4,20,18,25,138,7,0.978918,2.088853,0.780869,0.831028,1.890588,170398,0.746467,0.52873,821728.5,103292.7143,83601.1,2064.3,Yellow
7163,231,AIX,C,J,B,outstanding,B+,77,65.5,63.4,38,86,241,0,10,68,44,19,19,65,190,16,0.978537,1.670512,0.76313,1.312395,1.234287,219229,0.655155,0.546148,246735.5,10714.79167,160328.8,78841.42105,Green
7164,232,AIY,C,G,F,pass,B,74,59.2,69.6,32,76,236,0,3,34,28,26,24,47,182,1,1.238765,1.686575,0.886186,0.844009,1.832875,149018,0.548189,0.477497,191347,7740.7,85071.8,51893.96154,Green
7167,233,AIZ,F,G,E,outstanding,A-,83.6,73.8,79.3,29,114,213,0,3,40,45,49,51,78,191,11,0.758183,1.832601,0.738213,1.008996,1.252331,157353,0.606548,0.48814,48022.9,18949.85,89936,18156.38776,Green
7168,234,AJA,C,G,F,outstanding,A-,80.7,64.2,68.6,32,78,291,0,3,45,20,31,31,71,190,8,1.024544,2.418208,1.047645,1.223956,1.675456,159052,0.62137,0.502118,122236.9,2864.666667,93422.6,42942.93548,Green
7169,235,AJB,E,I,C,outstanding,B+,75.9,72.2,56.3,28,99,466,2,5,86,75,30,29,80,233,15,1.140647,2.47355,0.805605,1.077154,1.809685,158957,0.576077,0.586045,1212052.5,41689.275,164556,74305,Green
7171,236,AJC,D,J,B,pass,B,74,70.8,55,27,46,121,0,6,22,8,28,27,42,89,2,1.041161,1.483463,0.537385,0.763763,1.3864,163338,0.771485,0.5993,186123.2,10066.19048,70465.9,5225.428571,Green
7173,237,AJD,E,G,F,pass,B,69.7,46.8,66.8,30,70,332,0,1,46,35,41,42,67,238,15,0.819064,1.757524,0.816239,1.317785,1.371445,164470,0.539357,0.432311,206463.2,8470.333333,78425.7,5230.585366,Green
7176,238,AJE,C,H,B,pass,B,69.5,53.8,62.8,43,74,124,0,5,33,15,15,13,25,127,4,0.857456,1.484205,0.660926,0.746685,1.342807,219114,0.703329,0.540861,253766,4500.695652,91094.2,31030.73333,Green
7179,239,AJF,E,I,F,pass,C,57.6,70.5,64,19,84,160,0,0,20,12,20,19,57,115,3,0.925146,1.971855,0.655122,1.19452,1.231727,220063,0.595308,0.47881,216810.8,4322.25,105179.3,47041.2,Yellow
7182,240,AJG,C,I,D,outstanding,A-,82.3,75.5,67.2,30,122,209,0,1,33,30,36,37,43,143,14,1.274434,1.615116,0.800132,1.244939,1.265883,198271,0.671626,0.575855,64309.7,8040.404762,72098.8,12789.47222,Green
7185,241,AJH,C,I,A,pass,B,69.5,55.8,54.3,30,78,118,0,0,3,6,17,17,26,135,0,0.966282,1.757479,0.333333,0.846228,0.635824,211269,0.674789,0.395737,364550.4,4710.571429,64238.8,26664.76471,Green
7187,242,AJI,F,G,A,pass,C+,63.3,58.8,61.2,28,70,313,0,3,31,34,48,45,89,132,29,0.844416,1.460307,0.651946,0.773796,1.351449,209940,0.501856,0.52849,742066.4,34709.35,114942.9,31907.22917,Yellow
7193,243,AJJ,E,I,A,pass,B,71.8,61.2,52.8,35,73,163,0,1,14,26,27,26,60,127,0,0.737073,1.670499,0.541676,1.162476,1.385271,219532,0.601576,0.60103,287218.3,26918.58333,130856.7,126255.0741,Green
7194,244,AJK,A,H,B,pass,B,70.6,60.8,44.9,31,64,151,0,1,21,12,21,21,27,157,30,0.985199,1.56943,0.616316,1.152332,1.415334,219076,0.708853,0.488493,111161.2,47307.90476,62516.2,6080.809524,Green
7195,245,AJL,E,G,C,pass,B-,66.4,53.8,60.5,33,128,325,0,2,51,38,132,130,154,221,7,0.805239,2.181601,1.006993,0.968573,1.20924,219053,0.517778,0.447346,435762.4,6573.222222,134415.1,26423.18797,Green
7196,246,AJM,C,J,B,fail,E,37.8,27.5,27.2,24,67,125,0,2,15,16,11,8,14,103,0,1.011789,1.25522,0.389249,0.307562,1.071233,219409,0.39593,0.405744,176065.8,3843.894737,71614.6,8300.363636,Red
7197,247,AJN,C,G,D,fail,E,-5,0,0,0,0,2,0,0,0,0,0,0,0,0,0,0,0.242536,0,0,0,219561,0,0,0,0,0,0,Red
7198,248,AJO,E,I,C,pass,B,73.4,53.2,64,35,65,148,0,1,15,10,47,46,69,151,2,0.980246,2.003662,0.478913,1.062041,1.528375,219160,0.611618,0.482041,244513.6,21734.70455,87321.8,37967.57447,Green
7199,249,AJP,E,I,C,pass,C+,62.7,52.8,60.5,29,106,209,0,0,8,4,35,35,53,179,1,0.902855,1.56227,0.464991,0.997164,1.852066,219231,0.613711,0.565423,102218,5552.454545,108449.4,18169.02778,Yellow
7200,250,AJQ,E,G,A,outstanding,B+,77.6,72.2,62.2,30,64,171,0,3,24,28,52,54,91,94,24,1.255143,1.85421,0.730297,1.16504,1.892149,219117,0.678029,0.664201,179582.9,3959.809524,103577.4,36020.40385,Green
7201,251,AJR,E,I,E,outstanding,A-,81,63.1,74.3,42,114,177,0,2,24,18,39,35,55,189,3,0.751628,1.404364,0.632456,0.969097,0.731718,219242,0.609902,0.432645,13188.2,4881,108523.3,51334.48718,Green
7202,252,AJS,F,G,C,fail,D,43.1,41.2,37.3,28,69,114,0,0,10,7,46,46,70,124,7,0.873698,1.452966,0.30317,0.882197,1.345602,510745,0.728192,0.513616,215423,2512.608696,108535.8,15487.95652,Red
7203,253,AJT,A,H,B,pass,B-,68.7,55.8,61.2,18,84,172,0,0,6,6,33,33,59,134,7,1.0293,1.794395,0.57735,1.393355,1.615044,219433,0.681789,0.604113,408223,15403.29412,90459.4,15254.48485,Green
7204,254,AJU,F,I,D,outstanding,A-,81.6,73.2,66.2,25,80,136,0,0,3,4,26,28,49,102,7,1.028009,1.737319,0.447214,1.047305,1.327477,219422,0.709064,0.618072,157923.6,25635.95238,84703.3,1572.307692,Green
7205,255,AJV,E,I,D,outstanding,B+,78,56.5,67.4,36,69,132,0,4,29,25,28,29,42,208,6,1.217289,1.48324,0.633889,0.875,0.88104,219598,0.73969,0.425538,232535.9,39909.975,139989.8,32797.85714,Green
7206,256,AJW,E,I,A,pass,B,73.6,71.2,60.3,25,95,161,0,0,26,37,27,27,65,176,10,0.875846,1.610886,0.659126,0.811676,0.614919,419043,0.637049,0.396268,87351.4,2815.842105,130985.9,13778.77778,Green
7207,257,AJX,E,G,D,pass,C,57.5,52.8,61.6,32,66,170,1,14,76,53,55,52,72,101,4,0.98387,1.522721,0.582688,0.776215,1.144995,221866,0.637174,0.512921,196684.9,4324.086957,108955.3,18101.78182,Yellow
7208,258,AJY,C,G,A,pass,B-,66.5,54,59.1,24,99,229,0,0,24,13,44,43,80,169,7,1.19001,1.864996,0.942809,1.095171,1.486292,509215,0.532755,0.471623,268865.8,5370.409091,81772.5,9879.363636,Green
7209,259,AJZ,C,J,B,pass,C,57,48.8,63,32,183,289,0,5,31,9,51,46,97,220,22,0.610458,1.364286,0.724861,1.128747,1.373606,220115,0.505683,0.420464,687177.7,3176.72,79126,15242.21569,Yellow
7215,260,AKA,E,I,F,outstanding,A,93.8,87.5,81,28,97,196,6,24,127,100,46,47,86,220,9,1.351269,1.91532,0.969692,1.375692,0.861006,397359,0.611848,0.398871,578422.9,7162.571429,357055,19979.08696,Green
