Lambda,Accuracy(%),FGreen,FYellow,FRed,FMean,,,,,,
0,64.60606061,0.663729931,0.557912457,0.710115896,0.643919428,,,,,,
0.01,65.53535354,0.670835548,0.581204419,0.713490783,0.655176917,,,,,,
0.02,66.44949495,0.677413525,0.583563146,0.723247497,0.661408056,,68.71212121,0.707444989,0.632607777,0.749536125,0.685428967
0.03,66.8989899,0.68910362,0.586020897,0.724906934,0.66667715,,,,,,
0.04,65.53535354,0.666863811,0.561842641,0.72679683,0.651834428,,,,,,
0.05,66.00505051,0.675431143,0.577179768,0.722522155,0.658377689,,,,,,
0.06,64.62626263,0.660491022,0.557368169,0.707949172,0.641936121,,,,,,
0.07,66.22222222,0.68147557,0.570928373,0.7229272,0.658443714,,,,,,
0.08,68.03030303,0.694525444,0.610618066,0.728423579,0.677855696,,,,,,
0.09,66.23737374,0.688535342,0.56596505,0.725470702,0.659990365,,,,,,
0.1,67.8030303,0.707444989,0.60218189,0.721992748,0.677206542,,,,,,
0.11,66.67676768,0.681539725,0.580257944,0.721373877,0.661057182,,,,,,
0.12,65.75757576,0.685765014,0.566061078,0.714661573,0.655495888,,,,,,
0.13,65.75757576,0.684230408,0.578092384,0.701817606,0.654713466,,,,,,
0.14,65.06060606,0.674240222,0.558135781,0.71085554,0.647743848,,,,,,
0.15,66.88888889,0.6954417,0.577932942,0.720395422,0.664590021,,,,,,
0.16,65.74242424,0.685710658,0.579837473,0.701309966,0.655619366,,,,,,
0.17,65.99494949,0.676604734,0.57934917,0.710512863,0.655488922,,,,,,
0.18,66.22222222,0.674507465,0.57880998,0.727163557,0.660160334,,,,,,
0.19,67.35858586,0.67091639,0.609396452,0.730377434,0.670230092,,,,,,
0.2,65.31313131,0.665227289,0.555828935,0.726874607,0.649310277,,,,,,
0.21,66.91919192,0.674555674,0.599164155,0.723759796,0.665826542,,,,,,
0.22,65.54040404,0.656652762,0.575251733,0.725209334,0.652371277,,,,,,
0.23,65.77272727,0.682569231,0.568923701,0.714236755,0.655243229,,,,,,
0.24,65.99494949,0.672375844,0.583690295,0.716966963,0.657677701,,,,,,
0.25,65.10606061,0.67393315,0.554436551,0.719476438,0.649282046,,,,,,
0.26,67.31313131,0.686910546,0.588042431,0.732857639,0.669270205,,,,,,
0.27,65.53030303,0.667145594,0.575851117,0.714686278,0.652560996,,,,,,
0.28,66.42424242,0.676818752,0.588823765,0.714315132,0.659985883,,,,,,
0.29,66.43939394,0.683158183,0.601762971,0.705429372,0.663450175,,,,,,
0.3,67.58080808,0.686513729,0.599606836,0.732163404,0.672761323,,,,,,
0.31,66.2020202,0.679006394,0.575828681,0.719207763,0.658014279,,,,,,
0.32,66.64141414,0.691061212,0.590287831,0.712741447,0.66469683,,,,,,
0.33,66.01515152,0.68025768,0.57824647,0.717437201,0.658647117,,,,,,
0.34,65.75252525,0.665344532,0.570382594,0.724897058,0.653541395,,,,,,
0.35,66.44444444,0.667950832,0.578292769,0.734832895,0.660358832,,,,,,
0.36,65.78282828,0.684261884,0.573000707,0.713161822,0.656808137,,,,,,
0.37,65.77272727,0.670687831,0.566258645,0.719612447,0.652186308,,,,,,
0.38,65.98989899,0.683842779,0.579175462,0.71604996,0.6596894,,,,,,
0.39,66.88383838,0.684168123,0.59149288,0.724942208,0.666867737,,,,,,
0.4,67.13131313,0.685135919,0.583727257,0.733672806,0.667511994,,,,,,
0.41,66.22727273,0.663889589,0.595748298,0.712231007,0.657289631,,,,,,
0.42,66.46464646,0.662752166,0.58641983,0.732457641,0.660543212,,,,,,
0.43,66.43434343,0.688388045,0.590853269,0.711142333,0.663461216,,,,,,
0.44,66.90909091,0.690861265,0.586510489,0.727386464,0.668252739,,,,,,
0.45,65.53030303,0.671290018,0.568515904,0.709026376,0.649610766,,,,,,
0.46,66.66161616,0.668392605,0.58060648,0.738433811,0.662477632,,,,,,
0.47,66.21717172,0.672253091,0.581305057,0.729121303,0.66089315,,,,,,
0.48,65.75757576,0.668730267,0.566260639,0.720004421,0.651665109,,,,,,
0.49,65.77777778,0.67278091,0.57195508,0.726514188,0.657083393,,,,,,
0.5,67.11616162,0.679740534,0.595533937,0.730165155,0.668479876,,,,,,
0.51,66.45959596,0.662122673,0.608796527,0.718273818,0.663064339,,,,,,
0.52,66,0.650010664,0.586247722,0.734385202,0.656881196,,,,,,
0.53,67.56565657,0.680074309,0.615559808,0.729095495,0.67490987,,,,,,
0.54,66.42929293,0.680340707,0.590811859,0.719510849,0.663554472,,,,,,
0.55,66.88888889,0.684937526,0.583714815,0.727802938,0.665485093,,,,,,
0.56,67.33838384,0.68626372,0.595053315,0.730003184,0.670440073,,,,,,
0.57,65.56060606,0.662258551,0.585714284,0.706600327,0.651524388,,,,,,
0.58,66.41414141,0.67677175,0.586211496,0.720622128,0.661201791,,,,,,
0.59,65.75757576,0.670048313,0.571433497,0.717697258,0.653059689,,,,,,
0.6,66.44444444,0.682895357,0.586113402,0.715414635,0.661474465,,,,,,
0.61,65.98484848,0.667207442,0.585678398,0.719980034,0.657621958,,,,,,
0.62,65.97474747,0.658323416,0.576527749,0.73561229,0.656821152,,,,,,
0.63,65.96464646,0.670314336,0.579360958,0.7103053,0.653326865,,,,,,
0.64,66.42929293,0.671167369,0.5914106,0.718438508,0.660338826,,,,,,
0.65,66.43434343,0.679429458,0.592857338,0.719863658,0.664050152,,,,,,
0.66,66.65656566,0.675521358,0.592908086,0.717033695,0.661821046,,,,,,
0.67,65.2979798,0.657002353,0.571231129,0.720535069,0.649589517,,,,,,
0.68,66.65656566,0.668109949,0.591218287,0.728832781,0.662720339,,,,,,
0.69,67.57070707,0.700897465,0.601372033,0.718913838,0.673727779,,,,,,
0.7,67.34848485,0.691721827,0.598711298,0.717992529,0.669475218,,,,,,
0.71,67.57070707,0.69468217,0.603168768,0.719298105,0.672383014,,,,,,
0.72,65.57575758,0.67229162,0.561459679,0.717919401,0.6505569,,,,,,
0.73,67.59090909,0.684362502,0.596590209,0.735256342,0.672069684,,,,,,
0.74,66.44949495,0.672979099,0.578921921,0.735326729,0.66240925,,,,,,
0.75,67.81818182,0.690628211,0.611505512,0.73258333,0.678239018,,,,,,
0.76,66.42424242,0.666080201,0.599137312,0.721309603,0.662175705,,,,,,
0.77,66.67171717,0.68242914,0.592779298,0.719806803,0.66500508,,,,,,
0.78,66.64646465,0.682118189,0.596831389,0.716598112,0.665182563,,,,,,
0.79,64.84343434,0.654316436,0.573585776,0.712238797,0.64671367,,,,,,
0.8,67.11111111,0.691732328,0.598555482,0.71896022,0.669749343,,,,,,
0.81,66.45454545,0.668715865,0.597723125,0.711945521,0.659461503,,,,,,
0.82,66.67171717,0.678949209,0.595574,0.728163036,0.667562082,,,,,,
0.83,66.69191919,0.673213828,0.595256879,0.724154586,0.664208431,,,,,,
0.84,65.2979798,0.669398416,0.563556422,0.70940984,0.647454893,,,,,,
0.85,66.43434343,0.665606838,0.592364492,0.719238995,0.659070109,,,,,,
0.86,67.34848485,0.685451423,0.599026587,0.728174106,0.670884038,,,,,,
0.87,67.80808081,0.698224459,0.601847572,0.724285687,0.674785906,,,,,,
0.88,65.99494949,0.664222991,0.578970456,0.728642006,0.657278484,,,,,,
0.89,68.25252525,0.700044082,0.606945131,0.730825427,0.679271547,,,,,,
0.9,65.75252525,0.66887344,0.586053806,0.712540761,0.655822669,,,,,,
0.91,66,0.681846741,0.581892499,0.707734994,0.657158078,,,,,,
0.92,66.44949495,0.67501774,0.599801982,0.71782471,0.664214811,,,,,,
0.93,65.98989899,0.647912501,0.59274867,0.730195413,0.656952194,,,,,,
0.94,66.66666667,0.677718704,0.590775353,0.724157867,0.664217308,,,,,,
0.95,66.21717172,0.666650041,0.594514866,0.71805549,0.659740132,,,,,,
0.96,65.75757576,0.667860949,0.58327308,0.718181034,0.656438355,,,,,,
0.97,65.30808081,0.65916368,0.570219853,0.724192251,0.651191928,,,,,,
0.98,66.44949495,0.666016367,0.591636467,0.729679376,0.66244407,,,,,,
0.99,66.66666667,0.680066913,0.58722423,0.723675908,0.663655684,,,,,,
1,67.58080808,0.697292452,0.596736628,0.722620509,0.672216529,,,,,,
1.01,67.10606061,0.691573569,0.603794681,0.715071262,0.670146504,,,,,,
1.02,66.64141414,0.69020775,0.59835602,0.702129009,0.66356426,,,,,,
1.03,66.68686869,0.672564002,0.592839638,0.728164267,0.664522636,,,,,,
1.04,65.52525253,0.661118813,0.581494598,0.70718276,0.649932057,,,,,,
1.05,65.74747475,0.670970997,0.57044184,0.717913081,0.653108639,,,,,,
1.06,67.11111111,0.67489482,0.603466107,0.726006465,0.668122464,,,,,,
1.07,64.64646465,0.66643015,0.559282457,0.707825099,0.644512569,,,,,,
1.08,66.23737374,0.672053229,0.588077568,0.718831117,0.659653971,,,,,,
1.09,65.76262626,0.660326027,0.582779992,0.719066619,0.654057546,,,,,,
1.1,65.75252525,0.685457416,0.57084868,0.711902396,0.656069497,,,,,,
1.11,66.44949495,0.672188771,0.598209945,0.720498053,0.663632256,,,,,,
1.12,64.86363636,0.660528825,0.57163258,0.710838288,0.647666565,,,,,,
1.13,65.77777778,0.666359784,0.57979651,0.720726419,0.655627571,,,,,,
1.14,66.89393939,0.684373399,0.600179859,0.718835155,0.667796138,,,,,,
1.15,65.97979798,0.668678159,0.582315719,0.71820975,0.656401209,,,,,,
1.16,65.51010101,0.659666599,0.577252807,0.718133641,0.651684349,,,,,,
1.17,66.1969697,0.678583704,0.583253719,0.720811579,0.660883001,,,,,,
1.18,66.42929293,0.677421,0.583794959,0.719253138,0.660156366,,,,,,
1.19,66.42929293,0.668970713,0.582774194,0.720322514,0.657355807,,,,,,
1.2,66.62626263,0.680155927,0.593658821,0.719678477,0.664497742,,,,,,
1.21,65.54545455,0.664936636,0.584994802,0.710769063,0.653566834,,,,,,
1.22,65.07575758,0.659538302,0.576508276,0.70524667,0.647097749,,,,,,
1.23,66.21717172,0.676092542,0.584883963,0.717563833,0.659513446,,,,,,
1.24,66.25252525,0.660932307,0.582729659,0.728260432,0.657307466,,,,,,
1.25,66.00505051,0.668291517,0.578364188,0.727483167,0.658046291,,,,,,
1.26,66.01515152,0.671359204,0.585345694,0.717516354,0.658073751,,,,,,
1.27,67.35858586,0.683445046,0.601207901,0.731039427,0.671897458,,,,,,
1.28,65.97979798,0.669838259,0.575860749,0.718823199,0.654840736,,,,,,
1.29,65.98484848,0.664363799,0.581516255,0.725839881,0.657239979,,,,,,
1.3,66.65151515,0.671328674,0.588786667,0.728248484,0.662787942,,,,,,
1.31,67.34848485,0.695190499,0.605008083,0.716771166,0.672323249,,,,,,
1.32,65.97474747,0.673083275,0.581215879,0.71305724,0.655785465,,,,,,
1.33,67.10606061,0.704095273,0.598747875,0.704847786,0.669230311,,,,,,
1.34,68.71212121,0.701434083,0.620263182,0.734589636,0.685428967,,,,,,
1.35,65.76262626,0.664852097,0.590302424,0.713434547,0.656196356,,,,,,
1.36,65.97979798,0.673413289,0.592738016,0.708160786,0.65810403,,,,,,
1.37,67.14646465,0.679374512,0.595089887,0.72734355,0.667269317,,,,,,
1.38,66.21717172,0.666602997,0.600659737,0.705060022,0.657440919,,,,,,
1.39,67.37373737,0.676729987,0.605973186,0.737338172,0.673347115,,,,,,
1.4,65.75252525,0.654296205,0.592583132,0.717788719,0.654889352,,,,,,
1.41,67.12626263,0.67043555,0.611927048,0.719609457,0.667324018,,,,,,
1.42,65.08080808,0.664804803,0.570659479,0.714156878,0.64987372,,,,,,
1.43,65.96464646,0.672614268,0.58621819,0.7081112,0.655647886,,,,,,
1.44,65.78282828,0.680311111,0.590381719,0.700477639,0.657056823,,,,,,
1.45,66.42929293,0.676075674,0.596269796,0.714693111,0.662346194,,,,,,
1.46,67.8030303,0.683015466,0.606278084,0.732210317,0.673834622,,,,,,
1.47,67.36363636,0.674885055,0.622283085,0.716609195,0.671259112,,,,,,
1.48,66.21212121,0.66173807,0.590457037,0.727152758,0.659782622,,,,,,
1.49,66.44444444,0.671264368,0.600739631,0.715803536,0.662602512,,,,,,
1.5,66.45959596,0.675574826,0.597352549,0.719291868,0.664073081,,,,,,
1.51,65.77777778,0.676224784,0.582676507,0.712608424,0.657169905,,,,,,
1.52,67.13131313,0.685980889,0.599540826,0.723281913,0.669601209,,,,,,
1.53,65.53030303,0.649467553,0.574986128,0.731757622,0.652070434,,,,,,
1.54,66.45959596,0.665401323,0.594238417,0.729847473,0.663162405,,,,,,
1.55,66.21717172,0.674116238,0.588525427,0.722467253,0.661702973,,,,,,
1.56,65.96464646,0.66326002,0.58824992,0.715861305,0.655790415,,,,,,
1.57,65.56060606,0.659439586,0.57886996,0.723881892,0.654063813,,,,,,
1.58,67.0959596,0.682800948,0.596446312,0.723570511,0.667605924,,,,,,
1.59,67.13636364,0.667432869,0.591002827,0.736470387,0.664968695,,,,,,
1.6,67.33838384,0.688586554,0.587373272,0.741906025,0.67262195,,,,,,
1.61,67.33333333,0.683956266,0.598063007,0.733537509,0.671852261,,,,,,
1.62,65.97979798,0.668573762,0.578877183,0.719176439,0.655542462,,,,,,
1.63,64.85353535,0.667144543,0.564969143,0.71122538,0.647779689,,,,,,
1.64,64.17171717,0.656088954,0.558473876,0.698589534,0.637717454,,,,,,
1.65,66.69191919,0.679953744,0.586949943,0.716165276,0.661022988,,,,,,
1.66,65.53535354,0.63951932,0.588763787,0.723982028,0.650755045,,,,,,
1.67,65.56565657,0.649392724,0.573210573,0.738586481,0.653729926,,,,,,
1.68,66.23737374,0.666364567,0.592274561,0.723771921,0.660803683,,,,,,
1.69,66.67171717,0.67651408,0.602800624,0.712771432,0.664028712,,,,,,
1.7,65.2979798,0.661425393,0.580904902,0.711966961,0.651432419,,,,,,
1.71,67.56565657,0.687217742,0.59958132,0.726135293,0.670978119,,,,,,
1.72,68.24747475,0.685178346,0.622440402,0.734112806,0.680577185,,,,,,
1.73,67.34343434,0.685029343,0.605274744,0.72840653,0.672903539,,,,,,
1.74,65.75757576,0.662551843,0.588976089,0.706687694,0.652738542,,,,,,
1.75,66.21717172,0.676566512,0.600368644,0.704849548,0.660594901,,,,,,
1.76,66.87878788,0.676668884,0.604932606,0.715931243,0.665844244,,,,,,
1.77,67.58080808,0.683035505,0.604301256,0.738755629,0.67536413,,,,,,
1.78,66.66161616,0.666511071,0.616638263,0.708773041,0.663974125,,,,,,
1.79,67.57575758,0.693521691,0.612879981,0.708940793,0.671780822,,,,,,
1.8,66.8989899,0.670076188,0.599499084,0.729334714,0.666303329,,,,,,
1.81,66.66161616,0.6823492,0.596802538,0.714721951,0.664624563,,,,,,
1.82,66.22727273,0.671158217,0.589199515,0.719375321,0.659911018,,,,,,
1.83,65.7979798,0.668241721,0.588730878,0.712088418,0.656353672,,,,,,
1.84,67.34848485,0.68511961,0.599134643,0.731834005,0.672029419,,,,,,
1.85,66.44949495,0.670469878,0.601960269,0.715637206,0.662689118,,,,,,
1.86,67.58080808,0.679048726,0.604336309,0.738431127,0.67393872,,,,,,
1.87,66.65151515,0.671391367,0.606482116,0.717508582,0.665127355,,,,,,
1.88,65.53030303,0.668605476,0.561773855,0.721379897,0.65058641,,,,,,
1.89,66.23232323,0.671011573,0.575996853,0.719006344,0.655338257,,,,,,
1.9,66.9040404,0.666817448,0.606175567,0.720270095,0.664421037,,,,,,
1.91,68.26262626,0.687763073,0.624936912,0.73427067,0.682323552,,,,,,
1.92,66.43939394,0.68249185,0.583739641,0.719058354,0.661763282,,,,,,
1.93,67.80808081,0.685607407,0.60703298,0.730660817,0.674433735,,,,,,
1.94,66.88888889,0.68181955,0.601021074,0.722798722,0.668546449,,,,,,
1.95,66.66666667,0.671054049,0.600031313,0.721214186,0.664099849,,,,,,
1.96,66.20707071,0.661287037,0.592173396,0.720371449,0.657943961,,,,,,
1.97,65.97474747,0.666676806,0.585930289,0.716087709,0.656231601,,,,,,
1.98,67.34848485,0.668443141,0.611701149,0.727090556,0.669078282,,,,,,
1.99,65.1010101,0.655303189,0.579366655,0.71706258,0.650577475,,,,,,
2,66.45454545,0.666396715,0.593974564,0.727209532,0.662526937,,,,,,
2.01,65.76767677,0.676313938,0.581044974,0.712362953,0.656573955,,,,,,
2.02,66.44444444,0.668840246,0.592306229,0.721100824,0.6607491,,,,,,
2.03,66.43434343,0.669232348,0.604559808,0.716633964,0.663475373,,,,,,
2.04,67.81313131,0.689054476,0.61077272,0.729084549,0.676303915,,,,,,
2.05,65.56060606,0.665223789,0.580017293,0.715991582,0.653744221,,,,,,
2.06,66.22222222,0.665192368,0.588084441,0.718678455,0.657318421,,,,,,
2.07,67.35353535,0.683163815,0.598814167,0.729436347,0.670471443,,,,,,
2.08,67.34848485,0.681982245,0.60552356,0.7255982,0.671034668,,,,,,
2.09,66.20707071,0.655367885,0.597844479,0.729388712,0.660867025,,,,,,
2.1,67.33838384,0.686044212,0.609218153,0.718858823,0.671373729,,,,,,
2.11,67.11111111,0.677633819,0.611621967,0.717822749,0.669026178,,,,,,
2.12,66.18181818,0.667332309,0.585867723,0.725405844,0.659535292,,,,,,
2.13,66.67171717,0.684370302,0.602843709,0.713419468,0.666877826,,,,,,
2.14,66.88888889,0.667751923,0.596690246,0.734369724,0.666270631,,,,,,
2.15,65.98484848,0.670054591,0.587308951,0.714428919,0.657264153,,,,,,
2.16,65.75757576,0.663131706,0.574202141,0.727189903,0.65484125,,,,,,
2.17,66.43434343,0.675414485,0.591213363,0.719938562,0.662188803,,,,,,
2.18,66.65151515,0.674516897,0.606045977,0.713130704,0.664564526,,,,,,
2.19,67.80808081,0.686667541,0.608233421,0.729324675,0.674741879,,,,,,
2.2,66.46464646,0.677088353,0.596027848,0.713120787,0.662078996,,,,,,
2.21,67.8030303,0.683486818,0.608739,0.732263821,0.67482988,,,,,,
2.22,66.65656566,0.679440178,0.595642322,0.716010222,0.663697574,,,,,,
2.23,67.15151515,0.692056812,0.592997694,0.726217615,0.670424041,,,,,,
2.24,66.44444444,0.662900869,0.591947734,0.728147562,0.660998721,,,,,,
2.25,66.43939394,0.676090203,0.588632095,0.722213835,0.662312045,,,,,,
2.26,67.1010101,0.671299076,0.603889312,0.733136826,0.669441738,,,,,,
2.27,65.75757576,0.672538798,0.575430572,0.720427211,0.656132194,,,,,,
2.28,65.74747475,0.660080483,0.58489135,0.72401814,0.656329991,,,,,,
2.29,67.6010101,0.677763813,0.60828996,0.735769944,0.673941239,,,,,,
2.3,65.75757576,0.674663428,0.580049644,0.707092881,0.653935318,,,,,,
2.31,65.3030303,0.673534552,0.573763843,0.703839655,0.65037935,,,,,,
2.32,65.97474747,0.668510889,0.584279984,0.718599005,0.657129959,,,,,,
2.33,66.01515152,0.664313068,0.589278946,0.712683723,0.655425246,,,,,,
2.34,67.7979798,0.681229954,0.620931584,0.730593186,0.677584908,,,,,,
2.35,67.7979798,0.694150555,0.610985243,0.719838379,0.674991392,,,,,,
2.36,64.18686869,0.647022538,0.548708752,0.721455853,0.639062381,,,,,,
2.37,67.56565657,0.69295349,0.603873326,0.723646829,0.673491215,,,,,,
2.38,65.97979798,0.66753032,0.588869336,0.713453463,0.656617706,,,,,,
2.39,66.00505051,0.659603027,0.589229876,0.71599218,0.654941694,,,,,,
2.4,67.11111111,0.669053886,0.607707012,0.729050605,0.668603834,,,,,,
2.41,64.64141414,0.650272658,0.568336939,0.705080095,0.641229897,,,,,,
2.42,66.43434343,0.673243592,0.585195616,0.726311097,0.661583435,,,,,,
2.43,65.07070707,0.654415387,0.574950591,0.715414282,0.648260087,,,,,,
2.44,66.88888889,0.685313128,0.595679595,0.719075846,0.666689523,,,,,,
2.45,68.03030303,0.679079231,0.622445305,0.735135681,0.678886739,,,,,,
2.46,65.52525253,0.65975814,0.588190959,0.711386349,0.653111816,,,,,,
2.47,65.98484848,0.662463647,0.585433474,0.723501121,0.657132747,,,,,,
2.48,66.42929293,0.672581089,0.59774619,0.713557981,0.661295087,,,,,,
2.49,66.8989899,0.681748772,0.593155421,0.72264026,0.665848151,,,,,,
2.5,67.11111111,0.687218565,0.597769066,0.721877893,0.668955175,,,,,,
2.51,66.66666667,0.68297043,0.598313966,0.714091313,0.665125236,,,,,,
2.52,67.36363636,0.67467791,0.610797183,0.723814036,0.669763043,,,,,,
2.53,67.13131313,0.677847759,0.59436558,0.730262483,0.667491941,,,,,,
2.54,65.77272727,0.670263402,0.581986341,0.714829573,0.655693105,,,,,,
2.55,64.64141414,0.655251353,0.567876958,0.715170485,0.646099599,,,,,,
2.56,66.00505051,0.656202606,0.594850074,0.717482146,0.656178275,,,,,,
2.57,66.42929293,0.660906932,0.592793888,0.730855911,0.66151891,,,,,,
2.58,67.35353535,0.678248395,0.606230983,0.730314426,0.671597935,,,,,,
2.59,67.12121212,0.687489681,0.606243157,0.71141488,0.668382573,,,,,,
2.6,66.44949495,0.661461521,0.61409114,0.71599879,0.663850484,,,,,,
2.61,66.23232323,0.676872286,0.58231674,0.718523097,0.659237374,,,,,,
2.62,66.42424242,0.683796662,0.588368784,0.714717346,0.662294264,,,,,,
2.63,66.64141414,0.674637726,0.603026393,0.716737015,0.664800378,,,,,,
2.64,65.74747475,0.658038277,0.593181128,0.713700156,0.654973187,,,,,,
2.65,66.44444444,0.680865483,0.582860211,0.722523799,0.662083164,,,,,,
2.66,66.86868687,0.681060798,0.605097339,0.707774534,0.664644224,,,,,,
2.67,66.92929293,0.67839983,0.604322607,0.717794354,0.66683893,,,,,,
2.68,66.64646465,0.677077307,0.591153887,0.720532163,0.662921119,,,,,,
2.69,65.95959596,0.669227911,0.596448497,0.713305577,0.659660662,,,,,,
2.7,66.45959596,0.666070624,0.600055074,0.718688602,0.661604767,,,,,,
2.71,67.58080808,0.695303779,0.59730114,0.731031187,0.674545369,,,,,,
2.72,66.43939394,0.673848438,0.593584746,0.719643987,0.662359057,,,,,,
2.73,66.8989899,0.67895066,0.594999037,0.729488797,0.667812832,,,,,,
2.74,67.59090909,0.666615245,0.615831692,0.73351647,0.671987802,,,,,,
2.75,66.66666667,0.678974628,0.593985154,0.72970723,0.667555671,,,,,,
2.76,66.88888889,0.673151137,0.596660193,0.724877034,0.664896121,,,,,,
2.77,66.43434343,0.667321113,0.602116858,0.720851108,0.663429693,,,,,,
2.78,65.73737374,0.672986334,0.585712224,0.709636157,0.656111572,,,,,,
2.79,67.11111111,0.682757216,0.605985706,0.721771804,0.670171575,,,,,,
2.8,66.9040404,0.66721879,0.605717189,0.727487986,0.666807989,,,,,,
2.81,66.18686869,0.665386426,0.598857143,0.714554336,0.659599302,,,,,,
2.82,67.35353535,0.686573803,0.60569746,0.717364038,0.669878433,,,,,,
2.83,66.68181818,0.671565496,0.59526581,0.72554678,0.664126029,,,,,,
2.84,66.88888889,0.671827396,0.606740243,0.725374325,0.667980654,,,,,,
2.85,66.25252525,0.666280769,0.598259716,0.71563707,0.660059185,,,,,,
2.86,65.75252525,0.655807716,0.585553322,0.718957684,0.653439574,,,,,,
2.87,66.90909091,0.66417225,0.613019128,0.725333775,0.667508385,,,,,,
2.88,67.35353535,0.670468875,0.610936496,0.725391071,0.668932147,,,,,,
2.89,65.98989899,0.664952327,0.591323046,0.712316279,0.656197217,,,,,,
2.9,67.35353535,0.681123936,0.598230709,0.730910013,0.670088219,,,,,,
2.91,66.66161616,0.682397682,0.594124676,0.716732125,0.664418161,,,,,,
2.92,67.37878788,0.674729898,0.615340781,0.719890924,0.669987201,,,,,,
2.93,66.65656566,0.672906498,0.592878122,0.726380786,0.664055135,,,,,,
2.94,66.67171717,0.673889141,0.60477777,0.715434086,0.664700332,,,,,,
2.95,66.00505051,0.671115881,0.592654625,0.711640651,0.658470385,,,,,,
2.96,67.10606061,0.676359751,0.60962718,0.728041556,0.671342829,,,,,,
2.97,66.89393939,0.680330933,0.595269407,0.72593256,0.667177634,,,,,,
2.98,65.97979798,0.65869646,0.607314685,0.709517337,0.658509494,,,,,,
2.99,68.01515152,0.689089164,0.613827727,0.733758205,0.678891698,,,,,,
3,64.83333333,0.651299631,0.57449148,0.714744777,0.646845296,,,,,,
3.01,65.97979798,0.657670189,0.603185996,0.717047434,0.659301206,,,,,,
3.02,65.98484848,0.676991939,0.582219691,0.713472058,0.65756123,,,,,,
3.03,66.45959596,0.672882922,0.595159613,0.711818983,0.659953839,,,,,,
3.04,66.67676768,0.6824988,0.589438369,0.727405425,0.666447532,,,,,,
3.05,66.67676768,0.665160086,0.596742797,0.727361483,0.663088122,,,,,,
3.06,65.76262626,0.66864714,0.576544602,0.723711733,0.656301158,,,,,,
3.07,66.03535354,0.65835315,0.595402755,0.721446323,0.658400743,,,,,,
3.08,65.77777778,0.667329053,0.574995604,0.720736629,0.654353762,,,,,,
3.09,65.31313131,0.673167527,0.567532374,0.710254118,0.650318006,,,,,,
3.1,66.43939394,0.678753188,0.596173993,0.719809908,0.664912363,,,,,,
3.11,66.66666667,0.689319251,0.586201103,0.724473159,0.666664504,,,,,,
3.12,66.21212121,0.671759199,0.593002724,0.715437588,0.660066504,,,,,,
3.13,68.24747475,0.693552113,0.619244891,0.727210819,0.680002608,,,,,,
3.14,67.81818182,0.675569641,0.61426014,0.736179567,0.675336449,,,,,,
3.15,65.99494949,0.668193783,0.592993493,0.708719553,0.65663561,,,,,,
3.16,66.87878788,0.677714326,0.602788022,0.723752569,0.668084972,,,,,,
3.17,65.76767677,0.659214317,0.592998521,0.711408451,0.65454043,,,,,,
3.18,65.06060606,0.654740233,0.577112961,0.697221816,0.643025003,,,,,,
3.19,65.53535354,0.663524639,0.589218943,0.707635864,0.653459816,,,,,,
3.2,66.65656566,0.666493923,0.601847895,0.726542157,0.664961325,,,,,,
3.21,66.44949495,0.670552079,0.59297951,0.723905216,0.662478935,,,,,,
3.22,66.66161616,0.66818306,0.599648481,0.717696994,0.661842845,,,,,,
3.23,66.9040404,0.676161028,0.585672132,0.733754484,0.665195881,,,,,,
3.24,67.58080808,0.683466057,0.618851436,0.716750261,0.673022585,,,,,,
3.25,66.91414141,0.674948848,0.596856378,0.731381537,0.667728921,,,,,,
3.26,65.06565657,0.663080944,0.574280439,0.714073947,0.650478443,,,,,,
3.27,67.80808081,0.680150241,0.616086634,0.729354786,0.67519722,,,,,,
3.28,67.0959596,0.676352675,0.604919206,0.731121283,0.670797721,,,,,,
3.29,65.53030303,0.666374287,0.583117882,0.718847365,0.656113178,,,,,,
3.3,67.7979798,0.675527119,0.618447316,0.740685668,0.678220034,,,,,,
3.31,65.78787879,0.661207436,0.584073753,0.717091912,0.654124367,,,,,,
3.32,66.44444444,0.666855382,0.599613907,0.724576822,0.663682037,,,,,,
3.33,66.66666667,0.670981543,0.59362703,0.732348866,0.66565248,,,,,,
3.34,66,0.656240534,0.593367664,0.725486768,0.658364989,,,,,,
3.35,66.67676768,0.675670263,0.603291786,0.722295378,0.667085809,,,,,,
3.36,66.44949495,0.673976068,0.594889064,0.715469476,0.661444869,,,,,,
3.37,66.6969697,0.671443524,0.593454176,0.729600744,0.664832815,,,,,,
3.38,67.35353535,0.673681491,0.612249136,0.72003869,0.668656439,,,,,,
3.39,67.80808081,0.679537349,0.620558351,0.734089111,0.678061603,,,,,,
3.4,66.65656566,0.684253333,0.593273224,0.720632066,0.666052874,,,,,,
3.41,66.43939394,0.673841084,0.60053617,0.714613399,0.662996884,,,,,,
3.42,66.88888889,0.673490953,0.593396022,0.733336854,0.666741276,,,,,,
3.43,66.22222222,0.674906274,0.589171494,0.722673572,0.662250447,,,,,,
3.44,67.12121212,0.664368996,0.617451817,0.721760753,0.667860522,,,,,,
3.45,66.45454545,0.675337428,0.59918514,0.717820664,0.664114411,,,,,,
3.46,67.38383838,0.678245963,0.609532557,0.726467627,0.671415382,,,,,,
3.47,65.32828283,0.663153243,0.582706879,0.714570143,0.653476755,,,,,,
3.48,66.88888889,0.675241197,0.597092519,0.725880131,0.666071282,,,,,,
3.49,67.14646465,0.686603861,0.606779198,0.713585349,0.668989469,,,,,,
3.5,66.88383838,0.674298154,0.605783183,0.719529283,0.666536873,,,,,,
3.51,66.64141414,0.680987142,0.591858703,0.722604299,0.665150048,,,,,,
3.52,67.1010101,0.68640949,0.602671957,0.722780527,0.670620658,,,,,,
3.53,65.06565657,0.662082396,0.574908176,0.709542584,0.648844385,,,,,,
3.54,67.56060606,0.670834813,0.61774677,0.729430406,0.672670663,,,,,,
3.55,66,0.659873057,0.591945653,0.716744858,0.656187856,,,,,,
3.56,66.19191919,0.677936339,0.583833945,0.715853316,0.659207867,,,,,,
3.57,65.97979798,0.648734251,0.601244081,0.722885815,0.657621382,,,,,,
3.58,66.66666667,0.66188497,0.596150897,0.739001457,0.665679108,,,,,,
3.59,64.84343434,0.660435911,0.564720474,0.714647667,0.646601351,,,,,,
3.6,66.67171717,0.661790897,0.601443179,0.73045977,0.664564615,,,,,,
3.61,65.78282828,0.667528384,0.574358896,0.727873563,0.656586948,,,,,,
3.62,65.10606061,0.655576362,0.571636115,0.710088124,0.645766867,,,,,,
3.63,66.23232323,0.666563921,0.586441756,0.728352649,0.660452776,,,,,,
3.64,66.69191919,0.673566353,0.598480469,0.717861042,0.663302622,,,,,,
3.65,65.52020202,0.66346405,0.585539323,0.712625065,0.653876146,,,,,,
3.66,66.44949495,0.672751751,0.59335261,0.720712457,0.662272272,,,,,,
3.67,67.79292929,0.686720178,0.616214395,0.725777554,0.676237376,,,,,,
3.68,66.90909091,0.668215352,0.609538134,0.715516139,0.664423208,,,,,,
3.69,66.64646465,0.664908345,0.60404971,0.723746734,0.664234929,,,,,,
3.7,65.52525253,0.66186777,0.59489489,0.707198605,0.654653755,,,,,,
3.71,67.34848485,0.682461531,0.610372018,0.724204355,0.672345968,,,,,,
3.72,67.1010101,0.679981948,0.603958908,0.718548375,0.66749641,,,,,,
3.73,66.91919192,0.670376069,0.595756059,0.735154194,0.667095441,,,,,,
3.74,65.51515152,0.669797752,0.571645273,0.724402616,0.65528188,,,,,,
3.75,65.99494949,0.654624793,0.609461551,0.715319223,0.659801856,,,,,,
3.76,65.97474747,0.664667898,0.58307092,0.720829894,0.656189571,,,,,,
3.77,65.1010101,0.661183533,0.581538077,0.706783106,0.649834905,,,,,,
3.78,67.13131313,0.676585934,0.606243923,0.730618677,0.671149511,,,,,,
3.79,66.66666667,0.669405386,0.58950507,0.730281789,0.663064082,,,,,,
3.8,65.51515152,0.670745632,0.575452877,0.71597728,0.654058597,,,,,,
3.81,65.54545455,0.659976447,0.577153845,0.719642015,0.652257436,,,,,,
3.82,66.44949495,0.665754403,0.592198967,0.732836058,0.663596476,,,,,,
3.83,65.97474747,0.66638749,0.589006112,0.720188758,0.658527453,,,,,,
3.84,65.76767677,0.659495905,0.585683399,0.720120841,0.655100048,,,,,,
3.85,66.8989899,0.681318843,0.592854237,0.723119591,0.665764224,,,,,,
3.86,66.21717172,0.660668311,0.585926516,0.729827081,0.658807303,,,,,,
3.87,66.43939394,0.672922293,0.591346905,0.712812963,0.659027387,,,,,,
3.88,67.81313131,0.691500586,0.605771529,0.728714772,0.675328962,,,,,,
3.89,66.9040404,0.662158962,0.607108784,0.731933813,0.667067186,,,,,,
3.9,66.65656566,0.686952266,0.593537444,0.713698408,0.664729373,,,,,,
3.91,65.77272727,0.652358536,0.588613048,0.718274024,0.653081869,,,,,,
3.92,65.96969697,0.672013558,0.583766269,0.722584119,0.659454649,,,,,,
3.93,66.89393939,0.679533969,0.605891686,0.714145508,0.666523721,,,,,,
3.94,65.75252525,0.664413147,0.579240683,0.72001499,0.654556273,,,,,,
3.95,66.67171717,0.661576421,0.603256273,0.731765162,0.665532618,,,,,,
3.96,66.44444444,0.670269123,0.596458069,0.717634894,0.661454028,,,,,,
3.97,66.43939394,0.663552068,0.610127406,0.714200501,0.662626658,,,,,,
3.98,67.78787879,0.687331927,0.615850626,0.725800386,0.676327646,,,,,,
3.99,67.14141414,0.67928681,0.60333923,0.723161207,0.668595749,,,,,,
4,66.42929293,0.665541584,0.584004414,0.73409961,0.661215203,,,,,,
4.01,65.77272727,0.679683926,0.577461879,0.703495172,0.653546992,,,,,,
4.02,67.6010101,0.686746741,0.600081136,0.730787122,0.672538333,,,,,,
4.03,66.44949495,0.675693252,0.595431491,0.720863083,0.663995942,,,,,,
4.04,66.45959596,0.661688031,0.595017184,0.72815591,0.661620375,,,,,,
4.05,66.66161616,0.670204725,0.589726245,0.725267265,0.661732745,,,,,,
4.06,67.34343434,0.676828236,0.613200911,0.724746941,0.67159203,,,,,,
4.07,66.66666667,0.672826884,0.606184439,0.717757229,0.665589518,,,,,,
4.08,66.8989899,0.665805054,0.613953963,0.723477155,0.667745391,,,,,,
4.09,66.44949495,0.667565144,0.593606248,0.725464272,0.662211888,,,,,,
4.1,67.33333333,0.671809238,0.613463012,0.728159777,0.671144009,,,,,,
4.11,66.66666667,0.669798652,0.600708728,0.727160999,0.665889459,,,,,,
4.12,66.40909091,0.665359637,0.590715654,0.720873523,0.658982938,,,,,,
4.13,65.75252525,0.67130056,0.587874604,0.710194743,0.656456636,,,,,,
4.14,66.91414141,0.681730769,0.617852992,0.708260017,0.669281259,,,,,,
4.15,66.23232323,0.672906211,0.589756874,0.716875122,0.659846069,,,,,,
4.16,65.96464646,0.669528898,0.591034284,0.716147724,0.658903635,,,,,,
4.17,65.55050505,0.662897598,0.592326652,0.709354927,0.654859726,,,,,,
4.18,66.67171717,0.665209352,0.612135806,0.715572064,0.664305741,,,,,,
4.19,64.62121212,0.658360612,0.579151468,0.701084116,0.646198732,,,,,,
4.2,66.24747475,0.685051191,0.577107242,0.717287168,0.6598152,,,,,,
4.21,67.11616162,0.680821849,0.608212829,0.725739324,0.671591334,,,,,,
4.22,64.87373737,0.652645211,0.58196055,0.706620504,0.647075422,,,,,,
4.23,66.88383838,0.672862631,0.606519413,0.723593306,0.66765845,,,,,,
4.24,67.80808081,0.683107269,0.616913454,0.720391169,0.673470631,,,,,,
4.25,65.75757576,0.655800677,0.589742007,0.72544601,0.656996231,,,,,,
4.26,65.95454545,0.659519411,0.5818305,0.727008912,0.656119607,,,,,,
4.27,66.66161616,0.679272273,0.595753523,0.71719189,0.664072562,,,,,,
4.28,66.43939394,0.657617336,0.604062542,0.723177864,0.661619247,,,,,,
4.29,66.67171717,0.678362135,0.598168782,0.71023738,0.662256099,,,,,,
4.3,67.12121212,0.685524848,0.594865834,0.72687052,0.669087067,,,,,,
4.31,66.42929293,0.67263247,0.595737887,0.720819913,0.663063423,,,,,,
4.32,65.74747475,0.669282419,0.583564955,0.717992632,0.656946669,,,,,,
4.33,67.16666667,0.660276498,0.621990054,0.731393858,0.671220137,,,,,,
4.34,66.42424242,0.656302385,0.599062966,0.726385629,0.66058366,,,,,,
4.35,66.90909091,0.670135558,0.598011628,0.72707803,0.665075072,,,,,,
4.36,66.88383838,0.671618189,0.614689082,0.716760047,0.667689106,,,,,,
4.37,65.2979798,0.649119872,0.582684813,0.718170252,0.649991646,,,,,,
4.38,65.32323232,0.663514925,0.576835827,0.713621954,0.651324235,,,,,,
4.39,67.34343434,0.666037375,0.613765377,0.735095855,0.671632869,,,,,,
4.4,65.33838384,0.663507666,0.557157752,0.722530185,0.647731868,,,,,,
4.41,66.43434343,0.683029558,0.585945965,0.713380207,0.660785243,,,,,,
4.42,66.21717172,0.656479268,0.588746182,0.730226809,0.658484086,,,,,,
4.43,67.13131313,0.678486865,0.614298631,0.710460763,0.667748753,,,,,,
4.44,67.11111111,0.686806769,0.605087634,0.714325809,0.668740071,,,,,,
4.45,66.67676768,0.689610083,0.598318993,0.708646045,0.66552504,,,,,,
4.46,66.43939394,0.668966654,0.603416402,0.716775005,0.663052687,,,,,,
4.47,66.67171717,0.672299917,0.58477796,0.735622947,0.664233608,,,,,,
4.48,65.75252525,0.655476346,0.591728944,0.723236172,0.656813821,,,,,,
4.49,67.35858586,0.680602964,0.624081559,0.713269486,0.672651336,,,,,,
4.5,66.67171717,0.680672838,0.609612665,0.712357371,0.667547624,,,,,,
4.51,67.12121212,0.668168792,0.621902749,0.728541256,0.672870932,,,,,,
4.52,66.65656566,0.681007085,0.595158791,0.715043779,0.663736552,,,,,,
4.53,66.44949495,0.655146935,0.604264803,0.727488302,0.662300013,,,,,,
4.54,66.43939394,0.67766313,0.589585011,0.720115497,0.662454546,,,,,,
4.55,66.91414141,0.674144652,0.612235757,0.711416667,0.665932359,,,,,,
4.56,67.12121212,0.670595031,0.607333855,0.727398057,0.668442314,,,,,,
4.57,66.44949495,0.668735173,0.595499671,0.722325812,0.662186885,,,,,,
4.58,66.87878788,0.67723493,0.601659402,0.719879898,0.666258076,,,,,,
4.59,67.31818182,0.686449271,0.612249778,0.722318025,0.673672358,,,,,,
4.6,64.86868687,0.659002283,0.561057375,0.718316383,0.646125347,,,,,,
4.61,66.21717172,0.680909947,0.58362611,0.713155695,0.659230584,,,,,,
4.62,66.89393939,0.661813754,0.611270229,0.728357541,0.667147175,,,,,,
4.63,66.01010101,0.655691445,0.593670727,0.725983252,0.658448475,,,,,,
4.64,65.32323232,0.658332327,0.587195951,0.710482804,0.652003694,,,,,,
4.65,66,0.657738625,0.590030407,0.727039614,0.658269549,,,,,,
4.66,65.96464646,0.661318953,0.586462003,0.728149519,0.658643492,,,,,,
4.67,65.3030303,0.658366068,0.574599974,0.71489093,0.649285657,,,,,,
4.68,65.07070707,0.654392092,0.581545409,0.711888463,0.649275321,,,,,,
4.69,65.97979798,0.66658139,0.594245799,0.719963686,0.660263625,,,,,,
4.7,66.21212121,0.661985219,0.608087135,0.707785655,0.659286003,,,,,,
4.71,67.35353535,0.67362659,0.616278822,0.729892401,0.673265938,,,,,,
4.72,67.8030303,0.681959621,0.608709953,0.726979279,0.672549617,,,,,,
4.73,65.54545455,0.665964006,0.581652936,0.715146389,0.654254443,,,,,,
4.74,68.03535354,0.688412323,0.624956177,0.726157144,0.679841882,,,,,,
4.75,66.43939394,0.668644145,0.600917599,0.719344997,0.662968914,,,,,,
4.76,65.3030303,0.66888468,0.567027579,0.712218895,0.649377052,,,,,,
4.77,67.1010101,0.678263679,0.602299884,0.730948345,0.67050397,,,,,,
4.78,66.88888889,0.654392863,0.596091926,0.749536125,0.666673638,,,,,,
4.79,65.98989899,0.667134486,0.599383858,0.704425375,0.65698124,,,,,,
4.8,65.98484848,0.662758371,0.59004593,0.716677524,0.656493942,,,,,,
4.81,67.81818182,0.68462596,0.616282621,0.730925599,0.67727806,,,,,,
4.82,67.10606061,0.676168107,0.609957619,0.720946246,0.669023991,,,,,,
4.83,66.68686869,0.679713213,0.587270677,0.727970947,0.664984946,,,,,,
4.84,67.80808081,0.681523134,0.615915119,0.73429364,0.677243965,,,,,,
4.85,66.23232323,0.663790639,0.599797822,0.714396535,0.659328332,,,,,,
4.86,66.01515152,0.662818564,0.593135759,0.711162462,0.655705595,,,,,,
4.87,66.44949495,0.670994213,0.596072319,0.723172481,0.663413005,,,,,,
4.88,66.65151515,0.677840399,0.595701465,0.72713367,0.666891845,,,,,,
4.89,66.67676768,0.675209226,0.596075654,0.721770578,0.66435182,,,,,,
4.9,65.52020202,0.663348211,0.584508441,0.715333618,0.654396756,,,,,,
4.91,65.54040404,0.667097144,0.575475316,0.717031685,0.653201382,,,,,,
4.92,66.01010101,0.667133238,0.585338578,0.721839986,0.658103934,,,,,,
4.93,66.9040404,0.668675214,0.609356388,0.728085439,0.66870568,,,,,,
4.94,65.53535354,0.661122985,0.572702301,0.722225108,0.652016798,,,,,,
4.95,66.90909091,0.681258144,0.600022255,0.724826008,0.668702136,,,,,,
4.96,67.13131313,0.67495456,0.595710411,0.729047039,0.66657067,,,,,,
4.97,68.25252525,0.690621006,0.62003392,0.738138858,0.682931262,,,,,,
4.98,66.2020202,0.672322356,0.586342609,0.717743,0.658802655,,,,,,
4.99,66.45454545,0.673603722,0.593322892,0.721434786,0.662787134,,,,,,
5,65.73737374,0.66874959,0.584938262,0.712357771,0.655348541,,,,,,
5.01,66.44444444,0.676774587,0.58798844,0.722235629,0.662332885,,,,,,
5.02,66.1969697,0.666964897,0.601067168,0.707226549,0.658419538,,,,,,
5.03,67.34848485,0.672715294,0.617341349,0.723449575,0.671168739,,,,,,
5.04,66.92424242,0.668477909,0.605839831,0.730264289,0.66819401,,,,,,
5.05,65.31313131,0.647997741,0.586449244,0.723890888,0.652779291,,,,,,
5.06,66.86868687,0.682068607,0.594424766,0.726492187,0.667661854,,,,,,
5.07,66.22727273,0.660692554,0.587856893,0.730126802,0.65955875,,,,,,
5.08,66.43434343,0.664043209,0.602001445,0.720476124,0.662173593,,,,,,
5.09,64.6010101,0.647941667,0.572182594,0.711753681,0.643959314,,,,,,
5.1,65.53535354,0.652183059,0.590124367,0.713620207,0.651975878,,,,,,
5.11,65.08585859,0.662231453,0.569164476,0.711837491,0.647744474,,,,,,
5.12,65.75252525,0.661038402,0.594756525,0.709549111,0.655114679,,,,,,
5.13,66.41919192,0.672990124,0.599807058,0.712409074,0.661735419,,,,,,
5.14,66.66161616,0.665008986,0.602916274,0.720901281,0.66294218,,,,,,
5.15,66.42929293,0.668708098,0.603081326,0.714061461,0.661950295,,,,,,
5.16,65.77777778,0.664495008,0.585934182,0.710217784,0.653548991,,,,,,
5.17,67.12626263,0.675381371,0.606591708,0.724138932,0.668704004,,,,,,
5.18,67.58585859,0.671278242,0.616493444,0.732869907,0.673547197,,,,,,
5.19,67.6010101,0.679786597,0.61463857,0.731631421,0.675352196,,,,,,
5.2,66.42424242,0.669826239,0.591218064,0.729618946,0.663554416,,,,,,
5.21,65.76262626,0.675593973,0.581782169,0.707452586,0.654942909,,,,,,
5.22,67.12626263,0.675400334,0.606874759,0.72822581,0.670166968,,,,,,
5.23,67.35858586,0.669639973,0.621227064,0.730240249,0.673702429,,,,,,
5.24,67.58585859,0.685425435,0.612719172,0.726511495,0.674885367,,,,,,
5.25,66.25757576,0.65776727,0.619129983,0.712450651,0.663115968,,,,,,
5.26,66.44444444,0.674943662,0.587745497,0.723896678,0.662195279,,,,,,
5.27,65.07070707,0.648872356,0.582887247,0.709296751,0.647018785,,,,,,
5.28,67.33838384,0.685262897,0.611769353,0.716122046,0.671051432,,,,,,
5.29,66.68181818,0.66041585,0.612479541,0.714295929,0.662397107,,,,,,
5.3,66.89393939,0.674978233,0.605180089,0.724840871,0.668333064,,,,,,
5.31,67.10606061,0.686776511,0.598330162,0.714347546,0.666484739,,,,,,
5.32,66.90909091,0.668128946,0.599345733,0.734512487,0.667329055,,,,,,
5.33,66.42929293,0.672196286,0.602970079,0.712291238,0.662485868,,,,,,
5.34,66.41919192,0.65915093,0.595756547,0.732662828,0.662523435,,,,,,
5.35,67.14141414,0.677911394,0.603327707,0.723556468,0.668265189,,,,,,
5.36,66.64646465,0.663253554,0.600613939,0.72922786,0.664365118,,,,,,
5.37,65.29292929,0.651057411,0.574897791,0.717619248,0.64785815,,,,,,
5.38,66.41919192,0.669081548,0.595221761,0.723659777,0.662654362,,,,,,
5.39,66.44949495,0.668032793,0.595737605,0.718782155,0.660850851,,,,,,
5.4,65.2979798,0.657495178,0.584587266,0.711995839,0.651359428,,,,,,
5.41,65.75757576,0.660016501,0.590950119,0.718328792,0.656431804,,,,,,
5.42,65.97474747,0.653814204,0.598754296,0.724834691,0.659134397,,,,,,
5.43,66.24242424,0.675466789,0.595988752,0.712773912,0.661409817,,,,,,
5.44,66.45454545,0.670137194,0.593864265,0.715958265,0.659986575,,,,,,
5.45,66.21717172,0.666771159,0.59626754,0.719663525,0.660900741,,,,,,
5.46,68.03030303,0.68760985,0.61927796,0.725292192,0.677393334,,,,,,
5.47,67.59090909,0.686755273,0.60922582,0.725017821,0.673666305,,,,,,
5.48,67.33333333,0.674437407,0.605672125,0.732731207,0.670946913,,,,,,
5.49,65.98484848,0.677595841,0.578677182,0.712506203,0.656259742,,,,,,
5.5,65.77777778,0.66613431,0.5821159,0.715270814,0.654507008,,,,,,
5.51,66.88888889,0.674008183,0.602315869,0.731877096,0.669400382,,,,,,
5.52,65.53535354,0.658288603,0.586052794,0.715307129,0.653216176,,,,,,
5.53,65.96969697,0.671837513,0.583285533,0.713723314,0.65628212,,,,,,
5.54,66.2020202,0.663222045,0.588632034,0.72106977,0.657641283,,,,,,
5.55,66.21717172,0.672941097,0.584736572,0.721532936,0.659736868,,,,,,
5.56,65.97979798,0.668374672,0.585633005,0.717923205,0.657310294,,,,,,
5.57,66.69191919,0.67504239,0.600619265,0.71979348,0.665151712,,,,,,
5.58,65.99494949,0.670763277,0.582977428,0.714553502,0.656098069,,,,,,
5.59,68.03535354,0.672012384,0.624375906,0.737567962,0.677985417,,,,,,
5.6,66.1969697,0.656284375,0.595009849,0.717070745,0.656121656,,,,,,
5.61,67.34848485,0.67306375,0.615895204,0.726345288,0.671768081,,,,,,
5.62,66.21717172,0.6662346,0.59761325,0.717145752,0.660331201,,,,,,
5.63,66.23737374,0.670182113,0.593087036,0.721709433,0.661659527,,,,,,
5.64,67.55555556,0.67858015,0.610140904,0.73402269,0.674247915,,,,,,
5.65,65.30808081,0.656658131,0.585288568,0.712553519,0.651500072,,,,,,
5.66,66.43434343,0.67096839,0.594837566,0.719318787,0.661708248,,,,,,
5.67,67.33333333,0.677651075,0.616868978,0.725920753,0.673480268,,,,,,
5.68,66.66161616,0.67672619,0.592502985,0.718516421,0.662581865,,,,,,
5.69,66.20707071,0.666529244,0.603120191,0.713088761,0.660912732,,,,,,
5.7,64.40909091,0.644093368,0.572090524,0.71044335,0.64220908,,,,,,
5.71,65.55555556,0.664869252,0.591536946,0.715521815,0.657309338,,,,,,
5.72,66.89393939,0.672857412,0.608544043,0.711377101,0.664259519,,,,,,
5.73,67.12121212,0.670951832,0.605110784,0.731449003,0.66917054,,,,,,
5.74,66.89393939,0.670358136,0.601053374,0.728575931,0.66666248,,,,,,
5.75,66,0.668265283,0.587384194,0.712569442,0.656072973,,,,,,
5.76,66.67676768,0.677905473,0.608138469,0.706472901,0.664172281,,,,,,
5.77,65.31313131,0.65836172,0.587942196,0.709056462,0.651786793,,,,,,
5.78,66.43939394,0.673866307,0.590137887,0.716990102,0.660331432,,,,,,
5.79,66.43434343,0.666526711,0.599532896,0.723329373,0.66312966,,,,,,
5.8,66.21717172,0.667854209,0.588793282,0.725007764,0.660551752,,,,,,
5.81,66.45959596,0.656816605,0.611743888,0.724543195,0.664367896,,,,,,
5.82,66.90909091,0.656928125,0.605387674,0.736061438,0.666125746,,,,,,
5.83,65.12121212,0.649759079,0.582941413,0.717409909,0.6500368,,,,,,
5.84,65.30808081,0.658868376,0.583076702,0.708058206,0.650001095,,,,,,
5.85,65.97474747,0.654556496,0.591665118,0.727509091,0.657910235,,,,,,
5.86,66.01010101,0.664810918,0.588865043,0.718696492,0.657457484,,,,,,
5.87,66.64141414,0.676419106,0.603068464,0.718387054,0.665958208,,,,,,
5.88,67.10606061,0.669914468,0.608942829,0.723960309,0.667605869,,,,,,
5.89,66.65151515,0.674282912,0.601534648,0.720449265,0.665422275,,,,,,
5.9,66.42424242,0.669259193,0.592984857,0.721305928,0.661183326,,,,,,
5.91,67.58080808,0.676856088,0.619610074,0.729472588,0.675312917,,,,,,
5.92,65.27777778,0.666348522,0.58035712,0.711746119,0.652817254,,,,,,
5.93,67.34343434,0.677940852,0.618230538,0.721527736,0.672566375,,,,,,
5.94,66.21717172,0.666764038,0.597329442,0.712816352,0.658969944,,,,,,
5.95,68.26767677,0.692362915,0.62245905,0.731967777,0.682263247,,,,,,
5.96,65.76262626,0.658088027,0.585282418,0.727761342,0.657043929,,,,,,
5.97,66.46464646,0.666512341,0.59032192,0.733832977,0.663555746,,,,,,
5.98,66.46969697,0.666351157,0.592705728,0.726513683,0.661856856,,,,,,
5.99,65.54545455,0.655571102,0.584357636,0.718582737,0.652837158,,,,,,
6,67.34848485,0.689697672,0.604519712,0.723101183,0.672439522,,,,,,
6.01,66.02525253,0.670689764,0.584724366,0.720487842,0.658633991,,,,,,
6.02,66.43434343,0.676559033,0.59121543,0.723006699,0.663593721,,,,,,
6.03,67.81313131,0.665778092,0.623437311,0.727764161,0.672326522,,,,,,
6.04,66.21212121,0.66671127,0.595859003,0.720992688,0.661187654,,,,,,
6.05,65.75757576,0.667594604,0.59395557,0.710576041,0.657375405,,,,,,
6.06,66.63636364,0.67309779,0.593517614,0.729085095,0.6652335,,,,,,
6.07,66.67171717,0.677218353,0.597115525,0.725599343,0.666644407,,,,,,
6.08,67.78787879,0.682060373,0.626245617,0.723671775,0.677325922,,,,,,
6.09,67.80808081,0.684921673,0.616421445,0.730593776,0.677312298,,,,,,
6.1,65.76767677,0.660242428,0.583492825,0.722812583,0.655515945,,,,,,
6.11,66.44949495,0.662851793,0.599522338,0.724121565,0.662165232,,,,,,
6.12,64.87878788,0.661527729,0.568841416,0.70768773,0.646018958,,,,,,
6.13,66.00505051,0.66203277,0.594458217,0.71635191,0.657614299,,,,,,
6.14,66.20707071,0.664988913,0.593250821,0.720772386,0.659670707,,,,,,
6.15,65.08585859,0.651912641,0.577100424,0.718869399,0.649294155,,,,,,
6.16,66.41919192,0.65835979,0.611773562,0.718677871,0.662937074,,,,,,
6.17,65.53030303,0.659813215,0.583451134,0.716437241,0.653233863,,,,,,
6.18,66.67171717,0.659369843,0.607780115,0.720489661,0.66254654,,,,,,
6.19,66.43939394,0.677132019,0.598838104,0.717365127,0.664445083,,,,,,
6.2,66.19191919,0.671432051,0.59548819,0.710546255,0.659155499,,,,,,
6.21,67.8030303,0.68813622,0.610427148,0.731602814,0.67672206,,,,,,
6.22,66.20707071,0.679580746,0.575204261,0.720768594,0.658517867,,,,,,
6.23,66.20707071,0.653288944,0.592920668,0.733734629,0.659981414,,,,,,
6.24,65.52020202,0.674052447,0.586956689,0.696062838,0.652357325,,,,,,
6.25,67.58585859,0.680571147,0.609196708,0.734701785,0.674823213,,,,,,
6.26,67.33838384,0.674935009,0.616433855,0.728282248,0.673217037,,,,,,
6.27,67.59090909,0.669636725,0.617894889,0.730475258,0.672668957,,,,,,
6.28,65.31818182,0.657853877,0.583307998,0.715414611,0.652192162,,,,,,
6.29,65.07575758,0.66338336,0.57889206,0.704931903,0.649069108,,,,,,
6.3,66.66666667,0.680821439,0.588677388,0.721878966,0.663792598,,,,,,
6.31,66.00505051,0.67707549,0.588106712,0.710408335,0.658530179,,,,,,
6.32,66.44949495,0.676752022,0.584502022,0.721516429,0.660923491,,,,,,
6.33,66.48484848,0.654589129,0.605522833,0.727337007,0.66248299,,,,,,
6.34,65.11111111,0.649167314,0.583015873,0.711800261,0.647994483,,,,,,
6.35,67.13131313,0.680556076,0.61749922,0.712429961,0.670161752,,,,,,
6.36,65.98989899,0.67353054,0.587078694,0.715882333,0.658830522,,,,,,
6.37,65.99494949,0.662006315,0.59081254,0.714372078,0.655730311,,,,,,
6.38,67.8030303,0.679297023,0.620406332,0.734434583,0.678045979,,,,,,
6.39,66.89393939,0.67136733,0.593163157,0.730940778,0.665157088,,,,,,
6.4,65.98484848,0.65386099,0.603176626,0.710206774,0.65574813,,,,,,
6.41,67.12626263,0.679385987,0.616070965,0.722366806,0.672607919,,,,,,
6.42,66,0.663558508,0.58793475,0.719181601,0.65689162,,,,,,
6.43,66.90909091,0.678214749,0.606440363,0.722396942,0.669017351,,,,,,
6.44,65.08585859,0.656833658,0.579851779,0.712303465,0.649662967,,,,,,
6.45,66.01010101,0.668102736,0.604171211,0.70769773,0.659990559,,,,,,
6.46,66.86868687,0.666879933,0.604724024,0.727723696,0.666442551,,,,,,
6.47,65.2979798,0.654993776,0.589700387,0.713565639,0.652753267,,,,,,
6.48,67.12121212,0.671229623,0.612453692,0.72815635,0.670613222,,,,,,
6.49,66.90909091,0.672700292,0.60817421,0.72293383,0.667936111,,,,,,
6.5,66.41414141,0.658473793,0.598945451,0.727261117,0.66156012,,,,,,
6.51,65.30808081,0.641422779,0.5901071,0.716240102,0.64925666,,,,,,
6.52,67.12626263,0.677842547,0.6034149,0.720047791,0.667101746,,,,,,
6.53,65.53030303,0.657702606,0.582137966,0.729807596,0.656549389,,,,,,
6.54,66.8989899,0.676060748,0.593713219,0.731289289,0.667021085,,,,,,
6.55,66.66161616,0.663292482,0.605359949,0.726961227,0.665204553,,,,,,
6.56,66.2020202,0.662636657,0.600094998,0.715594642,0.659442099,,,,,,
6.57,66.67171717,0.662530698,0.60446505,0.726468449,0.664488066,,,,,,
6.58,66.45959596,0.666052545,0.602157225,0.716393546,0.661534439,,,,,,
6.59,67.33838384,0.674652471,0.617607227,0.727526476,0.673262058,,,,,,
6.6,66.22727273,0.676274932,0.592403725,0.708163144,0.658947267,,,,,,
6.61,67.13636364,0.670044003,0.61464475,0.727628845,0.670772533,,,,,,
6.62,67.56565657,0.683747056,0.606244682,0.728778109,0.672923283,,,,,,
6.63,67.12121212,0.677878222,0.612299374,0.713362702,0.667846766,,,,,,
6.64,65.98989899,0.672315472,0.583857995,0.712387189,0.656186886,,,,,,
6.65,66.45454545,0.666324398,0.606005512,0.716204473,0.662844794,,,,,,
6.66,65.54545455,0.658586986,0.582249518,0.721342024,0.65405951,,,,,,
6.67,66.9040404,0.6804457,0.596631095,0.727300924,0.668125906,,,,,,
6.68,66.88383838,0.680042025,0.604575599,0.718226358,0.667614661,,,,,,
6.69,66.21212121,0.677250453,0.581543279,0.72228243,0.66035872,,,,,,
6.7,66.20707071,0.670129333,0.601378685,0.718322206,0.663276742,,,,,,
6.71,66.21212121,0.652498978,0.598813097,0.730677421,0.660663165,,,,,,
6.72,66.20707071,0.673561956,0.59491718,0.712789956,0.66042303,,,,,,
6.73,66.90909091,0.676062831,0.609818769,0.718319348,0.668066983,,,,,,
6.74,66.67171717,0.674580926,0.603192876,0.721562953,0.666445585,,,,,,
6.75,65.75757576,0.654441939,0.590866858,0.726489321,0.657266039,,,,,,
6.76,65.52020202,0.670786959,0.586264091,0.706209757,0.654420269,,,,,,
6.77,66.21212121,0.666612701,0.601343645,0.699561439,0.655839261,,,,,,
6.78,65.52020202,0.659333151,0.58258655,0.714728155,0.652215952,,,,,,
6.79,67.57070707,0.677351687,0.621113822,0.725978241,0.674814583,,,,,,
6.8,66.45454545,0.662321543,0.605221643,0.722233674,0.663258954,,,,,,
6.81,66.44444444,0.671017688,0.60960287,0.711294097,0.663971552,,,,,,
6.82,65.53535354,0.649003467,0.59057157,0.719106237,0.652893758,,,,,,
6.83,66.45959596,0.668832757,0.602378481,0.719473426,0.663561555,,,,,,
6.84,66.23232323,0.656298631,0.5999661,0.729515777,0.661926836,,,,,,
6.85,65.54545455,0.655264341,0.585586981,0.714074209,0.651641844,,,,,,
6.86,65.99494949,0.657927637,0.596205146,0.725649038,0.659927274,,,,,,
6.87,66.44444444,0.656580688,0.603228743,0.729228622,0.663012684,,,,,,
6.88,65.08080808,0.648660218,0.581861404,0.721451961,0.650657861,,,,,,
6.89,65.96969697,0.659599224,0.599334023,0.712328519,0.657087255,,,,,,
6.9,64.82828283,0.64985151,0.574489762,0.71336797,0.645903081,,,,,,
6.91,65.97979798,0.669230769,0.598638942,0.706966555,0.658278756,,,,,,
6.92,66.44444444,0.677760551,0.59371314,0.70949865,0.660324114,,,,,,
6.93,66.43434343,0.662618957,0.60562163,0.724507099,0.664249229,,,,,,
6.94,67.32323232,0.67877326,0.611814488,0.718752317,0.669780022,,,,,,
6.95,66.8989899,0.673411756,0.603563507,0.73118768,0.669387648,,,,,,
6.96,66.88383838,0.683239681,0.59969075,0.71517235,0.666034261,,,,,,
6.97,65.55555556,0.671318582,0.577918725,0.707614943,0.652284083,,,,,,
6.98,65.77272727,0.661780423,0.57887403,0.725048675,0.655234376,,,,,,
6.99,66.67676768,0.673092496,0.602737133,0.726246288,0.667358639,,,,,,
7,66.45454545,0.667435596,0.605319716,0.716727215,0.663160843,,,,,,
7.01,67.34343434,0.681707914,0.616506381,0.71751941,0.671911235,,,,,,
7.02,65.53030303,0.659915544,0.587813538,0.710224803,0.652651295,,,,,,
7.03,66.67171717,0.671181349,0.601638149,0.726379265,0.666399587,,,,,,
7.04,66.43939394,0.671208949,0.587948315,0.725837909,0.661665058,,,,,,
7.05,66.91414141,0.670813122,0.608733631,0.7237292,0.667758651,,,,,,
7.06,66.87373737,0.662283362,0.619781829,0.723547517,0.668537569,,,,,,
7.07,66.67171717,0.684189098,0.602042294,0.715533838,0.667255077,,,,,,
7.08,66.64646465,0.671094777,0.601088379,0.721794745,0.6646593,,,,,,
7.09,67.10606061,0.674103093,0.615816878,0.725469683,0.671796551,,,,,,
7.1,65.99494949,0.675643625,0.588647317,0.712807338,0.65903276,,,,,,
7.11,68.05050505,0.688200077,0.615141537,0.727058949,0.676800188,,,,,,
7.12,67.11616162,0.676959443,0.611642279,0.722713551,0.670438424,,,,,,
7.13,65.76262626,0.663504446,0.584688258,0.720644377,0.656279027,,,,,,
7.14,66.9040404,0.665382089,0.618324503,0.719126844,0.667611145,,,,,,
7.15,65.77272727,0.670930673,0.582627029,0.715304951,0.656287551,,,,,,
7.16,64.61111111,0.657702766,0.572056268,0.697656997,0.64247201,,,,,,
7.17,67.34343434,0.677683206,0.620799623,0.723430606,0.673971145,,,,,,
7.18,65.53535354,0.64729651,0.58203638,0.720087477,0.649806789,,,,,,
7.19,66.21717172,0.668013943,0.600833432,0.713585436,0.660810937,,,,,,
7.2,66.46464646,0.678255254,0.588719934,0.711792739,0.659589309,,,,,,
7.21,66.20707071,0.670296991,0.58466178,0.726878894,0.660612555,,,,,,
7.22,66.87373737,0.681053368,0.599721014,0.717275223,0.666016535,,,,,,
7.23,66.22727273,0.674586948,0.588291024,0.717637908,0.66017196,,,,,,
7.24,67.14646465,0.66633593,0.611357686,0.731858989,0.669850868,,,,,,
7.25,66.42424242,0.665490735,0.600931373,0.722548956,0.662990355,,,,,,
7.26,66.65656566,0.679665729,0.602752038,0.717420313,0.666612693,,,,,,
7.27,66.21212121,0.65566973,0.597304965,0.723873616,0.658949437,,,,,,
7.28,66.18686869,0.666695402,0.59359322,0.722403623,0.660897415,,,,,,
7.29,67.81818182,0.668138602,0.632607777,0.726953238,0.675899872,,,,,,
7.3,65.98989899,0.659050442,0.598232826,0.71927423,0.658852499,,,,,,
7.31,65.3030303,0.656202291,0.586293791,0.7112576,0.651251227,,,,,,
7.32,66.42424242,0.658429171,0.597122354,0.728487086,0.661346204,,,,,,
7.33,65.77777778,0.654045279,0.592011097,0.72411771,0.656724695,,,,,,
7.34,66.44949495,0.667167231,0.6068992,0.717589192,0.663885208,,,,,,
7.35,66.45454545,0.666862771,0.601630413,0.713812061,0.660768415,,,,,,
7.36,66.8989899,0.668876434,0.604279106,0.732637268,0.668597603,,,,,,
7.37,66.17676768,0.668375098,0.596734539,0.710018701,0.658376113,,,,,,
7.38,66.21717172,0.675256663,0.598947283,0.703855193,0.659353046,,,,,,
7.39,66.92424242,0.676661443,0.607209068,0.720744449,0.668204986,,,,,,
7.4,65.29292929,0.661791269,0.57837719,0.710131568,0.650100009,,,,,,
7.41,66.22222222,0.664471716,0.595940675,0.724978029,0.661796807,,,,,,
7.42,66.44444444,0.673478524,0.601404608,0.713974659,0.662952597,,,,,,
7.43,67.09090909,0.687685259,0.604265461,0.718212299,0.67005434,,,,,,
7.44,65.32323232,0.656396398,0.589774457,0.711788008,0.652652954,,,,,,
7.45,65.76767677,0.669716633,0.587754198,0.706877096,0.654782642,,,,,,
7.46,65.77777778,0.662510809,0.580165319,0.724091987,0.655589372,,,,,,
7.47,66.20707071,0.659037592,0.609857402,0.718236255,0.662377083,,,,,,
7.48,66.20707071,0.678612933,0.575693352,0.714883028,0.656396438,,,,,,
7.49,66.22727273,0.662820513,0.597637288,0.718050188,0.659502663,,,,,,
7.5,65.73232323,0.66605758,0.58372008,0.713580584,0.654452748,,,,,,
7.51,66.6969697,0.663688132,0.59497673,0.725275218,0.66131336,,,,,,
7.52,67.11616162,0.667342278,0.622853749,0.722886489,0.671027505,,,,,,
7.53,66.88888889,0.670607961,0.607519521,0.726539046,0.668222176,,,,,,
7.54,65.77272727,0.67409098,0.588720124,0.709832527,0.657547877,,,,,,
7.55,65.98989899,0.673451579,0.598057676,0.706990117,0.659499791,,,,,,
7.56,65.31818182,0.653685627,0.575863254,0.720090457,0.649879779,,,,,,
7.57,66.22222222,0.662307738,0.60087791,0.714673519,0.659286389,,,,,,
7.58,66.65656566,0.672807779,0.608284698,0.712535014,0.664542497,,,,,,
7.59,66.46969697,0.660064772,0.601733925,0.722085523,0.66129474,,,,,,
7.6,66.67171717,0.676598495,0.595255303,0.725025922,0.665626574,,,,,,
7.61,65.54545455,0.64828283,0.598655115,0.718101975,0.655013307,,,,,,
7.62,65.98989899,0.664978438,0.590282566,0.721708718,0.658989907,,,,,,
7.63,66.45959596,0.679376561,0.602010675,0.710048238,0.663811825,,,,,,
7.64,65.51010101,0.639533971,0.595213799,0.71747098,0.650739583,,,,,,
7.65,65.97979798,0.661385372,0.593013896,0.723604382,0.65933455,,,,,,
7.66,66.22222222,0.655325079,0.599185185,0.719981761,0.658164008,,,,,,
7.67,65.97979798,0.668716324,0.592555031,0.716096536,0.65912263,,,,,,
7.68,66.18686869,0.672274961,0.59009298,0.713277755,0.658548565,,,,,,
7.69,65.07070707,0.677001864,0.587281636,0.688313285,0.650865595,,,,,,
7.7,66.41919192,0.668371009,0.596137972,0.719309206,0.661272729,,,,,,
7.71,66,0.671916709,0.587673506,0.715076547,0.658222254,,,,,,
7.72,66.41414141,0.678272766,0.603005238,0.71288135,0.664719785,,,,,,
7.73,66.21212121,0.674213713,0.593256086,0.718094906,0.661854902,,,,,,
7.74,66.23232323,0.671235945,0.593937887,0.723222384,0.662798739,,,,,,
7.75,66.67676768,0.676016376,0.602200726,0.719393342,0.665870148,,,,,,
7.76,67.12626263,0.678163526,0.59964713,0.728664661,0.668825106,,,,,,
7.77,65.54040404,0.662867362,0.577548761,0.714862599,0.651759574,,,,,,
7.78,66.20707071,0.664524092,0.600346518,0.717879478,0.660916696,,,,,,
7.79,64.85858586,0.65472902,0.58141195,0.700958363,0.645699778,,,,,,
7.8,65.77777778,0.665312517,0.587220015,0.706985036,0.653172523,,,,,,
7.81,66.69191919,0.663399836,0.607593354,0.721909908,0.664301033,,,,,,
7.82,66.22222222,0.651996867,0.596834005,0.724214377,0.65768175,,,,,,
7.83,66.44444444,0.668147988,0.603495294,0.717148946,0.662930743,,,,,,
7.84,65.76262626,0.656481092,0.594703844,0.721254414,0.657479783,,,,,,
7.85,66.66161616,0.680453083,0.589444114,0.721642545,0.663846581,,,,,,
7.86,66.44444444,0.660313201,0.600774576,0.727992817,0.663026865,,,,,,
7.87,66.43434343,0.675291005,0.596905144,0.718225727,0.663473959,,,,,,
7.88,66.66161616,0.653978348,0.60783141,0.730282828,0.664030862,,,,,,
7.89,66.44444444,0.671730919,0.591280174,0.724468139,0.662493077,,,,,,
7.9,65.53535354,0.668324632,0.584836107,0.711538289,0.654899676,,,,,,
7.91,66.2020202,0.669669258,0.601495526,0.707756148,0.659640311,,,,,,
7.92,66,0.667110713,0.597225081,0.708366689,0.657567494,,,,,,
7.93,66.00505051,0.668891678,0.585441711,0.717929273,0.657420887,,,,,,
7.94,66.20707071,0.665774815,0.595217786,0.719852564,0.660281722,,,,,,
7.95,65.08585859,0.65650559,0.573989459,0.712336872,0.64761064,,,,,,
7.96,65.53030303,0.663042865,0.586016076,0.71352086,0.654193267,,,,,,
7.97,66.91414141,0.680760266,0.609906092,0.71322578,0.667964046,,,,,,
7.98,66.00505051,0.661827802,0.591457861,0.713449066,0.655578243,,,,,,
7.99,65.09090909,0.655032002,0.586558569,0.703348438,0.648313003,,,,,,
8,66.69191919,0.678704163,0.595662659,0.725483735,0.666616853,,,,,,
8.01,65.51515152,0.662125787,0.586601462,0.713002892,0.653910047,,,,,,
8.02,66.20707071,0.671713446,0.598502364,0.711398006,0.660537939,,,,,,
8.03,66.1969697,0.654572248,0.604063376,0.7143975,0.657677708,,,,,,
8.04,66.17676768,0.664178699,0.596248993,0.715180891,0.658536194,,,,,,
8.05,64.85858586,0.664200679,0.569025905,0.706367783,0.646531456,,,,,,
8.06,65.74242424,0.658393003,0.595854828,0.706919337,0.653722389,,,,,,
8.07,65.98484848,0.652050961,0.600851532,0.721516615,0.658139703,,,,,,
8.08,66.44949495,0.673134864,0.587206008,0.723989456,0.661443443,,,,,,
8.09,66.43939394,0.675740033,0.606051181,0.709032971,0.663608062,,,,,,
8.1,65.98989899,0.662659978,0.593995941,0.713901146,0.656852355,,,,,,
8.11,67.13636364,0.690664921,0.601154494,0.719860203,0.670559873,,,,,,
8.12,66.68181818,0.67044279,0.603062358,0.716725192,0.663410113,,,,,,
8.13,66.00505051,0.668928268,0.599876106,0.702093433,0.656965936,,,,,,
8.14,66.01515152,0.653294791,0.605612541,0.721182266,0.660029866,,,,,,
8.15,67.12626263,0.694287122,0.594319196,0.71871803,0.669108116,,,,,,
8.16,65.96969697,0.675652967,0.575970141,0.716884872,0.656169327,,,,,,
8.17,66.23737374,0.669641495,0.597997172,0.721671745,0.66310347,,,,,,
8.18,65.74747475,0.658503158,0.595819785,0.715915871,0.656746271,,,,,,
8.19,65.51515152,0.652172617,0.592931827,0.715886915,0.653663786,,,,,,
8.2,66.66666667,0.669844585,0.606284005,0.717506087,0.664544892,,,,,,
8.21,65.32828283,0.667553688,0.579108109,0.714708696,0.653790164,,,,,,
8.22,67.33333333,0.679867512,0.611209633,0.725697865,0.672258337,,,,,,
8.23,67.14141414,0.668528061,0.604159154,0.733967546,0.66888492,,,,,,
8.24,67.13131313,0.676439861,0.614722011,0.716693038,0.66928497,,,,,,
8.25,65.99494949,0.665414021,0.59750527,0.713119607,0.658679633,,,,,,
8.26,66.2020202,0.665149194,0.599347354,0.717111701,0.660536083,,,,,,
8.27,67.33838384,0.693481955,0.606332343,0.716481921,0.67209874,,,,,,
8.28,66,0.671335372,0.592952612,0.715796925,0.660028303,,,,,,
8.29,66.66161616,0.66776983,0.602970088,0.72025946,0.663666459,,,,,,
8.3,67.10606061,0.681075265,0.606476177,0.716551759,0.668034401,,,,,,
8.31,66.22727273,0.669159336,0.587739882,0.719101231,0.658666816,,,,,,
8.32,65.99494949,0.671057459,0.600365434,0.704090205,0.658504366,,,,,,
8.33,65.09090909,0.648987071,0.592199283,0.707995275,0.64972721,,,,,,
8.34,64.84848485,0.665108225,0.576140966,0.697554532,0.646267907,,,,,,
8.35,65.34343434,0.644010192,0.589233845,0.719196801,0.650813613,,,,,,
8.36,65.52525253,0.653110288,0.600173343,0.709755344,0.654346325,,,,,,
8.37,67.34343434,0.684184696,0.619454071,0.715305051,0.672981273,,,,,,
8.38,66.20707071,0.669972138,0.599813466,0.715378911,0.661721505,,,,,,
8.39,66.43939394,0.659862405,0.607495734,0.723268009,0.663542049,,,,,,
8.4,66.88888889,0.664498714,0.607032234,0.725280347,0.665603765,,,,,,
8.41,67.13131313,0.681252757,0.598144521,0.736373395,0.671923558,,,,,,
8.42,66.42929293,0.67238908,0.595428883,0.714498583,0.660772182,,,,,,
8.43,66.21717172,0.665291219,0.600083215,0.715995667,0.6604567,,,,,,
8.44,66.42929293,0.677124728,0.597552763,0.713838485,0.662838658,,,,,,
8.45,65.75757576,0.663719535,0.585199651,0.713418925,0.654112703,,,,,,
8.46,65.77777778,0.664196961,0.597398642,0.711838508,0.65781137,,,,,,
8.47,67.12121212,0.672965959,0.616369923,0.722864298,0.670733393,,,,,,
8.48,66.45454545,0.667290616,0.600327302,0.720173077,0.662596998,,,,,,
8.49,66.22727273,0.664918039,0.595753107,0.718425447,0.659698864,,,,,,
8.5,65.76767677,0.668601557,0.595307647,0.707580218,0.657163141,,,,,,
8.51,66.88888889,0.680497747,0.615500448,0.713441978,0.669813391,,,,,,
8.52,66.9040404,0.675855183,0.608026234,0.726955859,0.670279092,,,,,,
8.53,66.46464646,0.672326639,0.600972468,0.716644925,0.663314677,,,,,,
8.54,67.36363636,0.682936261,0.609345183,0.724336345,0.67220593,,,,,,
8.55,66.44444444,0.670414439,0.594915349,0.722594947,0.662641578,,,,,,
8.56,65.96969697,0.656177006,0.600412393,0.70754819,0.65471253,,,,,,
8.57,65.2979798,0.664037724,0.578291737,0.717794619,0.653374694,,,,,,
8.58,66.64141414,0.668363906,0.612463082,0.716556145,0.665794378,,,,,,
8.59,67.13636364,0.67326167,0.615110075,0.721790034,0.670053927,,,,,,
8.6,66.18686869,0.677271235,0.59586246,0.709951306,0.661028333,,,,,,
8.61,65.75757576,0.661584508,0.586721924,0.717026719,0.65511105,,,,,,
8.62,65.30808081,0.667411101,0.586165595,0.704614203,0.6527303,,,,,,
8.63,66.2020202,0.672044931,0.596045555,0.717341065,0.661810517,,,,,,
8.64,66.00505051,0.6557846,0.60025768,0.721273456,0.659105245,,,,,,
8.65,66.92929293,0.675375563,0.617108524,0.720989541,0.671157876,,,,,,
8.66,65.2979798,0.66071718,0.585371654,0.705594745,0.650561193,,,,,,
8.67,65.09090909,0.661624851,0.582195797,0.711028677,0.651616441,,,,,,
8.68,66,0.661015529,0.585241799,0.721772031,0.656009786,,,,,,
8.69,66.41414141,0.656561438,0.614821945,0.715621659,0.662335014,,,,,,
8.7,67.56060606,0.679875149,0.619406645,0.717719821,0.672333872,,,,,,
8.71,66.22222222,0.663791591,0.606116804,0.716162297,0.662023564,,,,,,
8.72,66.44444444,0.664039807,0.596201672,0.713985341,0.658075607,,,,,,
8.73,66.1969697,0.668527506,0.597935772,0.714854037,0.660439105,,,,,,
8.74,66.88888889,0.679173351,0.600026536,0.717562288,0.665587391,,,,,,
8.75,64.84343434,0.654874079,0.582059412,0.715968573,0.650967355,,,,,,
8.76,65.98484848,0.659619816,0.589956927,0.724060755,0.657879166,,,,,,
8.77,65.34343434,0.656108336,0.592101732,0.711603441,0.65327117,,,,,,
8.78,65.76262626,0.658999159,0.599460541,0.703927473,0.654129058,,,,,,
8.79,65.77777778,0.647808053,0.596880219,0.719350905,0.654679725,,,,,,
8.8,66.65151515,0.668525816,0.602351418,0.720045758,0.663640998,,,,,,
8.81,65.99494949,0.662577353,0.608065539,0.704856413,0.658499768,,,,,,
8.82,66.93939394,0.677561955,0.624865591,0.70868513,0.670370892,,,,,,
8.83,65.30808081,0.656481938,0.591569223,0.711262964,0.653104708,,,,,,
8.84,64.3989899,0.658865049,0.560705378,0.698331774,0.639300734,,,,,,
8.85,66.64141414,0.687462269,0.595277462,0.706827109,0.663188947,,,,,,
8.86,65.53030303,0.657394622,0.58356867,0.721175127,0.65404614,,,,,,
8.87,66.43434343,0.669228058,0.609671714,0.710631842,0.663177205,,,,,,
8.88,66.66666667,0.666672183,0.599634933,0.721862662,0.662723259,,,,,,
8.89,66.21717172,0.678018224,0.59355638,0.71534134,0.662305315,,,,,,
8.9,66.1969697,0.675090107,0.599611821,0.705110612,0.659937514,,,,,,
8.91,66.66161616,0.673347171,0.601335,0.726660053,0.667114075,,,,,,
8.92,65.76767677,0.672828682,0.579925214,0.71405357,0.655602488,,,,,,
8.93,66.22222222,0.666970076,0.608419198,0.710461634,0.661950303,,,,,,
8.94,66.44949495,0.661810963,0.608211201,0.718979454,0.663000539,,,,,,
8.95,66.44949495,0.665823218,0.620379698,0.712001384,0.6660681,,,,,,
8.96,66.43939394,0.678041918,0.598639767,0.718919611,0.665200432,,,,,,
8.97,66.90909091,0.664230967,0.612032646,0.721376085,0.665879899,,,,,,
8.98,66.64141414,0.672528934,0.604269149,0.723216426,0.666671503,,,,,,
8.99,65.56060606,0.652203666,0.592986758,0.710802395,0.651997607,,,,,,
9,66.00505051,0.664043406,0.591070526,0.715938853,0.657017595,,,,,,
9.01,65.53030303,0.66177462,0.572762024,0.720179464,0.651572036,,,,,,
9.02,65.77777778,0.66637624,0.597453186,0.710676678,0.658168701,,,,,,
9.03,65.98989899,0.665478828,0.596796631,0.715116701,0.65913072,,,,,,
9.04,66.8989899,0.691540272,0.606283864,0.703129373,0.666984503,,,,,,
9.05,66.89393939,0.66286957,0.60800847,0.730791932,0.667223324,,,,,,
9.06,66.66666667,0.676109728,0.593488597,0.713627608,0.661075311,,,,,,
9.07,66.24747475,0.66186448,0.601291743,0.720270599,0.661142274,,,,,,
9.08,66.45454545,0.656153391,0.600036706,0.730448638,0.662212912,,,,,,
9.09,65.97474747,0.659043364,0.590282948,0.716641852,0.655322721,,,,,,
9.1,66.41414141,0.677994846,0.607147154,0.702462633,0.662534878,,,,,,
9.11,65.52525253,0.666706932,0.579346565,0.715020771,0.653691423,,,,,,
9.12,64.58080808,0.646074605,0.57574659,0.702229749,0.641350315,,,,,,
9.13,67.12626263,0.677277869,0.610128573,0.727749025,0.671718489,,,,,,
9.14,66.67171717,0.658695388,0.60954023,0.723375888,0.663870502,,,,,,
9.15,65.99494949,0.667439762,0.590531442,0.717573685,0.658514963,,,,,,
9.16,66.42929293,0.677023168,0.594396003,0.705786742,0.659068638,,,,,,
9.17,66.67171717,0.677625563,0.591484036,0.724962001,0.664690533,,,,,,
9.18,66.20707071,0.674886896,0.601275923,0.70878042,0.661647746,,,,,,
9.19,67.12626263,0.673096571,0.614743835,0.722397738,0.670079381,,,,,,
9.2,65.96464646,0.672317773,0.580954166,0.722103273,0.658458404,,,,,,
9.21,65.55050505,0.662950437,0.589696528,0.71508078,0.655909248,,,,,,
9.22,65.29292929,0.652323312,0.590728827,0.713586925,0.652213021,,,,,,
9.23,66.44444444,0.659905615,0.599786404,0.725633785,0.661775268,,,,,,
9.24,66.00505051,0.662958495,0.590767813,0.722712376,0.658812894,,,,,,
9.25,66.8989899,0.667450901,0.614818885,0.723120543,0.668463443,,,,,,
9.26,67.1010101,0.681680434,0.608791259,0.721140697,0.670537463,,,,,,
9.27,65.74747475,0.667353017,0.591307236,0.705789886,0.654816713,,,,,,
9.28,65.76262626,0.664482804,0.590493511,0.712844344,0.655940219,,,,,,
9.29,65.30808081,0.661499187,0.583980478,0.713382487,0.652954051,,,,,,
9.3,65.31313131,0.658035837,0.579237013,0.710673077,0.649315309,,,,,,
9.31,65.99494949,0.669431502,0.582563153,0.712631329,0.654875328,,,,,,
9.32,66.65151515,0.670953244,0.598080283,0.72839207,0.665808532,,,,,,
9.33,65.55555556,0.67149473,0.579054088,0.705182305,0.651910374,,,,,,
9.34,65.76767677,0.667965626,0.600311671,0.698711375,0.655662891,,,,,,
9.35,66.67171717,0.671347926,0.603625017,0.720617813,0.665196919,,,,,,
9.36,65.31313131,0.648686948,0.581352574,0.716212276,0.648750599,,,,,,
9.37,67.57575758,0.68071945,0.617972601,0.72666391,0.675118654,,,,,,
9.38,66.9040404,0.676559738,0.597582508,0.725053806,0.666398684,,,,,,
9.39,65.33838384,0.652155278,0.57330325,0.727672036,0.651043521,,,,,,
9.4,66.21717172,0.662900143,0.599052239,0.717329884,0.659760756,,,,,,
9.41,65.08585859,0.655208978,0.578417088,0.717796591,0.650474219,,,,,,
9.42,66.64646465,0.677939183,0.599409641,0.712102315,0.66315038,,,,,,
9.43,65.3030303,0.651078225,0.599032258,0.708737457,0.652949313,,,,,,
9.44,65.2979798,0.660750701,0.58511069,0.711610158,0.652490517,,,,,,
9.45,66.2020202,0.664630147,0.598561894,0.721126262,0.661439434,,,,,,
9.46,66.19191919,0.665181238,0.602889204,0.709147276,0.659072573,,,,,,
9.47,66.21717172,0.660263567,0.600522454,0.720671418,0.660485813,,,,,,
9.48,66.8989899,0.678433504,0.609484796,0.715553723,0.667824008,,,,,,
9.49,64.85353535,0.645072461,0.584580223,0.710221526,0.646624736,,,,,,
9.5,65.76767677,0.669425217,0.58938172,0.714588,0.657798313,,,,,,
9.51,66.89393939,0.675904044,0.603060404,0.725270347,0.668078265,,,,,,
9.52,66.1969697,0.659372362,0.587716487,0.726411793,0.657833547,,,,,,
9.53,66.88383838,0.670608046,0.604368192,0.724761434,0.666579224,,,,,,
9.54,66.91919192,0.659320886,0.619337542,0.724738674,0.667799034,,,,,,
9.55,65.32828283,0.65225218,0.582356631,0.718646155,0.651084989,,,,,,
9.56,66.90909091,0.661568578,0.613272191,0.728212763,0.66768451,,,,,,
9.57,66.45959596,0.67234639,0.601629085,0.713313781,0.662429752,,,,,,
9.58,66.00505051,0.657931235,0.589448608,0.727425449,0.658268431,,,,,,
9.59,66.65151515,0.677157047,0.605037773,0.71093949,0.664378103,,,,,,
9.6,65.78282828,0.657569751,0.598548762,0.712537349,0.656218621,,,,,,
9.61,65.54545455,0.660692157,0.588869088,0.706676891,0.652079379,,,,,,
9.62,66.45454545,0.668708603,0.599115021,0.710885612,0.659569746,,,,,,
9.63,66.87878788,0.668035156,0.605682605,0.724370958,0.666029573,,,,,,
9.64,67.33333333,0.676838629,0.610211213,0.726017589,0.671022477,,,,,,
9.65,67.34343434,0.674271559,0.611236864,0.731996705,0.672501709,,,,,,
9.66,66.65656566,0.674675102,0.602832925,0.721430421,0.666312816,,,,,,
9.67,65.56060606,0.655866042,0.58762363,0.719669312,0.654386328,,,,,,
9.68,66.18181818,0.662941939,0.591951941,0.719908612,0.658267497,,,,,,
9.69,65.77777778,0.663838253,0.598777121,0.707288957,0.656634777,,,,,,
9.7,66.44949495,0.676913796,0.598973343,0.720362915,0.665416685,,,,,,
9.71,65.98989899,0.671408134,0.59736665,0.710873889,0.659882891,,,,,,
9.72,66.67171717,0.671388603,0.60856683,0.718157816,0.66603775,,,,,,
9.73,66.45959596,0.667996511,0.595587323,0.720255658,0.661279831,,,,,,
9.74,65.06565657,0.651253883,0.592699251,0.705740039,0.649897725,,,,,,
9.75,65.54040404,0.667652257,0.583986889,0.711646321,0.654428489,,,,,,
9.76,65.98989899,0.665386757,0.595599442,0.712589397,0.657858532,,,,,,
9.77,66.42929293,0.672919207,0.604290175,0.71720674,0.664805374,,,,,,
9.78,65.99494949,0.675508347,0.586934941,0.713269178,0.658570822,,,,,,
9.79,65.78282828,0.666000901,0.584612801,0.715667614,0.655427105,,,,,,
9.8,66.86868687,0.680271879,0.605078481,0.71227774,0.665876033,,,,,,
9.81,65.98989899,0.6544948,0.594759456,0.72120411,0.656819456,,,,,,
9.82,67.12626263,0.670478678,0.616999258,0.723077014,0.670184983,,,,,,
9.83,66.66666667,0.674649882,0.604197006,0.717760599,0.665535829,,,,,,
9.84,65.97474747,0.667976259,0.589708276,0.715155222,0.657613252,,,,,,
9.85,66.44949495,0.673706888,0.601017665,0.715020695,0.663248416,,,,,,
9.86,66.87373737,0.662203314,0.618192812,0.718701261,0.666365796,,,,,,
9.87,66.41919192,0.657191654,0.599135673,0.732016387,0.662781238,,,,,,
9.88,66.41919192,0.653580036,0.609907404,0.722491039,0.661992826,,,,,,
9.89,65.97979798,0.665411383,0.592153241,0.71669394,0.658086188,,,,,,
9.9,67.13131313,0.683349297,0.596106251,0.718835791,0.666097113,,,,,,
9.91,66.90909091,0.674379324,0.607132538,0.724608739,0.668706867,,,,,,
9.92,67.12121212,0.679202462,0.603720654,0.721853262,0.668258793,,,,,,
9.93,67.14141414,0.669440235,0.605201229,0.732367686,0.66900305,,,,,,
9.94,65.56060606,0.669749498,0.59091929,0.703604012,0.6547576,,,,,,
9.95,65.31313131,0.657564535,0.593294217,0.706240576,0.652366443,,,,,,
9.96,66.23232323,0.666727273,0.58788502,0.727425574,0.660679289,,,,,,
9.97,67.11616162,0.683032889,0.617167031,0.713275634,0.671158518,,,,,,
9.98,66.88888889,0.669939409,0.605673331,0.72392121,0.666511317,,,,,,
9.99,66.66666667,0.670512871,0.60228561,0.726004751,0.666267744,,,,,,
10,65.06565657,0.659098371,0.574634873,0.720050777,0.65126134,,,,,,
