@relation 'data-student-learning-analytics-plus-class-weka.filters.unsupervised.attribute.Remove-R1,2,3,4,5,6,7,8,9,10,11-weka.filters.supervised.instance.Resample-B0.0-S161803398-Z80.0-no-replacement-weka.filters.supervised.instance.SMOTE-C0-K20-P100.0-S161803398-weka.filters.supervised.instance.SMOTE-C2-K20-P300.0-S161803398-weka.filters.unsupervised.instance.Randomize-S161803398-weka.filters.unsupervised.attribute.Standardize'

@attribute sum_count_assignment_upload numeric
@attribute sum_count_assignment_view numeric
@attribute sum_count_course_view numeric
@attribute sum_count_forum_add_discussion numeric
@attribute sum_count_forum_add_post numeric
@attribute sum_count_forum_view_discussion numeric
@attribute sum_count_forum_view_forum numeric
@attribute sum_count_quiz_attempt numeric
@attribute sum_count_quiz_review numeric
@attribute sum_count_quiz_view numeric
@attribute sum_count_scele_resource_view numeric
@attribute sum_count_content_access_view numeric
@attribute snr_count_assignment_view numeric
@attribute snr_count_course_view numeric
@attribute snr_count_forum_view_discussion numeric
@attribute snr_count_quiz_view numeric
@attribute snr_count_scele_resource_view numeric
@attribute min_diff_enrol_all_course numeric
@attribute snr_diff_course_view numeric
@attribute snr_diff_scele_resource_view numeric
@attribute asgn_rcpmean_diff_first_view_time_available_created numeric
@attribute asgn_mean_diff_time_due_first_submit numeric
@attribute quiz_rcpmean_diff_first_view_time_open_created numeric
@attribute quiz_mean_diff_time_finish_time_start numeric
@attribute signal {Green,Yellow,Red}

@data
1.247003,0.929838,0.063066,-0.167473,-0.701546,-0.213641,0.260912,0.357614,0.025728,0.484106,0.266067,1.01438,0.299513,-0.42704,2.154684,-0.568483,-0.337868,0.508379,-0.318764,-0.455236,-0.327364,0.594677,0.054617,-0.158774,Green
0.591642,2.413574,1.479576,2.338044,1.399636,0.696292,1.712556,0.216424,0.160367,1.384457,0.238194,-0.74057,1.152303,1.494505,0.273238,1.633861,1.205527,-2.38011,0.261364,0.488039,1.083641,0.708694,1.333655,-1.149458,Green
-0.456937,1.046975,0.650399,-0.167473,0.232313,1.118761,1.032098,-0.018893,-0.198671,0.17364,0.48905,0.065758,2.226559,0.698868,0.195223,0.742617,1.322021,-0.218888,0.211391,0.346685,-0.520008,-0.5942,-0.370626,-0.061167,Green
4.392739,0.929838,0.374007,-0.167473,1.633101,3.166109,1.077462,-0.630717,-0.737228,-0.571478,-0.082345,-0.835432,-1.265012,1.112881,-0.112863,-0.645469,1.202916,-0.746118,-0.314776,-0.018308,-0.262325,0.209336,-0.704396,-0.964564,Green
-0.588009,4.873452,0.719497,-0.167473,0.232313,0.273823,0.805278,0.498805,0.474525,2.160622,0.405432,0.302914,1.440417,0.125591,-0.417632,1.296346,0.466157,-0.693251,-0.171524,-0.236116,-0.008371,-0.342881,-0.104885,0.250015,Green
-0.456937,0.070833,0.005484,-0.167473,-0.468081,0.338818,0.533095,0.02817,-0.064032,-0.261012,0.739907,-0.835432,2.294445,0.986977,0.090466,0.130819,1.251042,-0.723154,0.314927,-0.275791,-0.233989,-0.334407,-0.187952,-0.743562,Green
0.853786,0.539381,0.604334,-0.167473,-0.234617,-0.148646,-0.283455,0.263488,0.205246,0.328873,0.029147,-0.550846,0.215985,1.054071,0.373517,0.335713,1.037222,-0.001389,1.067417,0.94888,-0.002134,-0.557097,0.072091,0.489061,Green
-0.325865,-0.319624,-1.376476,-0.167473,-0.234617,-0.376129,-0.601002,-1.242542,-1.230905,-0.91299,-1.099709,-0.930294,-0.308932,-0.614929,-0.315934,0.188732,-1.302222,0.510894,0.871629,0.771028,-0.167404,-0.335092,-0.415408,-1.202193,Green
-0.194792,-0.788172,-0.155744,-0.167473,-0.701546,-0.961086,-0.963913,1.298883,1.28236,1.229224,-0.291393,0.11319,0.340625,-0.503774,-0.233545,0.531275,0.529304,0.512682,0.133434,0.416831,-0.129826,0.007223,0.166464,0.260159,Green
0.067352,0.851747,-0.363039,-0.167473,-0.234617,-0.63611,-0.646366,0.498805,0.205246,0.763525,-0.040536,0.5875,0.150577,0.08477,0.204466,0.669816,0.009359,0.161524,-0.305445,-0.702344,-0.154087,0.723939,0.312259,-0.147431,Green
-0.456937,0.070833,-0.5473,4.843562,0.465777,0.696292,0.850642,-0.25421,-0.288431,-0.136825,-1.48993,-0.930294,-0.062819,0.645788,0.528487,-0.509731,-0.280324,0.457018,0.314987,3.905121,0.125586,3.748389,-0.161547,-1.347606,Green
-0.06372,0.968884,0.454621,2.338044,2.566959,3.458587,5.341667,0.02817,-0.019152,0.297827,-0.597995,-0.693139,0.131684,-0.249411,0.182476,0.446071,0.589382,-0.944315,-0.377241,1.018483,23.232315,0.896776,0.762217,-1.328776,Green
0.984859,-0.35867,-1.030986,-0.167473,0.232313,-0.213641,-0.056635,-0.771908,-0.737228,-0.975083,0.502987,-0.645708,1.401882,-0.460099,0.036683,-0.523765,-1.220134,0.511818,1.427831,-0.698952,-0.138057,1.639646,0.018248,0.379592,Green
0.591642,0.929838,-0.835208,-0.167473,-0.701546,-0.278636,-0.69173,0.216424,0.160367,0.328873,0.001274,0.919518,1.615807,0.822195,0.736925,0.820112,-1.107132,-0.0015,1.087026,-0.700762,0.67791,0.044317,-0.064291,-0.593655,Green
0.853786,1.281249,0.258844,-0.167473,-0.001152,0.111335,-0.737094,-0.866034,-0.871867,-0.850897,0.098829,0.350345,0.029743,0.628406,1.224906,-0.010219,0.584586,-0.958765,-0.429059,0.458424,-0.123428,-0.297637,-0.405884,0.668703,Green
0.460569,0.46129,0.569785,-0.167473,-0.001152,0.728789,0.487731,1.063566,2.898031,0.825619,0.098829,1.01438,1.17222,0.923641,1.035146,1.025092,0.342991,-0.68899,0.650898,0.937227,-0.336306,1.24474,-0.10562,-0.985671,Green
-0.588009,-0.710081,-0.121195,-0.167473,0.232313,0.793785,-0.011271,0.404678,0.250126,-0.323105,-0.235647,-0.503415,0.393343,0.05374,0.60969,0.473446,0.765573,-2.498583,-0.128378,0.518586,0.018399,1.14169,-0.294661,-1.004805,Green
1.115931,-0.007259,-0.823692,-0.167473,-0.001152,-0.603612,-0.69173,0.922375,0.788683,0.390967,-0.820979,-0.74057,0.230344,-0.251724,0.343607,-0.572346,0.686408,0.456556,1.308554,1.072705,-0.061559,-0.563805,-0.338995,0.169931,Green
-0.719082,0.539381,-0.593365,-0.167473,-0.234617,-0.343631,-0.374182,-0.913098,-0.916747,-0.478338,-1.643232,-0.930294,-1.286202,0.277534,-0.466664,0.498983,0.018363,0.39207,-0.505112,3.044577,-0.545043,-0.168195,-0.341304,2.099785,Green
-0.588009,-0.046304,-0.063614,-0.167473,-0.234617,-0.181143,0.215548,1.957771,2.045316,1.260271,-0.751297,-0.835432,-0.503725,1.074813,0.17231,-0.374715,1.527802,-0.725387,0.496161,1.837109,-0.20822,-0.491069,-0.222255,-0.949267,Green
2.164509,2.374528,0.661916,-0.167473,8.403577,6.968328,2.166195,1.39301,1.102841,1.136084,0.76778,-0.029104,-0.581294,1.543711,0.904427,0.584668,-0.024667,-2.197895,0.409243,-0.162111,-0.155343,1.356235,-0.264609,0.468893,Green
0.198425,-0.319624,-1.249797,-0.167473,-0.001152,-0.63611,-0.238091,-0.960161,-1.006506,-0.850897,-1.434184,-0.74057,-1.459759,-0.113041,-0.894514,0.4131,-0.564585,0.519056,1.937699,0.860664,-0.010907,0.711259,-0.439646,-0.610867,Green
-0.588009,0.812701,0.086099,-0.167473,-0.701546,-0.376129,-0.601002,-0.018893,-0.108912,0.204687,-0.040536,-0.598277,1.265646,0.58361,1.513162,0.292605,0.632228,2.989744,-0.635076,-0.19939,-0.055835,-0.512604,-0.40688,-0.851344,Green
1.378076,1.320295,0.754046,-0.167473,0.232313,0.923775,0.805278,1.110629,0.878443,1.260271,-0.862788,-0.788001,0.280475,-0.1475,1.098995,0.419645,0.861685,-0.917312,0.867701,2.21394,-0.235121,-0.331022,1.306705,0.275063,Green
-0.325865,-0.124396,-1.030986,-0.167473,-0.701546,-0.311134,-0.283455,0.169361,0.025728,0.422013,-0.528313,-0.503415,0.449683,0.930249,2.315427,0.270161,-0.11471,0.504066,0.049456,-0.586194,1.490049,-0.58835,-0.135678,2.12528,Green
0.198425,2.023117,0.926791,2.338044,5.602,6.578357,6.112853,-0.207147,-0.33331,0.297827,1.297367,-0.029104,0.111412,-0.186415,1.553888,-0.279278,-0.028719,-0.777886,-0.478455,-0.837161,2.016506,1.713862,1.638281,2.121674,Green
0.853786,2.413574,0.846177,-0.167473,2.566959,2.353669,1.984739,-0.160083,-0.153791,0.45306,1.590033,0.160621,1.280428,0.843859,0.270352,1.003523,-0.267057,-0.748839,-0.596307,-1.484147,1.712169,-0.199738,-0.12087,0.617344,Green
-0.719082,-0.553898,-0.374555,-0.167473,-0.001152,-0.473622,-0.374182,1.345946,1.147721,0.608293,-0.528313,-0.361121,0.810552,0.42206,-0.288194,0.786103,0.866364,0.057476,1.527111,0.339054,0.365305,2.652882,-0.260579,0.018893,Green
0.853786,2.647848,1.456543,-0.167473,-0.234617,0.208828,0.12482,0.498805,1.910676,1.53969,0.070956,1.061811,2.719819,0.597277,0.922795,1.342046,-1.208183,-2.398137,0.370364,0.780036,1.488521,0.037143,0.127308,-0.459974,Green
0.984859,2.999259,2.228138,-0.167473,2.333495,0.98877,1.803284,0.451741,0.339886,1.042945,0.210321,-0.31369,0.57152,0.456817,-0.292419,0.409938,1.180991,-9.822522,-2.473604,-0.483485,0.203357,-0.415351,0.548133,3.018947,Green
0.329497,-0.08535,-0.489718,-0.167473,1.633101,0.403813,0.850642,-0.724844,-0.782108,-0.354151,-1.01609,-0.645708,1.4508,-0.014883,-0.085959,-0.135119,0.474586,-0.688117,0.753976,1.933737,0.084563,1.156579,0.163773,2.778071,Green
0.329497,0.929838,-0.32849,-0.167473,-0.001152,-0.051153,-0.328819,0.639995,0.564284,0.484106,-0.50044,-0.693139,-0.442996,0.276695,0.477901,0.628737,1.139864,0.505538,0.238516,1.447726,-0.513044,0.582642,-0.328961,-0.689222,Green
-0.456937,-1.061492,-0.639431,-0.167473,-0.234617,-0.051153,0.12482,1.204756,1.102841,0.732479,-1.294819,-0.930294,1.08598,0.825897,-0.950822,1.277562,0.281476,0.510843,1.821821,1.757728,-0.143405,-0.06454,-0.122136,-0.686771,Green
-0.719082,0.227016,0.224295,-0.167473,0.465777,-0.116148,-0.646366,1.769517,1.596518,1.167131,0.865336,-0.835432,-0.201403,0.179499,0.282711,1.53598,-0.405988,0.508473,-0.341503,-0.186729,-0.257125,1.017988,-0.146462,-0.826306,Green
0.853786,-0.514852,-0.846725,-0.167473,-0.468081,-0.668607,-0.737094,0.122297,0.025728,-0.136825,-0.291393,-0.835432,0.218048,0.962718,-0.704023,0.169763,0.761023,0.508071,0.151099,-0.086459,-0.110949,0.507098,-0.366357,0.657254,Green
0.460569,0.227016,-1.111601,7.349079,-0.234617,-0.213641,0.487731,1.063566,0.923322,0.546199,-1.378438,-0.788001,0.577918,1.167137,-0.412465,1.355413,0.042207,0.729813,1.406408,1.646206,0.273889,0.68031,-0.473255,-1.119474,Green
-0.456937,-0.436761,0.408556,-0.167473,1.633101,3.881056,0.669187,1.063566,0.923322,0.918758,-0.277456,0.065758,0.596716,1.000217,1.371966,0.63679,0.706815,0.074527,0.974079,0.997042,0.828255,-0.15916,-0.129074,-0.937729,Green
1.247003,0.695564,-0.32849,-0.167473,-0.234617,-0.506119,-0.283455,-0.724844,-0.871867,-0.975083,-0.012663,-0.645708,1.104379,1.223891,0.412264,0.285356,1.100543,0.097029,-0.404795,-0.094784,-0.10509,-0.435074,-0.353799,-0.035671,Green
0.329497,0.929838,0.132164,-0.167473,0.465777,-0.018655,-0.374182,-0.018893,-0.108912,0.328873,1.032573,-0.882863,0.274053,0.077126,0.855891,1.181302,0.730858,0.463726,-0.419718,-0.414217,0.524657,-0.561251,0.456773,2.761778,Yellow
0.067352,1.125066,-0.20181,-0.167473,0.699242,0.143833,-0.238091,0.122297,0.070607,0.887712,-0.556186,0.540069,0.698377,0.020505,-0.98001,0.046831,-0.061203,-0.218931,0.474618,0.548331,-0.307547,-0.631519,-0.192336,-0.499749,Yellow
-0.588009,-0.631989,1.099536,-0.167473,-0.701546,-0.343631,-0.374182,0.592931,1.32724,1.384457,0.781717,0.208052,0.283262,0.815814,0.829752,0.111849,1.10678,-2.360534,-0.078384,0.54161,-0.109104,-0.300634,-0.053328,1.326139,Yellow
0.067352,2.608802,1.34138,-0.167473,1.166171,1.508732,0.533095,2.004834,1.641398,1.011898,0.53086,0.255483,-0.509388,0.183111,0.629062,0.443687,1.47993,-0.708001,-0.728993,0.449394,0.082603,0.855645,0.119801,0.536441,Yellow
4.130594,0.46129,0.109131,-0.167473,-0.468081,-0.246138,-0.419546,1.957771,1.776037,1.167131,0.070956,-0.218828,-1.401772,0.060115,0.154334,0.38155,0.900758,1.412495,-1.0052,-0.699168,-0.058393,0.043743,-0.404771,-0.742074,Yellow
0.198425,-0.710081,-0.938855,-0.167473,-0.001152,-0.246138,-0.374182,0.357614,0.295006,-0.136825,-0.820979,-0.788001,-0.060357,0.000608,1.44818,-0.461095,0.091533,-0.022573,1.16893,0.859678,0.078934,-0.347164,-0.484873,-1.044179,Yellow
0.591642,-0.866264,-0.316973,-0.167473,-0.468081,-0.538617,0.170184,-0.677781,-0.692348,-0.72671,0.447241,-0.693139,0.009871,0.076932,0.199735,-1.094458,0.709328,0.504486,-0.637139,-0.657835,-0.140513,-0.517907,-0.350755,-0.484404,Yellow
0.853786,0.890792,0.316425,-0.167473,0.232313,-0.376129,-0.69173,-0.160083,-0.198671,0.049454,-0.096282,-0.645708,0.659398,0.01501,-0.233545,0.277469,0.47525,0.512699,0.401935,1.185788,-0.04295,-0.15181,-0.527848,-1.189714,Yellow
-0.719082,-0.163441,-0.754594,-0.167473,-0.701546,-0.63611,-0.510274,-1.101352,-1.096266,-0.540431,-0.932471,-0.882863,0.493477,-0.834682,-0.770563,0.820112,-0.409691,-0.734285,0.478586,1.562283,-0.174933,-0.689647,2.344795,1.738361,Yellow
0.198425,1.866934,0.74253,-0.167473,0.465777,1.053765,0.578459,-0.866034,-0.198671,0.484106,-0.152028,-0.882863,1.069789,0.581086,-0.022636,0.922754,0.277161,-0.74083,0.876085,0.776871,-0.261266,-0.430104,-0.428388,-0.621655,Yellow
-3.078383,-2.662365,-2.205653,-0.167473,-0.701546,-1.156071,-1.054641,-1.666113,-1.679702,-1.782294,-2.075263,-0.930294,-2.727575,-3.306973,-2.992982,-2.550051,-2.657345,0.509209,-0.505112,1.02605,-2.010393,-0.639747,1.143816,-1.060597,Red
-1.76766,0.344153,-0.32849,-0.167473,-0.701546,-0.376129,-0.283455,-0.724844,-0.826987,0.049454,-0.277456,-0.693139,-0.367099,-0.60881,0.756359,0.356804,-0.174221,1.472164,-0.705017,-0.526942,-0.568494,0.947021,2.035064,1.433356,Red
0.329497,-0.631989,-0.67398,-0.167473,-0.701546,-0.506119,-0.873185,-0.489527,-0.737228,-0.261012,-0.054472,-0.503415,-0.189482,0.998235,0.492818,0.896984,-0.057099,0.510389,0.869465,-0.384852,-0.399744,-0.65742,0.59886,4.028925,Red
0.591642,-0.007259,-0.5473,-0.167473,-0.701546,-0.961086,-1.054641,-0.25421,-0.512829,-0.292058,-0.820979,-0.029104,-1.212068,1.191835,-1.30318,0.202385,1.371546,0.507574,0.596448,1.29563,-0.169241,1.104764,0.085877,2.598545,Red
-0.325865,0.148924,-0.305457,-0.167473,0.932707,-0.213641,-0.69173,-0.25421,-0.37819,-0.167872,0.572669,-0.74057,-0.802312,-0.781244,1.14679,0.302787,-0.927543,0.51619,0.266718,-0.562411,-0.507608,-0.593081,-0.319959,-0.114402,Red
-0.850154,0.148924,-0.386071,-0.167473,-0.468081,-0.343631,-0.601002,0.216424,0.070607,-0.229965,0.280003,0.302914,0.271281,-0.217063,-0.335085,1.141983,0.920143,-0.666368,-0.854102,-0.762355,-0.419627,-0.630185,-0.245461,0.869585,Red
