@relation 'data-student-learning-analytics-plus-class-weka.filters.unsupervised.attribute.Remove-R1,2,3,4,5,6,7,8,9,10,11-weka.filters.supervised.instance.Resample-B0.0-S161803398-Z80.0-no-replacement-weka.filters.supervised.instance.SMOTE-C0-K20-P100.0-S161803398-weka.filters.supervised.instance.SMOTE-C2-K20-P300.0-S161803398-weka.filters.unsupervised.instance.Randomize-S161803398-weka.filters.unsupervised.attribute.Standardize-weka.filters.unsupervised.attribute.Remove-R2-8,10,15,17-19,24'

@attribute sum_count_assignment_upload numeric
@attribute sum_count_quiz_review numeric
@attribute sum_count_scele_resource_view numeric
@attribute sum_count_content_access_view numeric
@attribute snr_count_assignment_view numeric
@attribute snr_count_course_view numeric
@attribute snr_count_quiz_view numeric
@attribute snr_diff_scele_resource_view numeric
@attribute asgn_rcpmean_diff_first_view_time_available_created numeric
@attribute asgn_mean_diff_time_due_first_submit numeric
@attribute quiz_rcpmean_diff_first_view_time_open_created numeric
@attribute signal {Green,Yellow,Red}

@data
1.247003,0.025728,0.266067,1.01438,0.299513,-0.42704,-0.568483,-0.455236,-0.327364,0.594677,0.054617,Green
0.591642,0.160367,0.238194,-0.74057,1.152303,1.494505,1.633861,0.488039,1.083641,0.708694,1.333655,Green
-0.456937,-0.198671,0.48905,0.065758,2.226559,0.698868,0.742617,0.346685,-0.520008,-0.5942,-0.370626,Green
4.392739,-0.737228,-0.082345,-0.835432,-1.265012,1.112881,-0.645469,-0.018308,-0.262325,0.209336,-0.704396,Green
-0.588009,0.474525,0.405432,0.302914,1.440417,0.125591,1.296346,-0.236116,-0.008371,-0.342881,-0.104885,Green
-0.456937,-0.064032,0.739907,-0.835432,2.294445,0.986977,0.130819,-0.275791,-0.233989,-0.334407,-0.187952,Green
0.853786,0.205246,0.029147,-0.550846,0.215985,1.054071,0.335713,0.94888,-0.002134,-0.557097,0.072091,Green
-0.325865,-1.230905,-1.099709,-0.930294,-0.308932,-0.614929,0.188732,0.771028,-0.167404,-0.335092,-0.415408,Green
-0.194792,1.28236,-0.291393,0.11319,0.340625,-0.503774,0.531275,0.416831,-0.129826,0.007223,0.166464,Green
0.067352,0.205246,-0.040536,0.5875,0.150577,0.08477,0.669816,-0.702344,-0.154087,0.723939,0.312259,Green
-0.456937,-0.288431,-1.48993,-0.930294,-0.062819,0.645788,-0.509731,3.905121,0.125586,3.748389,-0.161547,Green
-0.06372,-0.019152,-0.597995,-0.693139,0.131684,-0.249411,0.446071,1.018483,23.232315,0.896776,0.762217,Green
0.984859,-0.737228,0.502987,-0.645708,1.401882,-0.460099,-0.523765,-0.698952,-0.138057,1.639646,0.018248,Green
0.591642,0.160367,0.001274,0.919518,1.615807,0.822195,0.820112,-0.700762,0.67791,0.044317,-0.064291,Green
0.853786,-0.871867,0.098829,0.350345,0.029743,0.628406,-0.010219,0.458424,-0.123428,-0.297637,-0.405884,Green
0.460569,2.898031,0.098829,1.01438,1.17222,0.923641,1.025092,0.937227,-0.336306,1.24474,-0.10562,Green
-0.588009,0.250126,-0.235647,-0.503415,0.393343,0.05374,0.473446,0.518586,0.018399,1.14169,-0.294661,Green
1.115931,0.788683,-0.820979,-0.74057,0.230344,-0.251724,-0.572346,1.072705,-0.061559,-0.563805,-0.338995,Green
-0.719082,-0.916747,-1.643232,-0.930294,-1.286202,0.277534,0.498983,3.044577,-0.545043,-0.168195,-0.341304,Green
-0.588009,2.045316,-0.751297,-0.835432,-0.503725,1.074813,-0.374715,1.837109,-0.20822,-0.491069,-0.222255,Green
2.164509,1.102841,0.76778,-0.029104,-0.581294,1.543711,0.584668,-0.162111,-0.155343,1.356235,-0.264609,Green
0.198425,-1.006506,-1.434184,-0.74057,-1.459759,-0.113041,0.4131,0.860664,-0.010907,0.711259,-0.439646,Green
-0.588009,-0.108912,-0.040536,-0.598277,1.265646,0.58361,0.292605,-0.19939,-0.055835,-0.512604,-0.40688,Green
1.378076,0.878443,-0.862788,-0.788001,0.280475,-0.1475,0.419645,2.21394,-0.235121,-0.331022,1.306705,Green
-0.325865,0.025728,-0.528313,-0.503415,0.449683,0.930249,0.270161,-0.586194,1.490049,-0.58835,-0.135678,Green
0.198425,-0.33331,1.297367,-0.029104,0.111412,-0.186415,-0.279278,-0.837161,2.016506,1.713862,1.638281,Green
0.853786,-0.153791,1.590033,0.160621,1.280428,0.843859,1.003523,-1.484147,1.712169,-0.199738,-0.12087,Green
-0.719082,1.147721,-0.528313,-0.361121,0.810552,0.42206,0.786103,0.339054,0.365305,2.652882,-0.260579,Green
0.853786,1.910676,0.070956,1.061811,2.719819,0.597277,1.342046,0.780036,1.488521,0.037143,0.127308,Green
0.984859,0.339886,0.210321,-0.31369,0.57152,0.456817,0.409938,-0.483485,0.203357,-0.415351,0.548133,Green
0.329497,-0.782108,-1.01609,-0.645708,1.4508,-0.014883,-0.135119,1.933737,0.084563,1.156579,0.163773,Green
0.329497,0.564284,-0.50044,-0.693139,-0.442996,0.276695,0.628737,1.447726,-0.513044,0.582642,-0.328961,Green
-0.456937,1.102841,-1.294819,-0.930294,1.08598,0.825897,1.277562,1.757728,-0.143405,-0.06454,-0.122136,Green
-0.719082,1.596518,0.865336,-0.835432,-0.201403,0.179499,1.53598,-0.186729,-0.257125,1.017988,-0.146462,Green
0.853786,0.025728,-0.291393,-0.835432,0.218048,0.962718,0.169763,-0.086459,-0.110949,0.507098,-0.366357,Green
0.460569,0.923322,-1.378438,-0.788001,0.577918,1.167137,1.355413,1.646206,0.273889,0.68031,-0.473255,Green
-0.456937,0.923322,-0.277456,0.065758,0.596716,1.000217,0.63679,0.997042,0.828255,-0.15916,-0.129074,Green
1.247003,-0.871867,-0.012663,-0.645708,1.104379,1.223891,0.285356,-0.094784,-0.10509,-0.435074,-0.353799,Green
0.329497,-0.108912,1.032573,-0.882863,0.274053,0.077126,1.181302,-0.414217,0.524657,-0.561251,0.456773,Yellow
0.067352,0.070607,-0.556186,0.540069,0.698377,0.020505,0.046831,0.548331,-0.307547,-0.631519,-0.192336,Yellow
-0.588009,1.32724,0.781717,0.208052,0.283262,0.815814,0.111849,0.54161,-0.109104,-0.300634,-0.053328,Yellow
0.067352,1.641398,0.53086,0.255483,-0.509388,0.183111,0.443687,0.449394,0.082603,0.855645,0.119801,Yellow
4.130594,1.776037,0.070956,-0.218828,-1.401772,0.060115,0.38155,-0.699168,-0.058393,0.043743,-0.404771,Yellow
0.198425,0.295006,-0.820979,-0.788001,-0.060357,0.000608,-0.461095,0.859678,0.078934,-0.347164,-0.484873,Yellow
0.591642,-0.692348,0.447241,-0.693139,0.009871,0.076932,-1.094458,-0.657835,-0.140513,-0.517907,-0.350755,Yellow
0.853786,-0.198671,-0.096282,-0.645708,0.659398,0.01501,0.277469,1.185788,-0.04295,-0.15181,-0.527848,Yellow
-0.719082,-1.096266,-0.932471,-0.882863,0.493477,-0.834682,0.820112,1.562283,-0.174933,-0.689647,2.344795,Yellow
0.198425,-0.198671,-0.152028,-0.882863,1.069789,0.581086,0.922754,0.776871,-0.261266,-0.430104,-0.428388,Yellow
-3.078383,-1.679702,-2.075263,-0.930294,-2.727575,-3.306973,-2.550051,1.02605,-2.010393,-0.639747,1.143816,Red
-1.76766,-0.826987,-0.277456,-0.693139,-0.367099,-0.60881,0.356804,-0.526942,-0.568494,0.947021,2.035064,Red
0.329497,-0.737228,-0.054472,-0.503415,-0.189482,0.998235,0.896984,-0.384852,-0.399744,-0.65742,0.59886,Red
0.591642,-0.512829,-0.820979,-0.029104,-1.212068,1.191835,0.202385,1.29563,-0.169241,1.104764,0.085877,Red
-0.325865,-0.37819,0.572669,-0.74057,-0.802312,-0.781244,0.302787,-0.562411,-0.507608,-0.593081,-0.319959,Red
-0.850154,0.070607,0.280003,0.302914,0.271281,-0.217063,1.141983,-0.762355,-0.419627,-0.630185,-0.245461,Red
