@relation 'data-student-learning-analytics-plus-class-weka.filters.unsupervised.attribute.Remove-R1,2,3,4,5,6,7,8,9,10,11-weka.filters.supervised.instance.Resample-B0.0-S161803398-Z60.0-no-replacement-weka.filters.supervised.instance.SMOTE-C0-K8-P100.0-S161803398-weka.filters.supervised.instance.SMOTE-C1-K8-P600.0-S161803398-weka.filters.unsupervised.instance.Randomize-S161803398-weka.filters.unsupervised.attribute.Standardize'

@attribute sum_count_assignment_upload numeric
@attribute sum_count_assignment_view numeric
@attribute sum_count_course_view numeric
@attribute sum_count_forum_add_discussion numeric
@attribute sum_count_forum_add_post numeric
@attribute sum_count_forum_view_discussion numeric
@attribute sum_count_forum_view_forum numeric
@attribute sum_count_quiz_attempt numeric
@attribute sum_count_quiz_review numeric
@attribute sum_count_quiz_view numeric
@attribute sum_count_scele_resource_view numeric
@attribute sum_count_content_access_view numeric
@attribute snr_count_assignment_view numeric
@attribute snr_count_course_view numeric
@attribute snr_count_forum_view_discussion numeric
@attribute snr_count_quiz_view numeric
@attribute snr_count_scele_resource_view numeric
@attribute min_diff_enrol_all_course numeric
@attribute snr_diff_course_view numeric
@attribute snr_diff_scele_resource_view numeric
@attribute asgn_rcpmean_diff_first_view_time_available_created numeric
@attribute asgn_mean_diff_time_due_first_submit numeric
@attribute quiz_rcpmean_diff_first_view_time_open_created numeric
@attribute quiz_mean_diff_time_finish_time_start numeric
@attribute signal {Red,Yellow,Green}

@data
-3.660874,-3.295597,-2.740124,-0.174172,-0.673866,-1.19467,-1.175606,-1.887948,-1.880233,-2.042956,-2.830029,-1.030702,-3.433986,-5.073171,-3.823083,-3.274496,-3.608259,0.471007,-0.96317,0.907323,-2.319621,-0.684942,0.955315,-1.08734,Red
0.729105,0.405263,0.69497,-0.174172,-0.46719,-0.706687,-0.536153,0.730215,0.437082,0.281778,0.843932,3.505833,-2.101149,1.128997,1.708236,0.219604,0.108381,-0.305404,-0.322555,-0.817691,-0.63334,-0.015417,0.160695,0.316073,Red
0.143775,-0.976986,-0.74507,-0.174172,-0.673866,-0.544026,-0.978851,-0.604534,-0.887098,-0.392058,0.21411,-0.338688,-0.291473,1.163294,0.521806,0.989182,-0.375802,0.472011,0.844735,-0.868964,-0.435288,-0.701174,0.474513,3.778372,Red
-4.246204,-3.518541,-2.845127,-0.174172,-0.673866,-1.19467,-1.273984,-2.247304,-2.163985,-2.480949,-2.934999,-0.80003,-4.003849,-5.361277,-3.823083,-3.668852,-3.746887,-0.718458,-1.267383,0.330904,-1.151495,-0.512037,0.454299,-1.385044,Red
-0.587888,-0.085213,-0.265057,-0.174172,0.772869,-0.251236,-0.782097,-0.347852,-0.508761,-0.290982,1.158843,-0.72314,-1.050242,-1.414435,1.336952,0.254212,-1.457881,0.476946,0.051975,-1.092506,-0.56148,-0.642079,-0.33614,-0.182753,Red
0.582773,-0.263567,1.279986,-0.174172,0.15284,0.627133,0.103301,-0.758544,-0.839806,-0.99851,1.494748,0.122655,-1.436512,-2.502428,0.442828,-1.058599,-1.170509,0.472491,-1.91888,-1.395885,-0.033765,-0.704353,-0.461066,-0.52897,Red
-0.002558,-1.19993,0.004951,-0.174172,-0.260513,-0.251236,-0.388587,1.294917,1.099171,1.022998,-1.486409,0.199545,-0.303717,-0.851525,-0.626473,0.428516,0.601491,-0.095325,-1.470742,1.362009,-0.203785,-0.527535,-0.315527,-0.442461,Yellow
-0.734221,0.048553,1.639996,-0.174172,0.15284,1.147648,0.742754,1.140908,2.423351,1.62945,1.34779,1.660463,-0.005747,0.467133,0.653727,1.244109,0.631642,-1.90116,-0.68594,-0.747995,-0.151629,-0.362639,-0.180235,-0.455969,Yellow
0.290107,-0.664866,0.019951,-0.174172,-0.673866,-0.771751,-0.831285,1.243581,0.957295,1.427299,0.592004,-0.492469,-0.282724,-0.628381,-0.216049,0.869405,1.222712,0.027157,-1.380574,-1.16586,-0.203364,-0.112016,-0.214018,-0.72744,Yellow
0.143775,2.902228,2.045007,-0.174172,0.979546,2.416403,2.120039,-1.271909,-1.265435,-1.36912,1.494748,3.428942,0.054276,0.326207,2.205197,0.242875,0.261425,-0.600313,0.010844,-0.27786,-0.471424,-0.365567,-0.503301,-1.254708,Yellow
-0.14889,0.984915,-0.055051,-0.174172,-0.673866,-0.934412,-1.126418,-0.553198,-0.603345,-0.796359,0.445045,-0.953811,-0.265441,-0.636238,-1.05294,-0.207875,1.872745,0.470555,-0.07265,0.644641,-0.474188,-0.557741,-0.240955,-0.461635,Yellow
0.290107,4.418243,1.144982,-0.174172,0.359516,-0.186172,-0.880474,0.268187,-0.083132,0.68608,1.305802,0.660887,-2.073472,-1.420332,0.495212,0.395609,0.052401,0.476989,-1.489059,-1.333654,1.074658,-0.693715,-0.429879,-0.61192,Yellow
0.729105,0.761972,0.544966,-0.174172,0.15284,-0.413897,-0.782097,-0.245179,-0.319592,-0.05514,0.151128,-0.569359,0.759557,-0.260992,-0.383572,0.222897,0.28598,0.473976,0.229819,1.108429,-0.017867,-0.23677,-0.519555,-1.210778,Yellow
-0.002558,-0.263567,3.965059,-0.174172,0.979546,2.058549,1.775718,1.756946,1.5248,1.022998,2.082582,-0.72314,1.122058,-0.103535,0.368122,0.316013,-0.275209,0.468321,-1.877395,-0.399962,-0.219108,-0.312807,-0.023189,-0.450677,Yellow
-0.002558,0.048553,1.114981,-0.174172,-0.673866,-0.771751,-0.978851,0.730215,0.531666,0.753463,1.515742,2.352477,0.561,0.939711,0.298969,0.329492,1.053324,-0.314662,-0.977265,-1.003444,0.139198,-0.593339,-0.247133,-0.167794,Yellow
-0.002558,-0.664866,0.814973,-0.174172,-0.46719,-0.381365,0.054112,1.038235,0.720834,0.719772,1.263814,-0.031126,1.80864,-0.419039,0.250082,-0.306243,0.460888,3.147021,-0.646593,-0.334496,-0.237877,-0.696415,-0.023022,0.923007,Yellow
0.43644,0.539029,0.394961,-0.174172,1.392899,1.407905,2.169228,-0.655871,-0.650637,0.517621,0.592004,-0.492469,0.946707,0.733366,0.177521,1.185968,-0.759727,-0.202195,0.301001,0.081964,1.710468,-0.142339,-0.112781,0.994892,Green
0.43644,2.50093,2.060007,2.04495,1.186223,0.659665,1.824907,0.165514,0.058745,1.393608,0.654986,-0.72314,1.369842,1.882184,0.24811,1.900633,1.193812,-1.986937,0.044934,0.229982,1.300158,0.553607,1.122805,-1.172293,Green
0.43644,0.806561,-0.955076,-0.174172,-0.673866,-0.316301,-0.782097,0.165514,0.058745,0.248086,0.298087,1.968025,1.943725,0.908285,0.826074,0.894098,-1.681135,0.036547,1.13088,-1.266686,0.825483,-0.056626,-0.110569,-0.640931,Green
0.729105,-0.486511,-0.74507,-0.174172,-0.46719,-0.739219,-0.044265,-0.96389,-1.028974,-0.560517,-0.646646,-1.030702,-1.290551,-0.20761,-0.596096,0.550301,0.096781,0.472746,-0.231758,1.130579,0.015652,0.665135,-0.09659,5.088309,Green
-1.026886,-1.244518,-0.850073,2.04495,1.392899,1.245244,0.693566,0.165514,0.011452,0.079627,-0.814599,-0.338688,0.82078,0.550408,0.766608,0.231244,1.768754,-0.502971,2.079405,2.482122,-0.488005,1.881327,-0.198119,-0.438434,Green
0.729105,-0.84322,-0.970076,-0.174172,-0.46719,-0.706687,-0.831285,0.06284,-0.083132,-0.257291,-0.142789,-0.876921,0.213105,1.111845,-0.970001,0.089673,0.641233,0.470038,-0.100092,-0.493296,-0.09742,0.368439,-0.377075,0.55497,Green
0.143775,-0.040624,0.859974,-0.174172,-0.46719,-0.413897,-0.24102,-0.861217,-0.839806,-0.324674,1.179837,-0.72314,0.728931,3.077535,0.263665,0.040764,0.64495,-0.56256,-0.333897,-0.34959,-0.158129,-0.671414,-0.240056,1.905458,Green
4.680087,0.806561,0.619968,-0.174172,1.392899,3.132111,1.136264,-0.758544,-0.887098,-0.728976,0.172122,-0.876921,-1.623129,1.329369,-0.233147,-0.918697,1.190567,-0.5969,-0.712832,-0.407495,-0.274518,0.094944,-0.675319,-0.995529,Green
-1.465884,2.634696,8.630187,6.483195,5.113077,7.914343,8.760519,0.935562,1.004587,2.774971,4.580875,1.276011,1.103081,0.117475,1.80832,1.535116,0.572077,-0.571993,-0.693152,-0.883867,-0.541402,0.041505,0.266694,-0.042313,Green
1.753434,3.392704,4.190066,-0.174172,-0.46719,-0.023511,0.545999,3.040359,2.659811,2.977122,4.496899,1.19912,2.513365,2.26787,0.277087,1.243526,1.675869,-0.349038,-1.304895,-0.78764,-0.567593,-0.28506,-0.264994,-0.734925,Green
-0.587888,-0.620277,-1.660095,-0.174172,-0.260513,-0.413897,-0.683719,-1.425919,-1.407311,-1.099586,-1.360444,-1.030702,-0.43937,-1.173512,-0.486266,0.113137,-1.923658,0.47244,0.84758,0.586258,-0.163467,-0.405116,-0.420352,-1.222709,Green
-0.295223,0.851149,0.724971,2.04495,2.219605,3.424901,5.760006,-0.039833,-0.130424,0.214395,-0.604658,-0.64625,0.106174,-0.644028,0.134979,0.431442,0.42786,-0.765506,-0.794989,0.897797,27.212382,0.72636,0.618639,-1.343725,Green
-0.14889,0.717383,-0.340059,-0.174172,-0.260513,-0.674155,-0.732908,0.473533,0.106037,0.719772,0.235104,1.429792,0.129566,-0.159938,0.162389,0.708195,-0.293186,0.175231,-0.70056,-1.268679,-0.147888,0.567609,0.221652,-0.214329,Green
0.290107,1.118681,0.619968,-0.174172,0.15284,0.074085,0.644377,2.475658,2.18689,2.303286,0.172122,-0.261798,0.416993,-0.570421,-0.430099,1.429585,0.079204,-0.664612,-0.140515,0.050903,0.54198,0.203824,0.080971,-0.0557,Green
0.729105,0.672795,0.529965,-0.174172,-0.260513,0.822326,0.791943,-0.861217,-0.93439,-0.728976,0.445045,2.736929,-0.581312,-0.340386,0.278886,-0.744582,0.162369,0.471298,-0.190549,0.004106,-0.256752,-0.219389,-0.388584,-0.345111,Green
-0.587888,-0.397334,-1.210083,-0.174172,-0.673866,-0.348833,-0.339398,0.114177,-0.083132,0.349162,-0.499688,-0.338688,0.499901,1.064811,2.793605,0.213857,-0.44742,0.466632,-0.233777,-1.122448,1.775624,-0.637734,-0.173552,1.95844,Green
0.143775,-0.441922,-1.360087,-0.174172,-0.053837,-0.576558,-0.683719,-1.169236,-1.218143,-0.99851,-1.717343,-0.338688,-0.693548,-0.40795,-2.104316,-0.363627,0.298615,0.004929,2.241266,0.984731,0.612357,0.65495,-0.108788,0.157897,Green
-0.734221,-0.754043,0.664969,-0.174172,1.392899,3.847819,0.693566,1.089571,0.862711,0.888231,-0.121795,0.583997,0.681949,1.166165,1.617624,0.667345,0.573846,0.101223,0.982327,0.870803,1.001376,-0.243521,-0.167726,-0.969875,Green
-0.295223,0.672795,3.800055,4.264072,0.359516,1.603098,2.365983,-0.809881,-0.887098,0.113319,1.578725,0.122655,1.204941,2.972783,0.976237,0.158986,1.711503,0.031852,-0.566088,0.926075,2.464412,1.510527,0.120527,2.420804,Green
-0.14889,-1.289107,-0.640067,-0.174172,-0.673866,-0.804284,-0.585342,0.06284,-0.2723,-0.358366,-1.066527,-0.492469,0.144165,-0.835949,0.148526,-1.072069,0.510671,0.468888,0.141225,1.54824,-0.250768,-0.550136,-0.463127,-0.278993,Green
-0.734221,-1.422873,-0.910074,-0.174172,-0.053837,-0.739219,-0.437775,-0.399188,-0.603345,0.517621,-0.940563,-0.80003,2.334774,0.302698,-0.679685,-0.027953,-0.384001,-0.148436,1.184454,0.413333,0.580641,2.50602,0.087942,0.773039,Green
-0.002558,-0.620277,-1.49509,-0.174172,-0.053837,-0.674155,-0.290209,-1.1179,-1.170851,-1.032202,-1.864302,-0.72314,-1.864254,-0.446484,-1.20744,0.39066,-1.006676,0.479384,2.249723,0.699107,0.019621,0.555962,-0.441736,-0.657386,Green
-0.880554,1.430802,-0.355059,-0.174172,1.599576,0.919922,1.333019,2.013629,2.045014,1.427299,-1.465415,-0.80003,-0.23278,0.62861,0.507109,1.321879,-0.600536,-0.577226,1.778431,1.703942,14.211298,0.083364,0.253137,-0.961887,Green
0.290107,-0.932398,0.304959,-0.174172,-0.260513,-0.804284,-0.732908,-0.296515,-0.366885,0.113319,0.550015,-0.415578,-0.137295,1.145413,-0.383572,-0.892,0.612874,-3.167536,-0.255791,0.139173,-0.117057,-0.506434,-0.131197,1.191451,Green
-1.173219,-0.709454,0.079953,-0.174172,0.979546,0.854858,1.874095,0.21685,0.058745,0.248086,0.738962,-0.953811,0.021237,1.9193,2.835616,0.157927,-0.409233,0.470148,1.155779,-0.641341,-0.115253,-0.411698,-0.222315,0.243066,Green
-0.734221,-1.19993,-0.805071,-0.174172,-0.673866,-0.381365,-0.486964,-0.707208,-0.745222,-1.402812,-0.100801,-0.64625,0.170766,-0.009772,-0.417904,-0.0863,-0.616606,0.477783,0.593388,-0.414019,-0.048962,0.128579,-0.202476,0.173308,Green
-0.587888,-1.467462,-0.610066,-0.174172,0.566193,1.050051,1.382208,-1.015227,-1.123559,-1.335428,-0.583664,-0.338688,0.658488,-0.686369,-0.546733,0.035852,-0.189617,0.476451,0.454261,0.87876,-0.079919,-0.070596,-0.14959,0.720151,Green
-0.295223,2.144221,-1.195082,-0.174172,-0.673866,-0.836816,-0.880474,-1.1179,-1.123559,-1.166969,-0.730622,-1.030702,-0.317555,-2.467303,-0.393008,-1.339255,-1.553799,0.48207,-0.279602,-0.83546,-0.498489,-0.563185,-0.497423,-0.343743,Green
-0.587888,1.341625,4.550075,-0.174172,0.15284,2.351339,0.545999,0.268187,2.376059,2.033752,3.36322,2.89071,1.949599,0.244706,2.819287,1.02645,-1.306565,0.476968,-0.650513,-1.234301,0.207256,0.148711,2.458534,0.34073,Green
0.43644,-0.040624,-0.175054,-0.174172,-0.46719,0.43194,0.545999,2.064965,1.713969,1.191457,-0.100801,0.353326,0.438301,-0.232893,-0.254683,-0.221689,-0.083286,-0.003463,0.944225,0.181152,-0.118654,-0.129924,-0.233606,-1.001961,Green
-0.587888,1.252447,-0.475062,-0.174172,-0.260513,-0.088575,1.431397,0.781552,0.910003,0.31547,-0.919569,0.660887,1.517658,0.080342,0.539183,1.840543,-1.650546,0.063703,0.554958,0.633136,0.186064,-0.21728,0.232693,-0.726533,Green
-0.441556,-0.709454,-1.060078,-0.174172,0.772869,0.984987,0.349244,-0.553198,-0.697929,-0.964818,-1.087521,-0.64625,2.214042,-0.5453,1.097161,-1.880548,-1.004256,-0.57473,0.567165,-0.161367,-0.169237,-0.123299,-0.526096,-1.352725,Green
0.143775,-0.486511,0.784972,-0.174172,-0.673866,0.041553,-0.290209,0.576206,0.342497,0.147011,1.578725,-0.64625,-0.08617,1.924548,-1.441042,-0.86728,0.477742,-0.569482,-0.341318,-0.968712,-0.111105,-0.585833,-0.009405,0.02802,Green
0.290107,-0.486511,-0.490063,-0.174172,0.772869,0.789794,0.201678,-1.015227,-1.028974,-0.830051,-0.751616,-0.953811,0.738132,0.53082,1.0396,-0.541347,-1.053556,0.401497,0.697676,0.475319,-0.045431,0.277952,-0.394813,-1.115422,Green
0.143775,-0.887809,-0.925075,-0.174172,-0.46719,-0.511494,-0.732908,-1.271909,-1.265435,-1.672346,-0.016824,1.276011,0.243731,-0.607882,-0.151435,0.503778,0.211159,0.469427,1.174804,-0.405244,-0.450508,1.832105,-0.536892,-1.082334,Green
-0.441556,-1.333696,-0.145053,-0.174172,-0.673866,-0.511494,-0.585342,-1.1179,-1.360019,-0.728976,0.508027,0.045764,-1.289091,0.488607,-1.403296,0.968071,0.901323,-0.629442,0.289765,-0.874641,-0.225668,-0.500964,-0.220176,4.047935,Green
0.290107,0.360674,-0.625066,-0.174172,-0.053837,-0.609091,-0.486964,-0.245179,-0.366885,0.450237,-0.793605,-0.338688,0.824651,0.631228,0.07696,1.07502,-0.41787,0.394735,0.36551,0.204967,0.027065,-0.043053,-0.129875,1.168301,Green
-0.880554,-1.333696,-1.10508,-0.174172,-0.260513,-0.44643,-0.585342,-0.96389,-0.981682,-0.964818,-1.066527,-0.031126,0.15281,-0.534025,-0.291113,-0.004485,-0.007293,1.772407,1.093355,0.271224,-0.13281,-0.200908,-0.25362,-0.334643,Green
