===================================== regularization parameter = 0.0=====================================
Correct % = 61.111111111111114
FMeasure = 0.742857142857143
FMeasure = 0.38461538461538464
FMeasure = 0.3333333333333333
Mean FMeasure = 0.486935286935287
=== Confusion Matrix ===

  a  b  c   <-- classified as
 26  8  4 |  a = Green
  5  5  0 |  b = Yellow
  1  3  2 |  c = Red

=================================================================================================================
===================================== regularization parameter = 0.08=====================================
Correct % = 62.96296296296296
FMeasure = 0.742857142857143
FMeasure = 0.4
FMeasure = 0.4615384615384615
Mean FMeasure = 0.5347985347985348
=== Confusion Matrix ===

  a  b  c   <-- classified as
 26  8  4 |  a = Green
  5  5  0 |  b = Yellow
  1  2  3 |  c = Red

=================================================================================================================
===================================== regularization parameter = 0.38=====================================
Correct % = 62.96296296296296
FMeasure = 0.742857142857143
FMeasure = 0.41666666666666663
FMeasure = 0.42857142857142855
Mean FMeasure = 0.5293650793650794
=== Confusion Matrix ===

  a  b  c   <-- classified as
 26  7  5 |  a = Green
  5  5  0 |  b = Yellow
  1  2  3 |  c = Red

=================================================================================================================
===================================== regularization parameter = 0.52=====================================
Correct % = 61.111111111111114
FMeasure = 0.732394366197183
FMeasure = 0.34782608695652173
FMeasure = 0.42857142857142855
Mean FMeasure = 0.5029306272417111
=== Confusion Matrix ===

  a  b  c   <-- classified as
 26  7  5 |  a = Green
  6  4  0 |  b = Yellow
  1  2  3 |  c = Red

=================================================================================================================
===================================== regularization parameter = 0.68=====================================
Correct % = 61.111111111111114
FMeasure = 0.7222222222222222
FMeasure = 0.3636363636363636
FMeasure = 0.42857142857142855
Mean FMeasure = 0.5048100048100048
=== Confusion Matrix ===

  a  b  c   <-- classified as
 26  7  5 |  a = Green
  6  4  0 |  b = Yellow
  2  1  3 |  c = Red

=================================================================================================================
===================================== regularization parameter = 1.19=====================================
Correct % = 61.111111111111114
FMeasure = 0.7222222222222222
FMeasure = 0.380952380952381
FMeasure = 0.4
Mean FMeasure = 0.5010582010582011
=== Confusion Matrix ===

  a  b  c   <-- classified as
 26  6  6 |  a = Green
  6  4  0 |  b = Yellow
  2  1  3 |  c = Red

=================================================================================================================
===================================== regularization parameter = 2.54=====================================
Correct % = 59.25925925925926
FMeasure = 0.704225352112676
FMeasure = 0.3636363636363636
FMeasure = 0.4
Mean FMeasure = 0.4892872385830132
=== Confusion Matrix ===

  a  b  c   <-- classified as
 25  7  6 |  a = Green
  6  4  0 |  b = Yellow
  2  1  3 |  c = Red

=================================================================================================================
===================================== regularization parameter = 2.6=====================================
Correct % = 61.111111111111114
FMeasure = 0.7222222222222222
FMeasure = 0.380952380952381
FMeasure = 0.4
Mean FMeasure = 0.5010582010582011
=== Confusion Matrix ===

  a  b  c   <-- classified as
 26  6  6 |  a = Green
  6  4  0 |  b = Yellow
  2  1  3 |  c = Red

=================================================================================================================
===================================== regularization parameter = 3.15=====================================
Correct % = 59.25925925925926
FMeasure = 0.704225352112676
FMeasure = 0.3636363636363636
FMeasure = 0.4
Mean FMeasure = 0.4892872385830132
=== Confusion Matrix ===

  a  b  c   <-- classified as
 25  7  6 |  a = Green
  6  4  0 |  b = Yellow
  2  1  3 |  c = Red

=================================================================================================================
===================================== regularization parameter = 9.200000000000001=====================================
Correct % = 61.111111111111114
FMeasure = 0.7222222222222222
FMeasure = 0.380952380952381
FMeasure = 0.4
Mean FMeasure = 0.5010582010582011
=== Confusion Matrix ===

  a  b  c   <-- classified as
 26  6  6 |  a = Green
  6  4  0 |  b = Yellow
  2  1  3 |  c = Red

=================================================================================================================
===================================== regularization parameter = 11.96=====================================
Correct % = 59.25925925925926
FMeasure = 0.704225352112676
FMeasure = 0.3636363636363636
FMeasure = 0.4
Mean FMeasure = 0.4892872385830132
=== Confusion Matrix ===

  a  b  c   <-- classified as
 25  7  6 |  a = Green
  6  4  0 |  b = Yellow
  2  1  3 |  c = Red

=================================================================================================================
===================================== regularization parameter = 13.13=====================================
Correct % = 61.111111111111114
FMeasure = 0.7222222222222222
FMeasure = 0.3636363636363636
FMeasure = 0.42857142857142855
Mean FMeasure = 0.5048100048100048
=== Confusion Matrix ===

  a  b  c   <-- classified as
 26  7  5 |  a = Green
  6  4  0 |  b = Yellow
  2  1  3 |  c = Red

=================================================================================================================
