Lambda,Accuracy(%),F Green, F Yellow, F Red, Mean F
0.08,80.76923076923077,0.8767123287671234,0.5882352941176471,0.7142857142857143,0.7264111123901617
0.09,78.84615384615384,0.8767123287671234,0.5,0.6666666666666666,0.6811263318112633
