NN = 1
   a   b   c   <-- classified as
 133  69  10 |   a = Green
  14  13   5 |   b = Yellow
   3   5  19 |   c = Red

NN = 2
   a   b   c   <-- classified as
 136  63  13 |   a = Green
  14  13   5 |   b = Yellow
   2   5  20 |   c = Red

NN = 3
   a   b   c   <-- classified as
 129  71  12 |   a = Green
  13  16   3 |   b = Yellow
   2   5  20 |   c = Red

NN = 4
   a   b   c   <-- classified as
 134  68  10 |   a = Green
  14  14   4 |   b = Yellow
   3   4  20 |   c = Red

NN = 5
   a   b   c   <-- classified as
 135  62  15 |   a = Green
  14  14   4 |   b = Yellow
   3   3  21 |   c = Red

NN = 6
   a   b   c   <-- classified as
 137  62  13 |   a = Green
  12  15   5 |   b = Yellow
   3   4  20 |   c = Red

NN = 7
   a   b   c   <-- classified as
 141  59  12 |   a = Green
  15  11   6 |   b = Yellow
   3   5  19 |   c = Red

NN = 8
   a   b   c   <-- classified as
 145  58   9 |   a = Green
  13  15   4 |   b = Yellow
   3   5  19 |   c = Red

NN = 9
   a   b   c   <-- classified as
 128  72  12 |   a = Green
  14  13   5 |   b = Yellow
   2   5  20 |   c = Red

NN = 10
   a   b   c   <-- classified as
 128  70  14 |   a = Green
  16  12   4 |   b = Yellow
   3   4  20 |   c = Red

NN = 11
   a   b   c   <-- classified as
 130  67  15 |   a = Green
  14  14   4 |   b = Yellow
   3   4  20 |   c = Red

NN = 12
   a   b   c   <-- classified as
 134  68  10 |   a = Green
  12  15   5 |   b = Yellow
   2   5  20 |   c = Red

NN = 13
   a   b   c   <-- classified as
 136  63  13 |   a = Green
  13  16   3 |   b = Yellow
   2   4  21 |   c = Red

NN = 14
   a   b   c   <-- classified as
 132  70  10 |   a = Green
  15  14   3 |   b = Yellow
   2   5  20 |   c = Red

NN = 15
   a   b   c   <-- classified as
 131  70  11 |   a = Green
  13  14   5 |   b = Yellow
   2   5  20 |   c = Red

NN = 16
   a   b   c   <-- classified as
 132  70  10 |   a = Green
  15  11   6 |   b = Yellow
   3   4  20 |   c = Red

NN = 17
   a   b   c   <-- classified as
 131  68  13 |   a = Green
  16  11   5 |   b = Yellow
   3   5  19 |   c = Red

NN = 18
   a   b   c   <-- classified as
 138  64  10 |   a = Green
  13  15   4 |   b = Yellow
   3   5  19 |   c = Red

NN = 19
   a   b   c   <-- classified as
 131  72   9 |   a = Green
  10  17   5 |   b = Yellow
   3   4  20 |   c = Red

NN = 20
   a   b   c   <-- classified as
 134  69   9 |   a = Green
  15  12   5 |   b = Yellow
   3   4  20 |   c = Red

NN = 21
   a   b   c   <-- classified as
 143  61   8 |   a = Green
  14  13   5 |   b = Yellow
   2   4  21 |   c = Red

NN = 22
   a   b   c   <-- classified as
 134  65  13 |   a = Green
  16  12   4 |   b = Yellow
   3   4  20 |   c = Red

NN = 23
   a   b   c   <-- classified as
 134  68  10 |   a = Green
  17  13   2 |   b = Yellow
   4   3  20 |   c = Red

