npm,sum_count_assignment_upload,sum_count_assignment_view,sum_count_course_view,sum_count_forum_add_discussion,sum_count_forum_add_post,sum_count_forum_view_discussion,sum_count_forum_view_forum,sum_count_quiz_attempt,sum_count_quiz_review,sum_count_quiz_view,sum_count_scele_resource_view,snr_count_assignment_view,snr_count_course_view,snr_count_forum_view_discussion,snr_count_quiz_view,snr_count_scele_resource_view,acc_unique_assignment_upload,acc_unique_assignment_view,acc_unique_quiz_attempt,acc_unique_quiz_view,acc_unique_resource_view,signal
1006759712,10,24,41,0,0,11,6,41,39,48,44,0.6,1.3,0.6,1.6,1.4,3,7,10,10,26,Red
1006760765,0,6,16,0,0,7,6,7,7,10,21,0.3,0.9,0.3,0.7,0.5,0,4,4,6,20,Red
1106087484,0,6,17,0,0,1,1,0,0,2,7,0.6,0.8,0.3,0.3,0.4,0,5,0,2,6,Red
1106087673,5,9,32,0,0,2,4,1,1,8,57,0.4,0.8,0.3,0.4,0.4,5,8,1,3,34,Red
1106088852,0,4,28,0,0,3,5,0,0,9,26,0.7,0.7,0.4,0.6,0.5,0,3,0,5,10,Red
1206254952,70,110,113,0,1,17,7,65,59,87,125,1,1.5,1,1,1.2,15,16,10,10,61,Red
1206238204,53,90,96,0,0,27,37,38,38,49,36,0.8,1.4,1.2,1.5,1.2,15,16,10,10,23,Yellow
1206227655,36,72,71,0,0,14,14,17,13,28,146,1,1.9,0.7,1.1,0.5,15,15,10,10,46,Red
1206225460,89,136,119,0,2,20,28,10,9,22,116,1,1.9,0.8,1.3,1.1,16,19,9,10,54,Yellow
1206278555,107,221,219,0,1,52,45,64,63,85,120,1,1.5,1.1,1.6,1.8,15,17,10,11,43,Green
1206248501,44,84,81,0,0,2,1,11,8,16,61,0.8,1.2,0.4,1.1,1.1,12,15,7,7,19,Red
1206277413,6,16,30,0,2,19,20,2,2,6,20,0.4,0.8,0.5,0.3,0.5,4,6,2,3,11,Red
1206248930,54,94,96,0,1,9,11,27,25,43,66,0.8,1.2,0.6,0.9,1.2,14,15,7,8,30,Yellow
1206229105,91,156,384,0,0,51,43,35,39,77,92,1.2,2,1.1,1.6,1.3,16,17,10,10,36,Green
1206278145,24,58,70,0,2,10,3,66,62,74,83,0.7,1,0.5,0.6,0.5,7,11,8,8,34,Red
1206227371,55,100,112,0,0,10,21,28,29,56,66,0.8,1.2,1,1.2,1.3,12,13,9,10,29,Red
1206278271,85,120,126,0,1,22,23,28,28,48,48,1,1.7,0.7,1,1.6,13,14,9,10,26,Red
1206208132,4,7,20,0,3,13,8,2,2,5,3,0.3,0.8,0.4,0.4,0.3,2,2,1,2,2,Red
1206228746,23,46,72,0,0,0,3,32,29,46,40,0.7,1,0,0.9,0.9,11,13,8,9,18,Red
1206277483,95,136,79,0,1,25,18,9,15,23,46,0.9,1.8,0.9,0.8,1.2,16,17,9,10,33,Green
1206242183,35,80,105,0,3,38,16,16,15,36,58,0.9,1.6,1.2,1,1.1,15,18,8,10,35,Red
1206278095,87,183,147,0,2,20,8,18,15,36,89,0.8,1.4,0.8,1.1,1.3,15,15,9,9,35,Yellow
1206242321,11,22,40,0,0,12,18,1,0,4,23,0.4,0.6,0.6,0.4,0.5,2,7,1,2,14,Red
1206278302,50,154,246,0,0,65,40,55,71,126,139,1.1,1.7,1.8,1.6,1.9,17,21,10,10,56,Yellow
1206208246,16,65,108,0,0,22,7,85,85,116,50,0.6,0.7,1,1.4,0.7,8,10,10,10,33,Red
1206278574,74,132,153,0,3,38,23,76,77,112,191,0.9,1.5,0.8,1.5,0.9,15,19,10,10,74,Yellow
1206231135,79,137,96,0,0,27,13,30,30,42,65,0.8,1.4,0.7,1.4,1.4,15,16,9,10,33,Yellow
1206228544,40,80,98,0,0,22,11,26,26,40,83,1.2,1.5,0.6,1.5,1.2,13,17,9,11,40,Red
1306386876,88,135,77,0,0,8,4,9,9,22,26,1,1.2,0.7,1.1,1,16,21,9,9,18,Green
1306398983,46,77,52,0,1,4,2,2,2,5,79,0.8,1.2,0.4,0.5,0.6,16,17,2,4,49,Green
1306382852,44,83,169,0,0,17,5,9,8,26,216,1,1.9,1,1.1,1,13,15,9,9,86,Yellow
1306381704,128,277,395,0,0,87,30,26,24,45,142,1,1.7,1.4,1.2,1.5,30,33,10,11,59,Green
1306382064,54,108,215,0,3,49,21,55,51,74,165,0.9,1.7,1.3,1.3,0.7,16,16,10,10,84,Green
1306382133,82,155,152,0,1,20,11,19,19,26,129,1,1.4,0.5,1.2,1.4,16,21,10,10,55,Green
1306386825,64,107,263,0,1,61,243,25,25,52,83,1.1,1.8,1.3,1.4,1,16,17,10,10,53,Green
1306386711,73,128,267,0,1,34,21,85,84,106,176,0.9,1.6,1.1,1.2,0.8,14,15,10,10,81,Yellow
1306382713,87,146,161,0,0,12,9,36,63,46,59,1.1,1.3,0.4,1.3,1.3,17,18,10,11,39,Green
1306398932,42,102,279,3,2,65,53,11,11,17,94,1.1,1.4,0.7,1.4,1.6,19,21,10,10,45,Green
1306381780,98,162,154,0,1,20,12,10,17,35,116,0.9,1.3,0.8,1.3,1.1,15,20,9,10,59,Yellow
1306382884,99,175,251,0,2,42,16,63,64,113,262,1,1.8,1.1,1.6,1.5,16,19,10,10,95,Green
1306386863,80,137,152,0,0,15,19,18,17,38,102,1.1,1.5,0.4,1.2,1.5,15,19,10,10,45,Green
1306381742,51,142,145,0,1,17,4,52,53,67,103,1.2,1.6,0.7,1.3,1.4,15,18,10,10,44,Green
1306381736,70,145,155,0,2,33,12,14,15,32,127,1,1.7,0.9,1.3,1.1,19,21,6,9,56,Green
1306381931,108,173,132,0,2,8,7,31,29,48,190,1.1,1.9,0.8,1.4,1,18,20,10,10,91,Green
1306381603,55,97,125,0,2,50,30,13,11,21,70,1,1.4,1.2,1,1.3,15,16,7,7,33,Green
1306382083,56,93,157,0,0,22,6,15,15,17,65,1,1.4,1.1,1,1.4,14,16,7,9,34,Green
1306381862,87,137,141,0,1,33,21,15,15,27,116,1.3,1.5,0.5,1.6,1.5,16,19,10,10,53,Green
1306386932,78,114,130,0,0,6,4,24,24,48,193,0.9,1.1,0.7,1.1,0.9,15,16,10,10,81,Green
1306464455,60,121,138,0,1,45,6,18,16,29,219,0.6,1.4,0.9,1,1.6,14,18,8,8,78,Red
1306463591,149,307,421,0,3,58,23,52,50,83,273,1.1,1.5,0.7,1.3,1.6,21,26,10,10,65,Green
1306382045,63,153,282,1,1,52,21,37,52,54,210,1,1.8,0.9,1.7,1.2,16,23,10,11,81,Green
1306413372,0,4,22,0,0,5,3,1,0,3,217,0.4,0.5,0.4,0.4,0.3,0,3,1,1,106,Red
1306405300,68,114,60,0,0,10,6,21,19,27,69,1,1.2,0.8,1.1,0.8,15,16,10,10,47,Green
1306464070,67,137,217,0,0,13,8,64,62,92,145,1,1.7,0.9,1.6,1.7,17,23,10,10,52,Green
1306396870,82,233,461,0,1,110,49,30,30,44,324,1,1.8,1.4,1.6,1.5,16,21,10,10,118,Yellow
1306381761,71,95,98,0,3,27,11,10,10,16,59,1.3,1.5,0.9,1.3,1.1,16,17,10,10,29,Green
1306464013,54,88,89,0,0,3,8,14,14,27,81,0.7,1.1,0.4,1.5,1.1,13,13,10,10,26,Green
1306409513,118,279,551,0,0,54,33,9,9,21,442,1,1.8,1.2,1.6,0.7,22,29,9,11,118,Yellow
1306464562,106,214,469,1,1,146,88,16,15,60,345,1,1.8,1.1,1.6,1.3,16,21,10,10,130,Green
1306398951,47,88,107,0,0,39,26,11,11,17,52,1.1,1.5,0.8,1.6,1.6,16,20,10,10,29,Green
1306396813,47,95,198,0,0,28,33,38,38,63,119,0.9,1.8,0.9,1.4,1.3,15,18,10,10,49,Green
1306397904,34,67,113,0,1,18,8,19,20,34,84,1,1.5,1.3,1.3,1.3,15,17,8,10,39,Green
1306386623,86,144,120,0,0,32,23,55,64,77,212,1.4,1.8,0.9,1.4,0.4,15,21,10,11,83,Green
1306381710,24,53,132,0,0,21,7,60,64,71,117,0.9,1.7,1,1.2,0.9,13,14,9,9,45,Green
1306401630,70,123,189,0,0,34,12,43,48,56,98,0.9,1.7,0.8,1.2,1.4,16,18,10,10,47,Green
1306415781,70,116,163,0,1,25,17,9,8,14,116,0.9,1.5,0.9,1.1,1.2,15,19,9,10,54,Green
1306381875,55,93,116,0,0,9,9,8,8,13,99,0.9,1.1,0.5,1,1.1,16,17,8,10,44,Green
1306402066,81,122,136,0,0,12,5,10,9,35,78,1.1,1.8,0.6,1.5,1.3,14,15,10,10,45,Green
1306464096,72,142,182,0,0,22,12,15,16,29,217,0.9,1.5,0.9,1.2,1,16,18,10,10,79,Green
1306381856,72,136,198,0,3,27,12,9,10,25,259,1.3,1.9,1.1,1,0.9,16,20,9,10,92,Green
1306383086,42,75,181,0,1,33,16,12,12,27,75,1.1,1.8,1,1.5,1.2,15,16,10,10,46,Green
1306397892,71,127,172,0,0,10,15,17,18,49,138,1.1,1.8,0.7,1.4,1.3,15,19,10,11,62,Green
1306413385,60,104,162,0,0,8,0,19,16,33,215,0.9,1.4,0.7,1.5,0.8,13,16,10,10,61,Green
1306383092,54,87,154,0,1,20,10,28,26,48,86,1,2.1,0.8,1.6,1.4,15,16,10,10,52,Green
1306401675,68,90,103,0,0,13,13,41,41,53,47,0.8,1.6,0.8,1,1,12,12,9,9,32,Yellow
1306381843,60,112,180,0,0,31,17,27,26,46,136,1.1,1.8,0.5,1.5,1.3,15,16,9,10,65,Green
1306382606,118,214,282,0,2,34,30,13,13,27,100,0.9,1.4,1.3,1.1,1.5,17,19,9,10,49,Green
1306409463,86,172,367,0,0,37,37,14,14,32,284,0.9,1.5,1.1,1.1,1.8,15,17,10,11,101,Green
1306407382,102,136,94,0,0,4,3,9,8,13,78,1.1,1.6,0.3,0.7,0.9,15,19,6,7,41,Green
1306386705,66,100,129,0,1,5,4,15,9,38,160,1,1.5,0.4,1.5,1,16,17,10,11,67,Yellow
1306382695,88,143,188,0,1,24,8,28,28,40,105,1.1,1.7,1,1.5,0.8,16,19,10,10,64,Green
1306382631,93,177,270,0,1,20,20,48,48,68,241,1.3,1.8,0.8,1.2,0.8,16,21,10,10,68,Green
1306464133,75,185,353,0,0,36,15,19,23,76,267,1,2,0.8,1.6,1.6,16,18,10,10,83,Yellow
1306414236,94,156,160,0,1,28,13,17,16,30,155,1,1.3,1,1.2,0.6,15,18,10,10,68,Green
1306414854,78,118,104,0,0,18,16,13,13,23,214,0.9,1.3,0.5,1.5,0.5,20,21,10,10,88,Green
1306396712,66,119,161,0,0,9,6,19,19,34,105,1,1.5,0.6,1.3,1.3,15,17,10,10,44,Green
1306383041,73,117,186,0,2,36,13,41,40,57,103,0.9,1.4,0.7,1.3,1.1,15,16,10,10,43,Green
1306463830,74,112,92,0,1,10,2,14,12,23,125,0.9,1.3,0.7,1,1.1,15,18,8,8,55,Green
1306382770,107,213,360,0,1,76,35,41,40,63,284,1.3,2,1,1.3,0.5,18,19,10,10,96,Green
1306409476,58,176,315,0,0,56,19,41,41,67,214,1.2,2.1,1.1,1.5,1.3,16,19,10,11,84,Green
1306383016,67,136,237,0,1,34,14,15,14,24,291,1,1.5,1.1,1.3,0.6,16,17,10,10,127,Yellow
1306383003,57,109,166,0,1,14,7,13,13,32,90,0.9,1.5,0.9,1.5,1.2,16,21,9,9,49,Green
1306386794,108,181,181,0,0,27,6,13,13,28,63,1.1,1.2,0.8,1.4,1,16,17,10,10,31,Green
1306415964,93,143,130,0,1,24,18,10,8,28,144,1.2,1.5,0.6,1.3,1.1,18,20,10,10,71,Green
1306381944,41,58,69,0,3,13,14,7,7,11,38,1,1.3,0.7,1,1,15,16,7,7,24,Green
1306381963,73,112,100,0,0,19,14,9,8,13,45,0.9,1.1,0.7,1,1.2,16,16,8,10,25,Green
1306382101,56,93,107,0,3,17,5,33,32,50,63,0.9,1.4,0.7,1.2,1,15,17,10,10,48,Green
1306464064,48,100,199,0,0,34,34,10,9,21,344,1.1,2.1,1.4,1.7,1.6,16,17,9,10,103,Green
1306409482,68,115,168,0,0,4,4,33,29,50,254,1,1.5,0.4,1.1,1.7,16,17,10,10,73,Green
1306381793,106,187,161,0,0,16,10,30,29,40,107,1,1.5,1.1,1.1,1.5,19,23,8,10,46,Green
1306463944,74,128,166,0,1,20,11,18,18,33,361,0.9,1.3,1,1,0.8,15,17,9,10,94,Green
1306464240,58,107,262,0,0,23,6,33,27,47,183,1,1.5,0.8,1.6,1.3,16,16,10,11,66,Green
1306381591,78,121,97,0,1,26,21,12,12,22,49,1.1,1.6,0.5,1.3,1.2,17,19,9,10,30,Green
1306464354,48,87,78,0,0,8,7,13,13,25,39,0.8,1.6,0.7,1.4,1.2,15,15,10,10,27,Green
1306383035,113,167,138,0,1,21,4,36,33,37,74,1,1.4,0.7,1.1,0.8,17,17,10,10,52,Green
1306382991,76,132,171,0,1,14,11,46,44,68,198,1,1.7,0.6,1.5,0.5,16,20,10,10,91,Yellow
1306383110,60,120,122,0,1,26,18,33,29,51,104,0.7,1.8,1,1.1,0.8,17,19,10,10,69,Green
1306382070,55,91,153,0,3,31,5,52,52,71,161,1,1.5,0.9,1.6,0.6,16,16,10,10,78,Yellow
1306386806,87,129,97,0,2,7,5,11,11,19,66,1.1,2,0.5,1.3,1,16,17,10,10,49,Green
1306382940,101,208,181,0,1,40,27,30,30,35,58,0.6,1.2,0.7,1.2,1.5,17,19,9,10,41,Green
1306415604,94,136,126,0,0,7,3,8,7,15,147,1,1.4,0.8,0.8,1.1,14,18,8,9,67,Green
1306396750,60,99,106,0,1,29,9,10,11,22,60,0.9,1.2,1,1.4,1.1,15,16,9,11,25,Green
1306382650,81,142,207,0,2,41,9,42,51,62,156,1,1.3,0.7,1.4,1.7,15,17,10,10,60,Green
1306464543,63,125,162,0,0,13,12,12,11,22,91,0.9,1.2,0.5,1.1,1.2,15,18,9,10,54,Green
1306404670,49,80,103,0,0,5,8,18,17,24,97,0.7,1.3,0.6,0.9,1,13,15,7,8,43,Red
1306381976,53,82,142,0,1,11,5,14,14,23,175,1,1.3,0.9,0.8,1.3,15,16,10,10,53,Green
1306386831,51,85,80,0,1,19,14,12,12,23,100,1,2.1,0.7,1,0.9,14,15,9,9,53,Green
1306396832,73,112,141,0,1,12,2,13,12,20,226,0.8,1.6,0.8,1.7,0.6,16,18,9,10,63,Green
1306397910,74,131,186,0,1,12,3,41,42,69,141,1.3,2.1,0.9,1.5,1.2,16,16,10,10,52,Green
1306382032,44,163,247,4,7,119,43,23,32,62,122,1.3,1.5,0.9,1.5,1.2,18,22,10,10,42,Green
1306381585,55,119,165,0,0,32,37,11,11,31,73,1.1,1.2,0.8,1.3,1.2,19,21,10,10,37,Green
1306464480,84,130,113,0,1,7,3,6,6,9,42,0.8,1.1,0.5,0.4,1.1,13,14,2,2,24,Yellow
1306382871,78,143,196,0,3,14,4,71,71,114,96,1,1.3,0.7,1.3,1.1,16,17,10,10,42,Green
1306386636,94,161,235,0,0,16,21,26,26,50,470,0.9,1.6,0.6,0.8,1.1,16,20,10,10,92,Green
1306412911,55,85,160,0,0,21,6,19,17,38,97,0.9,1.9,0.8,1.7,1.3,15,15,10,10,48,Green
1306397854,80,136,119,0,0,5,6,17,16,24,58,0.8,1.3,0.4,1.2,1,15,17,10,10,29,Green
1306381622,75,149,309,0,1,59,26,49,49,60,236,1,1.6,1.2,1.2,1.6,18,20,10,10,76,Green
1306386900,64,108,129,0,0,5,3,10,9,14,62,0.9,1.2,0.6,1.1,1,15,15,8,9,33,Green
1306382833,42,103,119,0,0,21,3,47,74,57,436,1,1.5,0.5,1.4,0.4,15,17,10,10,111,Green
1306396845,92,183,451,0,0,100,21,68,69,97,116,0.9,2.2,1.3,1.3,1.3,15,23,10,11,68,Green
1306413220,63,105,155,0,0,14,17,10,10,22,68,1.1,1.5,0.8,1.4,1.7,15,17,10,10,42,Green
1306464511,66,131,140,0,1,13,8,10,10,19,84,1.1,1.6,1,1.4,1.5,16,19,10,11,43,Green
1306464524,71,112,134,0,0,12,4,27,27,37,62,1,1.6,0.6,1.1,1,15,16,10,10,36,Green
1306381635,72,130,206,0,1,35,21,26,29,49,269,0.9,1.5,2,1.4,1.4,15,19,10,10,101,Green
1306382801,69,144,196,0,2,49,20,84,85,110,117,0.8,1.6,1.7,1.5,1.4,16,18,10,10,55,Green
1306383022,46,74,144,0,1,28,6,19,17,35,192,1,1.5,0.9,1.3,1,15,16,10,10,78,Green
1306404720,97,173,152,0,2,32,20,19,19,27,78,1.1,1.3,1.1,1.1,0.7,15,19,8,9,43,Green
1306413366,60,109,130,0,0,25,0,9,8,11,81,0.9,1.4,0.9,1.3,1.2,16,18,9,9,50,Green
1306464423,72,127,214,0,1,26,16,15,13,26,241,0.9,1.6,0.8,1,0.9,15,17,9,9,83,Green
1306386895,59,110,139,0,0,7,8,20,20,36,93,0.9,1.4,0.6,1.1,1.1,16,19,9,10,47,Green
1306407363,116,186,225,0,0,43,23,52,45,64,297,1.2,1.6,0.9,1.5,0.5,16,19,10,10,99,Green
1306464045,77,146,152,0,0,16,4,14,15,18,163,1,1.5,0.9,0.9,1.5,13,19,6,7,53,Yellow
1306381654,80,200,217,0,1,47,30,30,45,68,180,1.1,1.6,1.1,1.3,1.2,19,20,9,9,68,Green
1306382934,50,104,156,0,0,28,9,30,30,46,165,1,1.4,1,0.9,1.1,15,18,10,10,60,Green
1306413252,54,98,99,0,0,14,8,29,29,43,101,1,1.8,0.5,0.9,1.7,16,17,10,10,43,Green
1306396776,151,275,312,0,1,60,32,20,20,47,145,1.1,1.9,0.7,1.6,1.4,17,22,10,10,59,Green
1306382625,83,126,129,0,1,11,7,15,14,25,80,0.9,1.5,0.7,1,0.8,14,15,8,9,45,Yellow
1306403844,95,142,145,0,1,14,20,9,10,13,125,1,1.5,0.8,1,1.1,19,20,8,9,51,Green
1306412092,66,101,118,0,1,6,5,3,3,6,64,1,1.3,0.5,0.6,1.6,16,17,3,3,42,Green
1306381774,61,105,149,0,0,50,10,16,18,26,107,1.1,1.6,1.2,1.2,1.3,15,20,10,10,52,Green
1306386661,78,148,225,0,1,50,21,13,15,15,150,1,1.4,0.9,1.1,1.2,15,19,10,10,57,Green
1306464474,64,114,146,0,0,18,10,14,14,22,101,1,1.4,1.3,0.7,0.7,16,16,6,8,52,Green
1306382865,73,182,311,0,0,78,53,53,52,72,288,0.8,1.4,1.3,1.4,1.3,16,19,10,10,88,Green
1306404626,35,51,42,0,0,2,0,16,16,19,40,0.7,0.8,0.4,0.3,0.7,10,10,2,3,22,Red
1306404701,66,113,161,0,0,20,9,11,10,17,107,1,1.3,0.6,1.4,0.9,16,18,10,10,47,Green
1306404632,38,71,154,0,2,16,5,23,22,35,176,1,1.8,0.8,1.4,1.3,14,15,10,10,68,Green
1306463635,54,96,153,0,0,59,34,8,7,22,94,0.9,2,1.6,1.2,1.2,15,16,7,9,43,Green
1306382820,60,125,131,0,0,25,5,18,18,32,167,1,1.6,0.5,1.4,1.4,15,17,10,10,66,Green
1306415970,103,131,81,0,1,6,8,10,14,25,106,1.2,1.9,0.3,1,0.4,17,17,10,10,62,Green
1306397791,75,121,113,0,0,13,8,10,10,20,95,0.9,1.7,0.8,1.5,1.9,16,16,10,10,54,Yellow
1306381811,47,76,146,0,1,15,8,14,20,29,131,0.8,1.4,0.9,1.3,1.1,15,16,10,10,63,Green
1306382051,52,110,257,0,0,17,16,20,19,27,394,0.9,2,0.8,1.1,0.8,15,17,10,10,84,Yellow
1306381641,83,145,184,0,1,23,20,13,15,27,151,1.1,1.8,1.2,1.2,1.8,16,19,10,10,73,Green
1306402753,78,120,199,0,0,22,15,24,21,42,200,0.9,1.2,0.8,1.1,0.7,14,14,9,10,64,Green
1306381830,94,155,136,0,0,21,13,21,19,29,155,1,1.6,1,1,1.3,18,21,10,10,65,Green
1306409450,62,109,194,0,1,80,89,60,61,74,103,1,1.8,1.1,1.5,1.1,16,20,10,10,57,Green
1306405282,137,204,131,0,0,17,17,29,30,34,62,1,1.4,1.1,1.2,1.4,15,15,10,10,33,Green
1306381881,55,94,131,0,0,8,5,18,16,37,66,0.8,1.5,0.5,1.1,1.1,16,18,10,10,36,Green
1306382700,125,225,243,0,1,49,18,42,44,57,203,1.4,2.1,1.1,1.3,0.9,17,21,10,11,66,Green
1306405276,87,154,285,0,0,17,8,10,10,18,248,0.9,1.6,1,1,1.9,15,16,10,10,68,Green
1306464114,151,212,223,0,1,31,7,11,9,21,245,1.1,1.8,1.1,1.2,0.4,19,21,9,9,95,Green
1306463736,74,150,139,0,1,11,10,86,125,99,183,0.9,1.6,0.9,1.4,1.3,16,19,10,10,51,Green
1306464360,72,102,76,0,0,15,10,11,9,18,38,0.9,1.1,0.7,0.9,1.1,15,16,7,9,22,Green
1306464266,47,78,55,0,0,9,11,10,10,16,35,1,1.4,0.7,1.5,1.1,14,14,10,10,25,Green
1306396681,51,99,99,0,1,7,2,9,8,17,91,1,1.2,0.6,1.1,1,15,15,8,8,37,Yellow
1306381692,65,98,71,0,1,8,11,8,8,14,147,1,1.7,0.7,0.9,0.8,15,16,8,9,61,Green
1306382953,76,145,216,0,1,15,14,56,59,70,188,0.9,1.7,0.7,1.3,1.1,16,17,10,10,71,Green
1306382783,37,98,187,0,2,49,16,31,30,42,74,1,1.5,0.9,1.4,1.2,15,16,10,10,37,Green
1306381906,77,131,124,0,2,19,0,48,48,72,111,1,1.7,0.9,1.3,1.4,17,17,10,10,65,Green
1306382120,79,125,128,0,0,12,10,9,15,29,146,0.9,1.6,0.7,0.8,1.2,17,21,8,9,60,Green
1306403863,75,114,119,0,0,17,11,13,12,23,71,1.1,1.3,0.4,1.2,1,17,18,10,11,37,Green
1306464026,83,135,210,0,0,10,3,15,13,34,215,1,1.5,1.1,1.4,1,15,16,10,10,71,Green
1306403850,67,121,135,1,0,27,19,17,15,24,124,0.9,1.7,1.1,0.9,1.5,17,20,9,9,41,Green
1306415610,74,131,154,0,0,25,12,117,122,150,186,0.9,1.6,1,1.3,1.2,15,19,10,10,67,Yellow
1306404664,53,95,129,0,0,10,4,28,27,43,112,1,1.8,0.6,1.2,1.6,15,15,10,10,40,Green
1306381824,47,80,117,0,0,35,25,10,11,15,184,0.6,1.2,0.8,1.5,1.4,9,14,10,10,74,Red
1306463894,73,167,372,0,1,105,32,45,43,74,408,1.1,1.8,1.1,1.3,0.8,15,20,10,11,117,Green
1306403434,89,158,145,0,0,48,32,13,13,23,47,1.3,1.5,0.7,1.2,1.2,16,18,9,10,26,Green
1306381925,53,77,98,0,1,19,18,13,14,19,68,1,1.5,0.7,0.7,1.1,15,15,7,9,36,Green
1306397841,61,92,88,0,0,7,1,20,18,22,74,0.9,1.1,0.6,0.8,0.8,15,17,7,8,36,Yellow
1306402892,81,139,187,0,1,18,18,10,11,22,54,1.3,1.4,0.8,1.2,1.1,18,21,10,10,34,Green
1306464556,73,119,97,0,0,13,10,0,0,2,86,0.9,1.3,0.6,0.4,1.1,14,15,0,1,37,Red
1306398996,27,65,124,0,0,17,10,25,31,41,49,0.8,1.2,0.7,1.6,1.3,15,17,10,10,38,Green
1306381660,82,130,127,0,2,13,10,19,17,34,81,1,1.8,0.6,1.2,1.4,16,18,10,10,45,Green
1306397923,63,114,197,0,1,35,39,64,82,96,218,0.9,1.7,1,1.3,0.6,15,16,10,10,89,Green
1306402873,95,150,146,0,2,29,19,21,19,40,134,1,1.2,0.9,1,1,17,19,8,9,69,Green
1306382751,88,148,348,0,2,49,16,12,13,30,146,1.1,2.3,1.4,1.6,1.7,16,20,10,10,60,Green
1306382682,118,252,253,0,0,46,72,29,26,65,157,1.2,1.6,1,0.9,0.9,16,20,9,10,50,Green
1306415951,46,110,187,0,1,48,18,10,11,28,91,1.1,1.2,0.9,1.4,1.7,16,18,10,11,42,Green
1306396706,45,94,133,0,1,10,7,10,10,20,123,0.9,1.2,0.5,1.3,0.9,15,16,9,10,51,Green
1306397816,52,84,173,0,2,39,23,19,25,40,79,1,1.5,1,1.2,1.3,15,16,10,10,37,Green
1306409500,123,177,142,0,0,17,13,15,13,37,89,1,1.9,1.2,1.4,0.9,16,17,10,10,50,Green
1306404714,81,106,86,0,0,11,3,4,4,9,139,0.8,1.2,0.6,0.7,0.5,15,17,4,7,58,Green
1306464120,71,119,161,0,1,31,27,11,12,23,57,0.8,1.3,1.2,0.8,0.7,15,17,8,10,24,Green
1306464505,102,164,129,0,1,26,16,11,12,18,244,1.3,1.6,1.4,1,0.4,17,19,9,9,107,Green
1306382796,74,124,270,0,0,51,33,50,50,66,253,1,2.2,0.8,1.4,0.5,17,21,10,11,100,Green
1306382745,88,148,86,0,1,25,4,12,12,16,142,0.9,1.4,1.2,1.3,0.9,15,16,10,10,69,Green
1306398945,59,106,215,2,0,55,22,37,36,49,91,1.1,1.4,0.9,1.4,1.8,17,19,10,11,49,Green
1306396795,67,125,170,0,0,15,17,10,10,23,110,1,1.3,0.9,1.5,1.2,15,18,10,11,41,Green
1306383104,89,139,200,0,0,27,11,70,75,92,167,1,1.3,0.9,1.3,0.9,15,19,10,10,48,Green
1306383073,80,194,347,0,1,60,21,52,52,86,75,1.1,2,1.2,1.7,1.2,15,22,10,10,40,Green
1306409495,110,210,180,0,0,34,14,60,60,86,102,1.5,2.4,1.3,1.2,1.9,16,17,10,10,50,Green
1306404733,65,113,166,0,2,61,60,46,45,60,143,1,1.6,1.2,1.6,0.7,15,17,10,10,56,Green
1306464335,53,94,158,0,0,11,11,39,38,51,109,1.1,1.3,0.6,1.3,1,15,16,10,10,40,Green
1306464530,66,119,134,0,2,13,12,11,11,23,51,1,1.5,0.5,0.9,1.4,16,22,9,10,33,Green
1306381616,90,119,79,0,0,3,7,8,6,16,62,0.9,1.6,0.4,1,1,15,15,8,9,28,Green
1306407344,55,117,162,0,1,40,38,16,16,35,59,0.9,1.6,1.2,1.2,1.6,15,18,8,11,34,Green
1306407376,79,115,119,0,0,9,9,9,8,19,71,1,1.2,0.6,1,1.1,15,15,7,7,35,Green
1306407312,79,166,300,0,1,22,11,36,34,65,169,1.1,1.9,0.7,1.5,2.2,16,18,10,10,57,Green
1306381723,52,95,96,0,3,18,5,7,7,11,122,1,1.3,0.8,1,0.8,16,18,7,7,44,Green
1306413965,93,123,75,0,1,15,10,28,29,33,67,1,1.5,1.2,1,1.4,18,19,9,9,42,Green
1306403812,56,121,154,0,0,8,2,17,16,22,295,0.8,1.3,0.7,0.9,0.8,15,18,7,7,58,Yellow
1306397860,44,87,97,0,0,7,2,4,4,6,161,1,1.2,0.5,0.6,0.7,13,15,4,5,70,Yellow
1306382846,90,122,156,0,1,26,13,15,13,28,232,0.9,1.5,0.6,1.2,0.9,16,16,8,9,71,Green
1306463875,54,79,87,0,1,2,2,9,9,26,71,0.7,1.5,0.3,0.9,1,13,14,7,9,32,Green
1306383060,68,118,110,0,0,6,2,9,8,17,84,1,1.3,0.4,1,1.2,15,16,8,8,32,Green
1306382814,62,92,108,0,1,11,6,9,9,27,120,1.2,1.7,0.7,1.2,1.1,15,16,9,9,57,Green
1306405326,59,104,95,0,0,16,7,50,47,63,41,0.9,1.5,0.4,1.5,1,11,12,10,10,24,Green
1306412086,67,115,103,0,1,12,12,18,17,20,87,0.9,1.2,0.6,0.7,1.1,15,16,6,6,40,Green
1306382726,101,204,200,0,1,34,23,26,31,49,89,1,1.4,1.1,1.3,1.2,17,21,10,10,45,Green
1306415775,79,155,299,0,0,36,22,70,112,79,115,1,1.6,1.1,1.1,1.3,17,19,10,10,51,Green
1306464303,63,88,82,0,0,13,11,10,5,15,45,0.9,1.4,0.8,1.2,1.1,14,15,9,10,22,Green
1306382594,61,119,98,0,1,13,3,5,4,8,85,0.9,1,0.6,0.4,1,15,18,3,4,28,Green
1306382902,68,133,223,0,1,26,9,54,65,71,162,1,1.4,0.9,1.3,1.2,14,17,10,10,50,Green
1306382764,90,196,292,0,1,79,24,42,41,87,227,1.1,1.4,1.4,1.3,0.8,17,24,10,10,90,Green
1306382921,62,99,152,0,1,15,4,11,13,15,111,0.8,1.5,0.8,1.3,1.3,15,15,10,10,47,Yellow
1306382890,48,87,77,0,0,1,0,18,18,35,24,0.9,1,0.3,1.2,0.8,15,15,10,10,11,Green
1306396763,45,78,132,0,0,1,1,12,12,16,107,0.9,1.1,0.3,0.7,1,14,15,5,6,36,Green
1306464285,49,86,111,0,0,21,6,16,16,33,177,1.2,1.8,0.8,1.4,0.9,15,16,10,10,56,Green
1306464373,81,113,148,0,1,25,26,9,9,21,65,0.9,1.5,1,1.4,1.3,15,17,9,10,42,Green
1306463824,59,101,150,0,0,26,18,41,41,56,133,1,1.5,0.9,1.5,1.3,16,16,10,10,45,Green
1306464000,99,158,165,0,0,3,2,9,10,17,98,1,1.3,0.4,0.9,0.9,16,17,7,10,50,Yellow
1306396782,49,119,318,0,0,38,8,27,39,51,248,1.1,2,0.9,1.5,1.8,15,18,10,10,87,Green
1306382972,52,95,87,0,0,2,0,34,32,49,68,0.9,1.5,0.4,1.5,0.8,15,18,10,10,49,Red
1306412060,152,225,161,0,0,12,5,21,21,35,84,1.2,1.9,0.6,1.8,1.2,18,21,10,10,50,Green
1306382676,60,93,90,0,0,6,3,12,13,17,76,1.1,1.2,0.5,1.3,0.8,14,17,9,9,44,Green
1306401782,31,72,145,0,0,40,13,24,28,31,273,0.9,1.6,1.2,1,0.5,12,13,7,8,111,Red
1306463925,74,123,127,0,0,37,32,18,18,39,44,1,1.3,1.2,1.4,1.1,15,16,10,10,22,Green
1306405313,51,117,209,0,0,26,4,40,40,64,249,1,1.1,0.5,1.4,0.4,15,16,10,10,112,Green
1306404696,71,141,210,0,0,33,34,19,19,34,190,1,1.6,1.3,1.3,1.1,15,18,10,10,66,Green
1306397785,66,95,63,0,0,1,1,2,1,3,56,0.9,1.1,0.3,0.4,0.9,15,15,2,2,36,Green
1306464404,48,68,81,0,0,5,6,6,5,7,29,0.8,1,0.5,0.8,1.1,10,11,6,6,19,Red
1306386882,82,155,133,1,1,46,39,11,10,22,159,1.3,1.8,0.9,1.3,0.5,16,16,9,9,63,Green
1306403831,76,117,73,0,0,7,3,11,9,18,66,1.1,1.4,0.6,1,1.4,16,16,8,9,29,Green
1306381673,59,120,186,0,1,34,16,8,7,16,261,0.9,1.3,1.3,1.2,1.1,15,20,8,9,77,Green
1306412754,96,166,209,0,0,13,11,21,20,42,213,1,1.6,0.5,1.3,0.6,18,22,10,10,82,Green
1306386913,69,107,60,0,0,4,3,1,0,1,39,0.9,0.8,0.5,0.3,0.8,14,15,1,1,21,Yellow
1306407350,63,128,234,0,0,21,16,26,26,33,144,0.9,1.8,1,1.1,1.6,13,19,10,10,56,Green
1306463452,76,123,133,0,1,27,19,11,9,23,68,0.9,1.8,0.7,1.1,1.6,16,18,8,8,41,Green
1306381686,64,96,104,0,1,12,4,9,9,15,142,1.1,1.4,0.8,1.3,1.2,16,20,9,9,51,Green
1306381894,57,122,127,0,1,46,28,11,11,20,172,1.2,1.3,0.7,1.2,0.5,18,20,10,10,81,Green
1306381950,51,89,96,0,1,9,8,49,51,57,52,1,1.3,0.4,0.9,0.9,15,17,9,9,40,Green
1306381995,61,113,153,0,0,44,28,28,23,49,106,0.9,1.2,0.6,1.2,1.1,15,16,10,10,58,Green
1306463660,89,164,243,0,1,41,43,14,20,40,314,0.9,1.4,1.3,1.1,0.6,15,21,8,10,116,Green
1306464493,33,87,95,0,1,18,7,24,26,52,30,0.9,1.5,0.4,1.2,1.3,15,16,10,11,22,Green
1306382000,69,109,76,0,1,5,9,13,13,28,240,0.9,1.4,0.4,1,0.4,14,14,8,10,99,Green
1306382915,78,121,100,1,1,14,33,46,45,52,84,1,1.5,0.9,1.1,1.2,15,16,8,9,40,Green
1306464221,68,93,103,0,0,10,7,2,2,2,69,1,1.1,0.6,0.4,1,15,15,2,2,34,Green
1306463603,60,126,109,0,0,1,6,17,17,33,53,1,1.2,0.3,1.2,0.8,15,17,10,10,31,Green
1306381982,73,164,149,0,1,8,4,27,27,54,75,1,1.5,0.5,1.2,1.1,16,19,10,10,26,Yellow
1306386850,77,120,78,0,0,9,7,29,37,37,49,0.9,1.2,0.6,1.4,1,14,16,10,10,30,Green
