npm,sum_count_assignment_upload,sum_count_assignment_view,sum_count_course_view,sum_count_forum_add_discussion,sum_count_forum_add_post,sum_count_forum_view_discussion,sum_count_forum_view_forum,sum_count_quiz_attempt,sum_count_quiz_review,sum_count_quiz_view,sum_count_scele_resource_view,snr_count_assignment_view,snr_count_course_view,snr_count_forum_view_discussion,snr_count_quiz_view,snr_count_scele_resource_view,acc_unique_assignment_upload,acc_unique_assignment_view,acc_unique_quiz_attempt,acc_unique_quiz_view,acc_unique_resource_view,signal
1006759712,10,24,28,0,0,11,5,22,21,27,33,0.9,1.3,0.8,1.6,1.7,3,7,6,6,20,Red
1006760765,0,6,10,0,0,7,3,2,1,4,18,0.5,0.9,0.4,0.7,0.6,0,4,2,3,18,Red
1106087484,0,6,17,0,0,1,1,0,0,2,7,0.9,1.4,0.4,0.4,0.5,0,5,0,2,6,Red
1106087673,2,5,22,0,0,0,1,1,1,8,53,0.4,0.8,0,0.5,0.4,2,5,1,3,31,Red
1106088852,0,4,26,0,0,3,5,0,0,6,26,1,1,0.5,0.8,0.8,0,3,0,3,10,Red
1206254952,52,86,83,0,0,9,4,50,47,65,105,1.1,1.7,1,1,1.5,10,11,6,6,49,Red
1206238204,38,67,59,0,0,15,22,22,22,31,26,1,1.7,1.1,1.4,1.4,10,11,6,6,16,Yellow
1206227655,26,52,50,0,0,5,4,10,8,14,131,1.1,1.9,0.6,1,0.6,10,10,6,6,38,Red
1206225460,79,116,84,0,1,14,22,5,4,13,80,1.3,2,0.8,1.2,1.1,10,13,5,6,37,Yellow
1206278555,83,166,145,0,0,33,30,36,37,50,94,1,1.7,1,1.5,2.6,10,11,6,6,32,Green
1206248501,40,70,62,0,0,1,1,9,8,12,46,1,1.4,0.4,1.2,1.3,8,10,5,5,15,Red
1206277413,6,16,22,0,0,13,13,1,1,5,20,0.5,0.8,0.5,0.4,0.7,4,6,1,2,11,Red
1206248930,45,76,62,0,0,1,1,15,14,25,43,0.9,1.1,0.4,0.9,1.1,10,10,4,5,19,Yellow
1206229105,61,99,248,0,0,42,35,20,22,41,70,1.2,2.1,1.4,1.4,1.5,10,10,6,6,27,Green
1206278145,24,55,61,0,0,5,3,27,25,36,83,1,1.4,0.4,1,0.7,7,10,6,6,34,Red
1206227371,53,94,91,0,0,7,16,18,19,39,41,1.2,1.5,0.9,1.2,1.6,10,11,5,6,18,Red
1206278271,64,86,79,0,0,9,13,19,19,31,27,1.1,1.6,0.9,1,1.4,8,9,6,6,16,Red
1206208132,4,7,13,0,1,6,3,2,2,5,3,0.4,0.8,0.4,0.5,0.4,2,2,1,2,2,Red
1206228746,20,39,55,0,0,0,3,26,23,34,29,0.8,1.1,0,0.9,0.9,8,8,4,5,11,Red
1206277483,75,103,58,0,0,19,16,5,11,18,30,1,2.2,1.2,0.8,1.1,10,11,5,6,22,Green
1206242183,27,61,70,0,1,19,6,9,8,21,43,1.1,1.5,1.1,1.1,1.2,10,13,5,6,24,Red
1206278095,77,169,105,0,0,12,1,10,7,17,61,1.2,1.5,1.1,1,1.4,10,10,5,5,21,Yellow
1206242321,11,22,38,0,0,12,17,1,0,3,23,0.5,0.9,0.9,0.4,0.6,2,7,1,1,14,Red
1206278302,36,109,159,0,0,41,31,30,40,68,91,1.1,1.6,1.7,1.6,2.5,11,15,6,6,37,Yellow
1206208246,16,64,94,0,0,17,7,41,40,66,32,0.9,0.9,1.1,1.6,0.9,8,9,6,6,18,Red
1206278574,61,109,100,0,0,14,9,40,41,65,103,1.2,1.6,0.9,1.4,0.9,10,13,6,6,37,Yellow
1206231135,70,123,67,0,0,18,7,21,21,29,43,1,1.5,0.6,1.5,1.6,10,11,6,6,19,Yellow
1206228544,34,60,63,0,0,10,4,16,17,24,45,1.3,1.5,0.7,1.5,1.3,8,11,5,6,25,Red
1306386876,61,101,55,0,0,5,2,5,5,12,18,1.1,1.2,0.7,0.9,1,10,14,5,5,11,Green
1306398983,32,48,32,0,0,1,1,1,1,4,63,0.9,1.3,0.4,0.5,0.7,11,12,1,3,42,Green
1306382852,35,69,110,0,0,12,5,6,5,16,175,1.2,2.2,1.1,1,1.1,8,10,6,6,62,Yellow
1306381704,100,222,284,0,0,63,25,20,20,30,97,1.2,1.8,1.4,1.1,1.6,19,21,6,7,41,Green
1306382064,32,77,154,0,1,31,8,40,38,52,133,1.1,1.9,1.3,1.3,0.8,11,11,6,6,67,Green
1306382133,64,119,96,0,0,16,7,8,8,13,70,1.2,1.5,0.5,1.5,1.3,11,15,6,6,29,Green
1306386825,49,81,193,0,0,40,164,18,18,37,61,1.4,2.2,1.3,1.5,1.1,11,12,6,6,37,Green
1306386711,59,99,189,0,0,23,14,36,36,53,138,1,1.7,1.1,1.3,0.8,10,10,6,6,67,Yellow
1306382713,69,125,132,0,0,12,9,25,46,30,44,1.6,1.8,0.6,1.2,1.8,13,14,6,6,27,Green
1306398932,30,81,211,2,1,41,39,7,7,13,69,1.4,1.6,0.7,1.6,1.8,13,15,6,6,33,Green
1306381780,70,120,100,0,0,8,6,6,13,24,89,1,1.4,0.8,1.4,1.2,10,14,5,6,48,Yellow
1306382884,84,146,156,0,0,24,9,40,42,68,177,1.2,2.3,1.2,1.6,1.8,11,14,6,6,68,Green
1306386863,64,101,99,0,0,1,6,10,9,21,78,1.1,1.4,0.4,1.4,2,10,12,6,6,34,Green
1306381742,32,103,107,0,1,16,4,28,29,37,75,1.4,1.9,0.9,1.3,1.7,10,12,6,6,29,Green
1306381736,60,118,112,0,2,25,7,7,9,21,79,1.2,2,0.9,1.4,1.1,12,13,3,6,34,Green
1306381931,87,132,84,0,0,5,3,19,17,28,141,1.2,1.9,0.9,1.3,1.1,12,14,6,6,59,Green
1306381603,36,66,85,0,1,33,21,11,9,19,52,1,1.5,1.4,1.4,1.5,10,10,6,6,20,Green
1306382083,44,76,110,0,0,17,6,9,9,11,42,1.1,1.6,1.5,1,1.5,9,11,4,6,20,Green
1306381862,64,100,96,0,0,27,16,10,10,19,76,1.3,1.4,0.5,1.8,1.4,10,12,6,6,37,Green
1306386932,48,72,75,0,0,4,4,11,11,24,105,1.1,1.5,1,0.8,1,10,10,6,6,45,Green
1306464455,54,112,100,0,0,31,4,9,9,16,174,0.8,1.4,0.8,1,2.2,10,13,5,5,62,Red
1306463591,119,244,286,0,1,25,11,24,23,36,175,1.2,1.5,0.9,1.2,1.5,15,18,6,6,41,Green
1306382045,46,113,174,0,0,16,6,22,36,32,129,1,1.7,0.8,1.5,1.3,10,15,6,6,44,Green
1306413372,0,4,20,0,0,5,3,1,0,2,189,0.5,0.6,0.6,0.4,0.4,0,3,1,1,83,Red
1306405300,53,93,47,0,0,7,2,14,13,18,59,1.2,1.4,0.8,1.1,1,10,11,6,6,38,Green
1306464070,58,111,153,0,0,10,7,42,42,58,104,1.2,1.9,1,1.6,2.1,12,16,6,6,37,Green
1306396870,63,194,308,0,0,63,37,16,16,27,188,1.2,1.8,1.9,1.6,1.3,11,16,6,6,74,Yellow
1306381761,53,70,63,0,0,11,3,6,6,10,34,1.4,1.4,1.2,1.3,1,10,11,6,6,18,Green
1306464013,42,70,70,0,0,3,7,8,8,15,69,0.8,1.3,0.5,1.6,1.5,9,9,6,6,16,Green
1306409513,83,222,369,0,0,40,24,5,5,11,342,1.2,1.7,1.3,1.4,0.8,15,21,5,6,102,Yellow
1306464562,81,166,310,0,0,97,57,10,10,38,205,1.1,1.9,1,1.6,1.2,10,13,6,6,83,Green
1306398951,34,58,70,0,0,27,18,7,7,10,34,1.2,1.8,0.8,1.9,1.8,10,10,6,6,18,Green
1306396813,36,79,150,0,0,26,29,22,22,38,76,1.1,2.4,1.4,1.3,1.6,10,12,6,6,28,Green
1306397904,26,45,76,0,1,12,4,11,12,20,56,1.2,1.5,1.5,1.1,1.4,10,10,4,5,27,Green
1306386623,55,101,79,0,0,27,18,33,39,44,192,1.6,1.9,1.1,1.4,0.4,10,15,6,6,70,Green
1306381710,16,40,95,0,0,19,7,35,38,43,66,1,1.8,1.5,1,1.1,8,8,5,5,25,Green
1306401630,46,85,139,0,0,29,10,33,37,42,59,0.9,2.1,0.9,1.2,1.7,10,12,6,6,29,Green
1306415781,60,101,134,0,1,22,15,6,6,9,84,1.2,2,1.2,1.2,1.3,10,12,6,6,36,Green
1306381875,43,68,83,0,0,6,5,5,5,7,82,1.1,1.3,0.5,0.9,1.5,11,12,5,5,33,Green
1306402066,50,81,76,0,0,10,4,6,5,24,54,1,2,0.8,1.5,1.3,9,10,6,6,27,Green
1306464096,51,102,140,0,0,21,10,11,12,19,184,1,2,1.3,1.2,1.2,11,12,6,6,60,Green
1306381856,41,83,132,0,0,15,4,5,8,20,145,1.3,2.1,1.1,1.1,1.9,10,13,5,6,50,Green
1306383086,34,59,122,0,0,25,8,8,8,18,58,1.4,2.2,1.2,1.4,1.5,10,11,6,6,33,Green
1306397892,58,97,121,0,0,9,14,12,13,35,106,1.3,2,0.9,1.5,1.8,10,12,6,6,43,Green
1306413385,47,78,116,0,0,3,0,13,12,22,172,1,1.5,0.5,1.5,0.9,9,11,6,6,42,Green
1306383092,36,58,108,0,0,9,2,18,16,30,52,1.2,2.2,0.8,1.5,1.6,10,10,6,6,32,Green
1306401675,56,78,75,0,0,10,7,38,38,48,40,1,1.7,1,1.5,1.3,10,10,6,6,27,Yellow
1306381843,44,84,107,0,0,4,2,12,11,24,95,1.4,1.7,0.7,1.2,1.3,10,11,5,5,43,Green
1306382606,96,177,198,0,0,20,16,8,8,17,72,1,1.3,1.1,1,1.6,11,12,5,5,33,Green
1306409463,73,148,280,0,0,32,35,10,10,24,196,1.2,1.6,1.7,1.1,1.9,10,12,6,6,73,Green
1306407382,89,118,67,0,0,0,0,6,5,9,50,1.6,1.7,0,0.7,0.8,10,13,3,4,23,Green
1306386705,47,71,92,0,0,2,2,9,6,24,123,1.1,1.6,0.4,1.4,1.1,11,11,6,6,54,Yellow
1306382695,69,104,128,0,0,17,3,18,18,27,79,1.2,1.8,1.1,1.5,0.8,10,12,6,6,54,Green
1306382631,59,121,190,0,0,13,9,35,35,47,201,1.3,2,0.7,1.4,0.9,10,14,6,6,55,Green
1306464133,53,143,238,0,0,31,14,12,15,50,160,1.4,2.2,0.9,1.7,1.4,11,12,6,6,54,Yellow
1306414236,81,124,125,0,0,17,8,13,12,21,121,1.2,1.4,0.9,1.1,0.7,10,12,6,6,50,Green
1306414854,59,92,76,0,0,15,9,9,9,13,162,1,1.4,0.6,1.5,0.5,14,15,6,6,62,Green
1306396712,51,99,117,0,0,9,5,11,11,18,67,1.3,1.6,0.8,1.1,1.3,10,12,6,6,28,Green
1306383041,56,90,144,0,0,28,11,27,26,39,73,0.9,1.8,0.8,1.2,1.2,10,10,6,6,28,Green
1306463830,62,90,69,0,0,5,1,9,8,16,100,1,1.5,0.7,1,1.3,10,11,5,5,37,Green
1306382770,68,149,244,0,0,55,26,24,24,38,252,1.3,2.1,1,1.1,0.6,12,13,6,6,81,Green
1306409476,36,117,188,0,0,41,10,23,22,35,153,1.4,2.3,1.1,1.4,1.9,10,13,6,6,60,Green
1306383016,36,87,145,0,0,17,5,6,6,11,255,1.2,1.6,1.2,1.4,0.7,11,12,6,6,110,Yellow
1306383003,45,91,117,0,0,7,1,9,9,17,63,1.1,1.6,0.7,1.3,1.2,10,14,5,5,31,Green
1306386794,85,148,152,0,0,21,5,8,8,15,51,1.4,1.6,0.9,1.4,1.2,10,11,6,6,23,Green
1306415964,65,105,100,0,1,23,16,6,5,18,105,1.4,1.7,0.8,1.2,1.1,12,13,6,6,46,Green
1306381944,32,45,47,0,0,9,9,5,5,8,25,1.3,1.3,0.8,1.2,1.1,10,11,5,5,14,Green
1306381963,60,92,82,0,0,15,8,6,5,7,31,1,1.4,0.8,1.1,1.1,10,10,5,5,16,Green
1306382101,46,73,76,0,0,9,2,23,21,32,50,1,1.5,0.8,1.2,1.1,10,12,6,6,39,Green
1306464064,33,70,136,0,0,25,20,7,6,11,224,1.2,2.6,1.5,2.8,4,11,11,6,6,63,Green
1306409482,52,85,129,0,0,0,0,26,23,40,202,1.2,1.8,0,1.3,2.7,11,11,6,6,54,Green
1306381793,75,132,119,0,0,10,7,19,19,24,82,1.1,1.7,1.1,1.2,2,14,18,5,6,35,Green
1306463944,60,100,128,0,0,12,7,15,15,24,255,1.1,1.6,0.8,1,1,11,12,6,6,56,Green
1306464240,41,81,198,0,0,19,6,18,15,28,146,1.2,2,1,1.5,1.7,11,11,6,6,49,Green
1306381591,48,77,57,0,0,19,13,5,5,10,31,1.4,1.5,0.5,1.3,1.2,11,13,5,5,20,Green
1306464354,33,64,56,0,0,6,3,9,9,17,28,0.9,1.6,0.8,1.4,1.3,10,10,6,6,21,Green
1306383035,94,138,113,0,0,18,3,24,22,23,60,1.3,1.9,0.9,1.1,0.9,12,12,6,6,39,Green
1306382991,58,94,126,0,0,10,7,30,29,44,180,1.1,2,0.7,1.4,0.7,11,13,6,6,77,Yellow
1306383110,52,104,88,0,0,18,12,23,22,37,82,0.8,2,1.3,1.1,0.9,12,14,6,6,53,Green
1306382070,40,67,105,0,0,17,0,33,32,45,130,1.2,1.5,1.1,1.5,0.7,11,11,6,6,58,Yellow
1306386806,51,76,65,0,0,3,2,6,7,9,31,1.1,2,0.8,1.4,1.4,10,11,6,6,23,Green
1306382940,86,186,139,0,1,38,27,22,22,24,40,0.8,1.4,1,1.3,1.6,12,14,6,6,29,Green
1306415604,72,101,86,0,0,4,1,5,5,11,85,1.3,1.5,1,0.8,1.2,10,11,5,6,40,Green
1306396750,35,70,90,0,0,23,6,6,7,13,50,0.9,1.7,1.3,1.2,1.6,10,11,5,6,17,Green
1306382650,72,123,164,0,2,32,6,30,39,41,100,1.3,1.6,0.8,1.3,2.3,10,12,6,6,36,Green
1306464543,55,109,130,0,0,11,8,9,9,15,74,1.1,1.5,0.6,1.1,1.4,10,13,6,6,40,Green
1306404670,36,62,76,0,0,3,4,14,13,18,58,0.8,1.3,0.5,1.1,1.2,9,11,5,5,24,Red
1306381976,43,66,104,0,0,7,5,10,10,18,121,1.2,1.5,1.1,0.8,1.6,10,11,6,6,32,Green
1306386831,37,64,54,0,0,13,7,9,10,17,84,1.1,2.1,0.8,1,1.1,10,10,6,6,44,Green
1306396832,48,80,99,0,0,8,2,8,8,11,205,0.9,1.8,0.8,1.4,0.7,11,13,5,6,49,Green
1306397910,59,97,121,0,0,3,1,26,27,43,101,1.4,2.1,0.8,1.4,1.2,10,10,6,6,34,Green
1306382032,31,117,156,2,4,74,23,9,12,33,80,1.5,1.4,0.8,1.8,1.2,11,14,6,6,27,Green
1306381585,39,88,133,0,0,29,35,7,7,21,57,1.3,1.5,1.1,1.4,1.5,13,15,6,6,24,Green
1306464480,77,118,86,0,0,4,1,6,6,9,29,1.1,1.3,0.6,0.5,1.3,10,11,2,2,16,Yellow
1306382871,66,119,151,0,0,2,3,55,56,87,71,1.2,1.6,0.6,1.4,1.1,11,12,6,6,30,Green
1306386636,73,129,183,0,0,14,19,22,22,44,359,1.1,2.2,0.7,1,1.6,11,14,6,6,58,Green
1306412911,39,63,109,0,0,16,6,12,11,23,65,1,1.8,0.9,1.4,1.4,10,10,6,6,33,Green
1306397854,67,116,100,0,0,5,6,12,12,14,49,1,1.7,0.5,1.1,1.3,10,12,6,6,21,Green
1306381622,51,108,214,0,0,39,20,32,32,41,174,1,1.7,1.2,1.2,1.9,12,14,6,6,51,Green
1306386900,56,92,100,0,0,3,3,6,5,9,48,1.1,1.3,0.5,1.1,1,10,10,5,6,23,Green
1306382833,28,72,90,0,0,18,3,30,47,34,415,1.1,1.9,0.6,1.4,0.4,10,12,6,6,100,Green
1306396845,74,149,267,0,0,69,20,26,27,40,73,1.1,2.2,1.2,1.6,1.7,10,14,6,6,43,Green
1306413220,46,81,118,0,0,8,10,6,6,13,42,1.2,1.7,0.6,1.5,2,10,11,6,6,27,Green
1306464511,52,102,90,0,0,8,5,6,6,12,62,1.2,1.6,1,1.3,1.7,10,13,6,6,34,Green
1306464524,56,92,84,0,0,9,4,21,21,28,46,1.3,1.5,0.6,1.2,1.1,11,12,6,6,24,Green
1306381635,58,106,146,0,0,20,10,12,15,24,167,1.2,1.7,1.8,1.5,1.4,10,13,6,6,71,Green
1306382801,58,119,140,0,0,26,10,48,47,62,77,1,1.7,1.6,1.6,1.4,11,12,6,6,37,Green
1306383022,28,50,102,0,0,15,4,10,9,22,133,1.1,1.6,0.7,1.4,1.4,10,11,6,6,58,Green
1306404720,84,146,116,0,0,22,13,14,14,16,62,1.5,1.5,1.1,1.2,0.7,10,13,6,6,32,Green
1306413366,32,66,96,0,0,22,0,5,5,7,46,1.1,1.5,1.1,1.1,1.4,11,11,5,5,27,Green
1306464423,56,99,151,0,0,16,8,10,9,14,205,1,1.6,0.7,0.9,1.1,10,12,5,5,71,Green
1306386895,41,79,102,0,0,7,8,10,10,19,56,1.1,1.5,0.8,1,1.1,10,12,5,6,27,Green
1306407363,79,124,150,0,0,33,13,35,28,42,211,1.3,1.6,0.9,1.4,0.5,10,12,6,6,77,Green
1306464045,61,118,115,0,0,14,3,12,13,15,116,1.3,1.9,1.2,1.1,1.6,9,14,4,5,30,Yellow
1306381654,58,153,150,0,0,27,17,23,36,52,128,1.2,1.7,1.1,1.5,1.4,13,14,6,6,50,Green
1306382934,34,76,118,0,0,23,8,26,26,37,130,1.2,1.6,1.2,1,1.3,10,11,6,6,44,Green
1306413252,41,83,69,0,0,13,7,20,21,28,65,1.3,2.2,0.7,0.9,2,11,12,6,6,25,Green
1306396776,121,225,203,0,0,44,22,12,12,31,111,1.3,1.8,0.7,1.5,1.8,11,15,6,6,41,Green
1306382625,71,106,99,0,0,5,0,4,4,12,71,1,1.9,0.6,0.9,1,10,10,4,5,39,Yellow
1306403844,71,103,84,0,0,4,6,6,7,9,74,1.3,1.5,0.7,1.1,1.3,13,14,5,5,32,Green
1306412092,53,83,91,0,0,0,1,3,3,6,34,1.2,1.4,0,0.9,1.5,10,11,3,3,25,Green
1306381774,46,78,104,0,0,36,8,11,13,19,74,1.3,2,1.3,1.3,1.8,10,13,6,6,34,Green
1306386661,61,122,180,0,0,36,18,8,8,9,95,1.2,1.8,1,1,1.1,10,14,6,6,36,Green
1306464474,55,92,103,0,0,14,7,11,11,14,73,1.3,1.6,1.8,0.6,0.7,11,11,3,4,42,Green
1306382865,63,148,207,0,0,57,39,32,32,45,173,0.9,2,1.5,1.3,1.7,11,14,6,6,61,Green
1306404626,35,51,42,0,0,2,0,16,16,19,40,1.2,1.3,0.6,0.4,1,10,10,2,3,22,Red
1306404701,50,89,112,0,0,14,4,7,6,10,62,1.2,1.4,0.6,1.5,1,11,12,6,6,25,Green
1306404632,30,50,103,0,0,7,2,10,9,16,131,1.1,2,0.7,1.3,1.7,10,10,6,6,47,Green
1306463635,45,80,98,0,0,42,20,4,4,12,71,1,1.9,1.8,0.9,1.4,10,11,4,5,32,Green
1306382820,49,90,78,0,0,16,3,11,11,18,94,1.3,2,0.4,1.4,1.6,10,11,6,6,32,Green
1306415970,87,104,54,0,0,1,1,6,10,17,22,1.4,2.2,0.4,1,1.6,10,10,6,6,11,Green
1306397791,55,91,85,0,0,9,5,6,6,12,62,1.1,1.9,0.9,1.3,2.2,11,11,6,6,33,Yellow
1306381811,39,64,97,0,0,9,3,7,13,17,95,0.9,1.4,0.8,1.5,1.2,10,10,6,6,43,Green
1306382051,46,96,167,0,0,8,10,12,12,18,307,1.1,1.8,1,1.1,0.8,10,12,6,6,55,Yellow
1306381641,54,103,128,0,0,12,10,8,9,19,110,1.2,2,0.9,1.2,2.1,10,13,6,6,48,Green
1306402753,63,95,145,0,0,15,5,15,12,27,163,1,1.6,0.9,1,0.8,11,11,5,6,46,Green
1306381830,77,126,97,0,0,17,8,15,13,21,104,1.3,1.9,1.3,1,1.3,13,16,6,6,41,Green
1306409450,48,88,124,0,0,39,51,40,40,47,62,1.2,1.9,1.6,1.4,1.4,11,13,6,6,31,Green
1306405282,102,155,93,0,0,12,9,20,20,24,44,1.2,1.5,1.1,1.2,1.4,10,10,6,6,21,Green
1306381881,40,74,90,0,0,8,5,13,12,29,42,1,1.6,0.7,1.3,1.1,11,13,6,6,24,Green
1306382700,86,160,155,0,0,39,13,17,18,24,162,1.4,2.2,1.3,1.6,0.9,11,13,6,6,48,Green
1306405276,74,134,199,0,0,13,8,6,6,8,163,1.2,1.6,1.2,1.4,1.8,10,11,6,6,43,Green
1306464114,106,155,155,0,1,21,4,8,6,16,217,1.3,1.9,1.1,1.4,0.5,12,14,6,6,79,Green
1306463736,55,114,96,0,0,6,8,54,82,65,141,1,1.6,0.7,1.5,1.5,10,13,6,6,35,Green
1306464360,61,87,60,0,0,12,6,6,5,11,30,1.1,1.3,0.8,0.8,1.3,11,11,4,5,14,Green
1306464266,32,57,43,0,0,8,5,6,6,11,22,1.1,1.8,0.9,1.6,1.4,10,10,6,6,17,Green
1306396681,37,71,78,0,0,4,0,6,5,11,70,1.2,1.6,0.7,1,1.3,10,10,5,5,23,Yellow
1306381692,55,85,41,0,0,1,1,5,5,7,104,1.3,1.7,0.4,1.1,0.8,10,11,5,5,41,Green
1306382953,62,123,139,0,0,5,6,37,37,45,130,1.2,1.6,0.7,1.2,1.1,11,12,6,6,52,Green
1306382783,29,80,136,0,0,24,5,17,17,24,53,1.2,1.7,1.3,1.2,1.3,10,10,6,6,24,Green
1306381906,59,100,92,0,0,13,0,28,29,48,84,1.1,2.3,0.9,1.3,1.8,12,12,6,6,49,Green
1306382120,61,94,92,0,0,10,6,7,13,24,124,0.9,1.7,0.8,0.9,1.6,10,12,6,6,47,Green
1306403863,64,84,89,0,0,16,8,7,7,13,53,1.3,1.4,0.4,1,1,10,10,6,6,25,Green
1306464026,65,97,143,0,0,5,1,9,8,21,156,1.2,1.5,1.3,1.5,1,10,10,6,6,45,Green
1306403850,54,96,92,0,0,19,13,12,11,18,83,1.1,1.8,1.2,0.9,1.5,11,14,5,5,28,Green
1306415610,51,89,101,0,0,16,6,53,53,80,137,1,1.9,1.1,1,1.4,10,13,6,6,52,Yellow
1306404664,35,70,74,0,0,3,0,15,14,20,77,1.2,1.8,0.5,1.4,2,10,10,6,6,24,Green
1306381824,41,65,76,0,0,23,19,6,6,10,118,0.7,1.3,0.8,1.5,1.9,6,8,6,6,43,Red
1306463894,61,132,279,0,1,79,24,35,33,58,357,1.3,2.1,1.1,1.6,0.9,10,14,6,6,104,Green
1306403434,66,113,102,0,0,37,20,6,6,9,36,1.3,1.5,0.7,1.4,1.3,10,11,6,6,18,Green
1306381925,41,59,64,0,0,8,10,11,12,14,47,1.1,1.9,0.9,0.8,1.4,10,10,5,6,23,Green
1306397841,46,60,61,0,0,5,1,12,12,14,47,0.9,1.2,0.6,0.8,0.8,10,11,5,6,30,Yellow
1306402892,64,104,136,0,0,11,8,6,7,15,35,1.5,1.4,0.7,1.2,1,12,14,6,6,21,Green
1306464556,65,102,71,0,0,7,1,0,0,2,74,1.2,1.5,0.4,0.6,1.5,10,11,0,1,31,Red
1306398996,21,53,84,0,0,12,10,14,18,22,38,1,1.4,0.7,1.6,1.5,10,12,6,6,27,Green
1306381660,64,102,91,0,0,6,4,14,13,21,51,1.1,1.9,0.5,1,1.5,10,11,6,6,28,Green
1306397923,50,92,136,0,1,27,34,42,53,67,154,1.1,1.9,1.1,1.3,0.6,10,10,6,6,60,Green
1306402873,64,107,111,0,0,22,16,14,14,29,104,1.1,1.3,1,1,1.2,11,13,4,4,47,Green
1306382751,72,119,232,0,0,31,12,7,6,21,100,1.2,2.4,1.3,1.9,1.8,10,14,6,6,41,Green
1306382682,97,195,165,0,0,33,56,23,20,49,120,1.5,1.7,1.1,1,0.9,10,14,5,6,35,Green
1306415951,31,71,101,0,0,38,13,6,7,17,65,1.2,1.9,1,1.4,2,10,12,6,6,29,Green
1306396706,36,74,86,0,0,2,3,7,7,13,77,1.1,1.2,0.4,1.3,0.8,10,10,6,6,37,Green
1306397816,41,67,120,0,0,23,11,9,15,25,54,1.1,1.6,0.8,1.2,1.5,10,10,6,6,25,Green
1306409500,88,125,95,0,0,15,13,10,8,23,59,1,2.1,2,1.3,0.9,10,10,6,6,41,Green
1306404714,63,78,69,0,0,9,3,2,2,4,128,0.9,1.4,0.7,0.7,0.6,10,12,2,4,50,Green
1306464120,60,103,136,0,0,25,23,8,9,17,51,1,1.8,1.5,0.8,0.9,10,12,5,5,19,Green
1306464505,76,122,94,0,0,15,7,7,8,12,219,1.3,1.8,1.3,0.9,0.5,11,13,5,5,91,Green
1306382796,58,95,163,0,0,24,10,35,35,43,224,1.1,2.3,1.4,1.3,0.6,11,13,6,6,84,Green
1306382745,65,117,65,0,0,18,4,6,6,7,96,1,1.6,1.5,1.5,0.9,10,11,6,6,45,Green
1306398945,41,82,154,1,0,37,17,22,22,29,66,1.3,1.5,0.9,1.3,2.3,11,13,6,6,36,Green
1306396795,53,100,123,0,0,13,14,6,6,11,74,1.1,1.4,1.2,1.6,1.1,10,11,6,6,24,Green
1306383104,74,118,159,0,0,23,6,45,48,61,139,1.3,1.6,1,1.4,1.1,10,13,6,6,34,Green
1306383073,59,141,230,0,0,40,16,34,34,57,41,1.3,2.3,1.2,1.7,1.8,10,13,6,6,25,Green
1306409495,71,132,109,0,0,21,6,26,26,44,57,1.3,2.1,1.1,1.3,2.1,10,11,6,6,27,Green
1306404733,44,81,128,0,2,51,49,29,28,39,70,1.1,2.2,1.8,1.6,1.2,10,12,6,6,34,Green
1306464335,36,71,118,0,0,10,10,27,26,36,66,1.4,1.5,0.8,1.4,1.2,10,11,6,6,20,Green
1306464530,46,88,94,0,1,6,6,7,7,12,36,1.2,1.6,0.5,0.7,1.5,10,16,5,5,20,Green
1306381616,71,96,57,0,0,2,2,4,3,7,46,1.1,1.7,0.4,0.8,1,10,10,4,4,15,Green
1306407344,44,89,107,0,0,27,28,9,9,18,37,1.1,1.6,1.1,1,1.6,10,12,4,5,24,Green
1306407376,58,91,82,0,0,9,9,5,4,8,48,1.2,1.4,0.9,0.8,1.1,10,10,3,3,22,Green
1306407312,66,138,210,0,0,15,7,19,17,32,115,1.4,2.2,0.7,1.4,3,11,13,6,6,37,Green
1306381723,39,77,61,0,0,8,1,4,4,8,86,1.2,1.4,1.2,1,0.8,11,13,4,4,29,Green
1306413965,67,87,45,0,0,8,5,13,13,15,37,1,1.4,1,1,1.4,11,12,5,5,27,Green
1306403812,37,86,104,0,0,5,0,14,14,18,217,0.9,1.3,0.7,1.1,0.8,10,12,5,5,39,Yellow
1306397860,37,72,78,0,0,7,2,2,2,3,134,1.3,1.4,0.7,0.5,0.8,10,10,2,3,53,Yellow
1306382846,57,82,101,0,0,2,2,9,8,14,191,1,1.5,0.6,1,1,11,11,4,4,58,Green
1306463875,47,67,60,0,1,2,2,5,5,13,44,0.8,1.8,0.4,0.7,1.5,10,10,4,5,20,Green
1306383060,59,102,83,0,0,6,1,5,4,9,54,1.3,1.5,0.5,0.8,1.2,10,11,4,4,20,Green
1306382814,50,70,63,0,0,3,3,6,6,15,76,1.4,1.9,0.8,1.5,1.2,10,10,6,6,42,Green
1306405326,46,79,66,0,0,13,4,32,30,40,33,1.2,1.6,0.4,1.5,1.1,9,10,6,6,18,Green
1306412086,46,78,59,0,0,7,6,12,12,14,51,1.1,1.3,0.6,0.8,1.2,10,11,5,5,25,Green
1306382726,66,135,124,0,0,15,13,16,21,37,45,1.1,1.4,0.7,1.4,1.1,11,14,6,6,26,Green
1306415775,63,115,193,0,0,24,7,53,95,61,80,1.1,1.7,1.4,1.1,1.4,11,12,6,6,36,Green
1306464303,45,66,67,0,0,9,9,6,4,9,37,1.1,1.8,1.1,1.1,1.4,10,11,5,5,15,Green
1306382594,38,70,61,0,0,6,1,3,2,3,53,1.1,1.5,0.9,0.5,1.3,10,12,2,2,17,Green
1306382902,49,107,169,0,0,21,5,31,43,43,129,1.3,1.7,1,1.2,1.4,10,13,6,6,38,Green
1306382764,67,151,206,0,0,44,12,28,28,54,142,1.3,1.5,1.5,1.2,0.7,11,16,6,6,58,Green
1306382921,52,85,122,0,1,15,3,7,9,10,69,1.1,2,1.2,1.3,1.6,10,10,6,6,31,Yellow
1306382890,37,65,58,0,0,1,0,14,14,26,13,1,1.2,0.4,1.2,0.9,10,10,6,6,6,Green
1306396763,36,64,103,0,0,1,1,9,9,11,87,1.1,1.3,0.4,0.7,1.2,10,11,3,3,24,Green
1306464285,36,62,76,0,0,16,4,8,8,16,156,1.4,2,0.9,1.2,1.3,10,10,6,6,45,Green
1306464373,66,90,102,0,0,17,20,6,6,13,41,1,1.5,1,1.6,1.5,10,12,6,6,27,Green
1306463824,47,82,108,0,0,18,9,26,26,38,91,1.2,1.6,1,1.5,1.6,11,11,6,6,28,Green
1306464000,85,137,134,0,0,2,0,6,7,11,64,1.4,1.6,0.4,0.9,0.8,11,12,4,5,36,Yellow
1306396782,37,88,205,0,0,32,8,12,18,28,171,1.3,2.2,1.2,1.5,2.1,10,12,6,6,55,Green
1306382972,41,66,59,0,0,0,0,25,23,35,59,0.9,1.5,0,1.6,1,10,11,6,6,43,Red
1306412060,121,186,114,0,0,10,3,10,10,19,63,1.5,2,0.8,1.9,1.3,12,14,6,6,39,Green
1306382676,49,78,68,0,0,6,3,8,8,11,56,1.4,1.4,0.7,1.6,0.8,10,13,6,6,32,Green
1306401782,26,62,102,0,0,28,7,15,17,20,247,1.1,1.6,1.3,0.9,0.6,8,9,4,4,99,Red
1306463925,59,97,100,0,0,32,27,11,11,24,32,1.1,1.5,2,1.4,1.3,10,11,6,6,15,Green
1306405313,40,88,128,0,0,20,3,25,25,37,224,1.2,1.4,0.5,1.4,0.4,10,11,6,6,100,Green
1306404696,56,108,134,0,0,17,23,11,12,20,133,1.1,1.6,1.6,1.4,1.1,10,11,6,6,50,Green
1306397785,51,67,34,0,0,1,0,1,1,2,26,1,1.1,0.4,0.4,1,10,10,1,1,19,Green
1306464404,32,49,64,0,0,5,4,4,4,5,22,0.8,1.1,0.6,0.9,1.3,7,8,4,4,14,Red
1306386882,54,111,87,1,1,37,30,5,5,10,139,1.3,1.7,1.1,1.3,0.6,10,10,5,5,51,Green
1306403831,61,94,53,0,0,2,1,5,5,9,51,1.3,1.4,0.4,1.1,1.7,10,10,5,5,21,Green
1306381673,49,96,138,0,0,20,10,5,4,9,214,1.1,1.4,1.2,1.2,1.3,10,13,5,5,55,Green
1306412754,81,142,159,0,0,9,6,13,13,28,198,1.3,1.9,0.5,1.3,0.7,13,16,6,6,71,Green
1306386913,54,85,48,0,0,1,0,1,0,1,26,1,0.9,0.4,0.4,0.9,10,11,1,1,13,Yellow
1306407350,51,106,168,0,0,12,11,21,21,25,108,1.1,2.2,1,1.1,1.9,10,13,6,6,40,Green
1306463452,57,90,77,0,0,12,10,6,5,8,43,0.9,1.7,0.5,0.9,1.6,10,11,4,4,26,Green
1306381686,45,69,79,0,0,6,1,6,6,8,101,1.2,1.6,0.8,1.4,1.3,11,13,6,6,30,Green
1306381894,40,91,86,0,0,37,22,6,6,13,138,1.4,1.4,0.7,1.1,0.6,10,12,6,6,64,Green
1306381950,37,69,75,0,1,8,6,33,33,40,24,1.3,1.5,0.5,0.9,1.5,10,11,6,6,18,Green
1306381995,47,90,117,0,0,9,8,13,10,27,79,1.1,1.3,0.9,1.4,1.2,10,10,6,6,42,Green
1306463660,63,125,181,0,0,25,24,7,12,23,291,1,1.6,1.1,1.1,0.8,10,15,5,5,105,Green
1306464493,19,64,66,0,1,18,6,10,10,26,23,1,1.5,0.6,1.4,1.5,10,11,6,6,15,Green
1306382000,64,98,58,0,1,5,9,8,8,13,227,1.2,1.7,0.5,0.8,0.5,10,10,4,5,93,Green
1306382915,59,96,74,1,1,12,28,35,34,39,63,1.1,1.7,1.2,1.4,1.3,10,11,6,6,27,Green
1306464221,53,71,80,0,0,10,6,2,2,2,52,1.2,1.5,0.9,0.6,1.2,10,10,2,2,22,Green
1306463603,40,86,62,0,0,0,1,11,11,18,25,1.1,1.3,0,1.2,0.8,10,11,6,6,13,Green
1306381982,55,120,110,0,0,3,2,14,11,31,48,1.2,1.8,0.8,1.2,1.9,11,12,6,6,16,Yellow
1306386850,48,71,45,0,0,6,7,17,20,20,27,1.1,1.9,0.5,1.3,1.5,10,10,6,6,16,Green
