NN = 1
   a   b   c   <-- classified as
 140  64   8 |   a = Green
  14  14   4 |   b = Yellow
   3   5  19 |   c = Red

NN = 2
   a   b   c   <-- classified as
 134  65  13 |   a = Green
  16  10   6 |   b = Yellow
   2   4  21 |   c = Red

NN = 3
   a   b   c   <-- classified as
 128  72  12 |   a = Green
  13  13   6 |   b = Yellow
   2   4  21 |   c = Red

NN = 4
   a   b   c   <-- classified as
 134  66  12 |   a = Green
  16  10   6 |   b = Yellow
   1   6  20 |   c = Red

NN = 5
   a   b   c   <-- classified as
 130  72  10 |   a = Green
  15  14   3 |   b = Yellow
   3   4  20 |   c = Red

NN = 6
   a   b   c   <-- classified as
 134  66  12 |   a = Green
  14  13   5 |   b = Yellow
   1   7  19 |   c = Red

NN = 7
   a   b   c   <-- classified as
 142  56  14 |   a = Green
  13  16   3 |   b = Yellow
   1   6  20 |   c = Red

NN = 8
   a   b   c   <-- classified as
 141  58  13 |   a = Green
  16  13   3 |   b = Yellow
   4   4  19 |   c = Red

NN = 9
   a   b   c   <-- classified as
 130  72  10 |   a = Green
  14  13   5 |   b = Yellow
   1   5  21 |   c = Red

NN = 10
   a   b   c   <-- classified as
 135  68   9 |   a = Green
  14  12   6 |   b = Yellow
   2   4  21 |   c = Red

NN = 11
   a   b   c   <-- classified as
 127  75  10 |   a = Green
  15  13   4 |   b = Yellow
   2   4  21 |   c = Red

NN = 12
   a   b   c   <-- classified as
 132  72   8 |   a = Green
  16  12   4 |   b = Yellow
   2   6  19 |   c = Red

NN = 13
   a   b   c   <-- classified as
 136  63  13 |   a = Green
  14  13   5 |   b = Yellow
   2   6  19 |   c = Red

NN = 14
   a   b   c   <-- classified as
 134  65  13 |   a = Green
  19  10   3 |   b = Yellow
   1   6  20 |   c = Red

NN = 15
   a   b   c   <-- classified as
 140  64   8 |   a = Green
  15  13   4 |   b = Yellow
   2   5  20 |   c = Red

NN = 16
   a   b   c   <-- classified as
 135  65  12 |   a = Green
  17  10   5 |   b = Yellow
   2   6  19 |   c = Red

NN = 17
   a   b   c   <-- classified as
 138  68   6 |   a = Green
  15  11   6 |   b = Yellow
   2   5  20 |   c = Red

NN = 18
   a   b   c   <-- classified as
 132  74   6 |   a = Green
  15  14   3 |   b = Yellow
   1   5  21 |   c = Red

NN = 19
   a   b   c   <-- classified as
 138  66   8 |   a = Green
  13  13   6 |   b = Yellow
   1   6  20 |   c = Red

NN = 20
   a   b   c   <-- classified as
 139  67   6 |   a = Green
  17  11   4 |   b = Yellow
   2   4  21 |   c = Red

NN = 21
   a   b   c   <-- classified as
 137  63  12 |   a = Green
  12  14   6 |   b = Yellow
   2   4  21 |   c = Red

NN = 22
   a   b   c   <-- classified as
 132  71   9 |   a = Green
  16  11   5 |   b = Yellow
   1   5  21 |   c = Red

NN = 23
   a   b   c   <-- classified as
 134  72   6 |   a = Green
  14  14   4 |   b = Yellow
   2   6  19 |   c = Red

